{
  "__type__": "cc.SpriteFrame",
  "content": {
    "name": "tex_ground_03",
    "texture": "4ae0499b-175b-4744-8da2-92da61cbf704",
    "atlas": "",
    "rect": [
      0,
      0,
      64,
      64
    ],
    "offset": [
      0,
      0
    ],
    "originalSize": [
      64,
      64
    ],
    "capInsets": [
      0,
      0,
      0,
      0
    ]
  }
}