{
  "__type__": "cc.SpriteFrame",
  "content": {
    "name": "color_green",
    "texture": "95712c35-cd93-410c-9197-01fea85b7456",
    "atlas": "",
    "rect": [
      0,
      0,
      1024,
      1024
    ],
    "offset": [
      0,
      0
    ],
    "originalSize": [
      1024,
      1024
    ],
    "capInsets": [
      0,
      0,
      0,
      0
    ]
  }
}