{
  "__type__": "cc.SpriteFrame",
  "content": {
    "name": "B_Obama",
    "texture": "320b4af0-1ea2-4d77-b10d-f86433b9a10c",
    "atlas": "",
    "rect": [
      0,
      0,
      112,
      128
    ],
    "offset": [
      -8,
      0
    ],
    "originalSize": [
      128,
      128
    ],
    "capInsets": [
      0,
      0,
      0,
      0
    ]
  }
}