{
  "__type__": "cc.Model",
  "_name": "map3_village",
  "_objFlags": 0,
  "_native": "",
  "_nodes": [
    {
      "name": "RootNode",
      "scale": [
        1,
        1,
        1
      ],
      "children": [
        1,
        2,
        3,
        4,
        5
      ],
      "position": [
        0,
        0,
        0
      ],
      "quat": [
        0,
        0,
        0,
        1
      ],
      "path": ""
    },
    {
      "name": "vien",
      "scale": [
        1,
        1,
        1
      ],
      "mesh": 0,
      "parent": null,
      "position": [
        0,
        0,
        0
      ],
      "quat": [
        0,
        0,
        0,
        1
      ],
      "path": "vien"
    },
    {
      "name": "day",
      "scale": [
        1,
        1,
        1
      ],
      "mesh": 1,
      "parent": null,
      "position": [
        0,
        0,
        0
      ],
      "quat": [
        0,
        0,
        0,
        1
      ],
      "path": "day"
    },
    {
      "name": "glass",
      "scale": [
        1,
        1,
        1
      ],
      "mesh": 4,
      "parent": null,
      "position": [
        0,
        0,
        0
      ],
      "quat": [
        0,
        0,
        0,
        1
      ],
      "path": "glass"
    },
    {
      "name": "nen",
      "scale": [
        1,
        1,
        1
      ],
      "mesh": 2,
      "parent": null,
      "position": [
        0,
        0,
        0
      ],
      "quat": [
        0,
        0,
        0,
        1
      ],
      "path": "nen"
    },
    {
      "name": "nui",
      "scale": [
        1,
        1,
        1
      ],
      "mesh": 3,
      "parent": null,
      "position": [
        0,
        0,
        0
      ],
      "quat": [
        0,
        0,
        0,
        1
      ],
      "path": "nui"
    }
  ],
  "_precomputeJointMatrix": false
}