{
    "asset": {
        "generator": "FBX2glTF v0.9.7",
        "version": "2.0"
    },
    "scene": 0,
    "buffers": [
        {
            "byteLength": 153432,
            "uri": "buffer.bin"
        }
    ],
    "bufferViews": [
        {
            "buffer": 0,
            "byteLength": 136,
            "byteOffset": 0
        },
        {
            "buffer": 0,
            "byteLength": 408,
            "byteOffset": 136
        },
        {
            "buffer": 0,
            "byteLength": 544,
            "byteOffset": 544
        },
        {
            "buffer": 0,
            "byteLength": 544,
            "byteOffset": 1088
        },
        {
            "buffer": 0,
            "byteLength": 408,
            "byteOffset": 1632
        },
        {
            "buffer": 0,
            "byteLength": 544,
            "byteOffset": 2040
        },
        {
            "buffer": 0,
            "byteLength": 544,
            "byteOffset": 2584
        },
        {
            "buffer": 0,
            "byteLength": 408,
            "byteOffset": 3128
        },
        {
            "buffer": 0,
            "byteLength": 544,
            "byteOffset": 3536
        },
        {
            "buffer": 0,
            "byteLength": 408,
            "byteOffset": 4080
        },
        {
            "buffer": 0,
            "byteLength": 544,
            "byteOffset": 4488
        },
        {
            "buffer": 0,
            "byteLength": 408,
            "byteOffset": 5032
        },
        {
            "buffer": 0,
            "byteLength": 544,
            "byteOffset": 5440
        },
        {
            "buffer": 0,
            "byteLength": 408,
            "byteOffset": 5984
        },
        {
            "buffer": 0,
            "byteLength": 544,
            "byteOffset": 6392
        },
        {
            "buffer": 0,
            "byteLength": 408,
            "byteOffset": 6936
        },
        {
            "buffer": 0,
            "byteLength": 544,
            "byteOffset": 7344
        },
        {
            "buffer": 0,
            "byteLength": 408,
            "byteOffset": 7888
        },
        {
            "buffer": 0,
            "byteLength": 544,
            "byteOffset": 8296
        },
        {
            "buffer": 0,
            "byteLength": 408,
            "byteOffset": 8840
        },
        {
            "buffer": 0,
            "byteLength": 544,
            "byteOffset": 9248
        },
        {
            "buffer": 0,
            "byteLength": 408,
            "byteOffset": 9792
        },
        {
            "buffer": 0,
            "byteLength": 544,
            "byteOffset": 10200
        },
        {
            "buffer": 0,
            "byteLength": 408,
            "byteOffset": 10744
        },
        {
            "buffer": 0,
            "byteLength": 544,
            "byteOffset": 11152
        },
        {
            "buffer": 0,
            "byteLength": 408,
            "byteOffset": 11696
        },
        {
            "buffer": 0,
            "byteLength": 544,
            "byteOffset": 12104
        },
        {
            "buffer": 0,
            "byteLength": 408,
            "byteOffset": 12648
        },
        {
            "buffer": 0,
            "byteLength": 544,
            "byteOffset": 13056
        },
        {
            "buffer": 0,
            "byteLength": 408,
            "byteOffset": 13600
        },
        {
            "buffer": 0,
            "byteLength": 544,
            "byteOffset": 14008
        },
        {
            "buffer": 0,
            "byteLength": 544,
            "byteOffset": 14552
        },
        {
            "buffer": 0,
            "byteLength": 544,
            "byteOffset": 15096
        },
        {
            "buffer": 0,
            "byteLength": 544,
            "byteOffset": 15640
        },
        {
            "buffer": 0,
            "byteLength": 544,
            "byteOffset": 16184
        },
        {
            "buffer": 0,
            "byteLength": 544,
            "byteOffset": 16728
        },
        {
            "buffer": 0,
            "byteLength": 544,
            "byteOffset": 17272
        },
        {
            "buffer": 0,
            "byteLength": 9816,
            "byteOffset": 17816,
            "target": 34963
        },
        {
            "buffer": 0,
            "byteLength": 12708,
            "byteOffset": 27632,
            "target": 34962
        },
        {
            "buffer": 0,
            "byteLength": 12708,
            "byteOffset": 40340,
            "target": 34962
        },
        {
            "buffer": 0,
            "byteLength": 8472,
            "byteOffset": 53048,
            "target": 34962
        },
        {
            "buffer": 0,
            "byteLength": 8472,
            "byteOffset": 61520,
            "target": 34962
        },
        {
            "buffer": 0,
            "byteLength": 8472,
            "byteOffset": 69992,
            "target": 34962
        },
        {
            "buffer": 0,
            "byteLength": 16944,
            "byteOffset": 78464,
            "target": 34962
        },
        {
            "buffer": 0,
            "byteLength": 6528,
            "byteOffset": 95408,
            "target": 34963
        },
        {
            "buffer": 0,
            "byteLength": 6936,
            "byteOffset": 101936,
            "target": 34962
        },
        {
            "buffer": 0,
            "byteLength": 6936,
            "byteOffset": 108872,
            "target": 34962
        },
        {
            "buffer": 0,
            "byteLength": 4624,
            "byteOffset": 115808,
            "target": 34962
        },
        {
            "buffer": 0,
            "byteLength": 4624,
            "byteOffset": 120432,
            "target": 34962
        },
        {
            "buffer": 0,
            "byteLength": 4624,
            "byteOffset": 125056,
            "target": 34962
        },
        {
            "buffer": 0,
            "byteLength": 9248,
            "byteOffset": 129680,
            "target": 34962
        },
        {
            "buffer": 0,
            "byteLength": 1320,
            "byteOffset": 138928,
            "target": 34963
        },
        {
            "buffer": 0,
            "byteLength": 2184,
            "byteOffset": 140248,
            "target": 34962
        },
        {
            "buffer": 0,
            "byteLength": 2184,
            "byteOffset": 142432,
            "target": 34962
        },
        {
            "buffer": 0,
            "byteLength": 1456,
            "byteOffset": 144616,
            "target": 34962
        },
        {
            "buffer": 0,
            "byteLength": 1456,
            "byteOffset": 146072,
            "target": 34962
        },
        {
            "buffer": 0,
            "byteLength": 1456,
            "byteOffset": 147528,
            "target": 34962
        },
        {
            "buffer": 0,
            "byteLength": 2912,
            "byteOffset": 148984,
            "target": 34962
        },
        {
            "buffer": 0,
            "byteLength": 960,
            "byteOffset": 151896
        },
        {
            "buffer": 0,
            "byteLength": 576,
            "byteOffset": 152856
        }
    ],
    "scenes": [
        {
            "name": "Root Scene",
            "nodes": [
                0
            ]
        }
    ],
    "accessors": [
        {
            "componentType": 5126,
            "type": "SCALAR",
            "count": 34,
            "bufferView": 0,
            "byteOffset": 0,
            "min": [
                0.0
            ],
            "max": [
                1.375
            ]
        },
        {
            "componentType": 5126,
            "type": "VEC3",
            "count": 34,
            "bufferView": 1,
            "byteOffset": 0
        },
        {
            "componentType": 5126,
            "type": "VEC4",
            "count": 34,
            "bufferView": 2,
            "byteOffset": 0
        },
        {
            "componentType": 5126,
            "type": "VEC4",
            "count": 34,
            "bufferView": 3,
            "byteOffset": 0
        },
        {
            "componentType": 5126,
            "type": "VEC3",
            "count": 34,
            "bufferView": 4,
            "byteOffset": 0
        },
        {
            "componentType": 5126,
            "type": "VEC4",
            "count": 34,
            "bufferView": 5,
            "byteOffset": 0
        },
        {
            "componentType": 5126,
            "type": "VEC4",
            "count": 34,
            "bufferView": 6,
            "byteOffset": 0
        },
        {
            "componentType": 5126,
            "type": "VEC3",
            "count": 34,
            "bufferView": 7,
            "byteOffset": 0
        },
        {
            "componentType": 5126,
            "type": "VEC4",
            "count": 34,
            "bufferView": 8,
            "byteOffset": 0
        },
        {
            "componentType": 5126,
            "type": "VEC3",
            "count": 34,
            "bufferView": 9,
            "byteOffset": 0
        },
        {
            "componentType": 5126,
            "type": "VEC4",
            "count": 34,
            "bufferView": 10,
            "byteOffset": 0
        },
        {
            "componentType": 5126,
            "type": "VEC3",
            "count": 34,
            "bufferView": 11,
            "byteOffset": 0
        },
        {
            "componentType": 5126,
            "type": "VEC4",
            "count": 34,
            "bufferView": 12,
            "byteOffset": 0
        },
        {
            "componentType": 5126,
            "type": "VEC3",
            "count": 34,
            "bufferView": 13,
            "byteOffset": 0
        },
        {
            "componentType": 5126,
            "type": "VEC4",
            "count": 34,
            "bufferView": 14,
            "byteOffset": 0
        },
        {
            "componentType": 5126,
            "type": "VEC3",
            "count": 34,
            "bufferView": 15,
            "byteOffset": 0
        },
        {
            "componentType": 5126,
            "type": "VEC4",
            "count": 34,
            "bufferView": 16,
            "byteOffset": 0
        },
        {
            "componentType": 5126,
            "type": "VEC3",
            "count": 34,
            "bufferView": 17,
            "byteOffset": 0
        },
        {
            "componentType": 5126,
            "type": "VEC4",
            "count": 34,
            "bufferView": 18,
            "byteOffset": 0
        },
        {
            "componentType": 5126,
            "type": "VEC3",
            "count": 34,
            "bufferView": 19,
            "byteOffset": 0
        },
        {
            "componentType": 5126,
            "type": "VEC4",
            "count": 34,
            "bufferView": 20,
            "byteOffset": 0
        },
        {
            "componentType": 5126,
            "type": "VEC3",
            "count": 34,
            "bufferView": 21,
            "byteOffset": 0
        },
        {
            "componentType": 5126,
            "type": "VEC4",
            "count": 34,
            "bufferView": 22,
            "byteOffset": 0
        },
        {
            "componentType": 5126,
            "type": "VEC3",
            "count": 34,
            "bufferView": 23,
            "byteOffset": 0
        },
        {
            "componentType": 5126,
            "type": "VEC4",
            "count": 34,
            "bufferView": 24,
            "byteOffset": 0
        },
        {
            "componentType": 5126,
            "type": "VEC3",
            "count": 34,
            "bufferView": 25,
            "byteOffset": 0
        },
        {
            "componentType": 5126,
            "type": "VEC4",
            "count": 34,
            "bufferView": 26,
            "byteOffset": 0
        },
        {
            "componentType": 5126,
            "type": "VEC3",
            "count": 34,
            "bufferView": 27,
            "byteOffset": 0
        },
        {
            "componentType": 5126,
            "type": "VEC4",
            "count": 34,
            "bufferView": 28,
            "byteOffset": 0
        },
        {
            "componentType": 5126,
            "type": "VEC3",
            "count": 34,
            "bufferView": 29,
            "byteOffset": 0
        },
        {
            "componentType": 5126,
            "type": "VEC4",
            "count": 34,
            "bufferView": 30,
            "byteOffset": 0
        },
        {
            "componentType": 5126,
            "type": "VEC4",
            "count": 34,
            "bufferView": 31,
            "byteOffset": 0
        },
        {
            "componentType": 5126,
            "type": "VEC4",
            "count": 34,
            "bufferView": 32,
            "byteOffset": 0
        },
        {
            "componentType": 5126,
            "type": "VEC4",
            "count": 34,
            "bufferView": 33,
            "byteOffset": 0
        },
        {
            "componentType": 5126,
            "type": "VEC4",
            "count": 34,
            "bufferView": 34,
            "byteOffset": 0
        },
        {
            "componentType": 5126,
            "type": "VEC4",
            "count": 34,
            "bufferView": 35,
            "byteOffset": 0
        },
        {
            "componentType": 5126,
            "type": "VEC4",
            "count": 34,
            "bufferView": 36,
            "byteOffset": 0
        },
        {
            "componentType": 5123,
            "type": "SCALAR",
            "count": 4908,
            "bufferView": 37,
            "byteOffset": 0
        },
        {
            "componentType": 5126,
            "type": "VEC3",
            "count": 1059,
            "bufferView": 38,
            "byteOffset": 0,
            "min": [
                -0.00805865041911602,
                -1.35396003315691e-05,
                -0.00998892728239298
            ],
            "max": [
                0.00806283857673407,
                0.0279839802533388,
                0.0099889300763607
            ]
        },
        {
            "componentType": 5126,
            "type": "VEC3",
            "count": 1059,
            "bufferView": 39,
            "byteOffset": 0
        },
        {
            "componentType": 5126,
            "type": "VEC2",
            "count": 1059,
            "bufferView": 40,
            "byteOffset": 0
        },
        {
            "componentType": 5126,
            "type": "VEC2",
            "count": 1059,
            "bufferView": 41,
            "byteOffset": 0
        },
        {
            "componentType": 5123,
            "type": "VEC4",
            "count": 1059,
            "bufferView": 42,
            "byteOffset": 0
        },
        {
            "componentType": 5126,
            "type": "VEC4",
            "count": 1059,
            "bufferView": 43,
            "byteOffset": 0
        },
        {
            "componentType": 5123,
            "type": "SCALAR",
            "count": 3264,
            "bufferView": 44,
            "byteOffset": 0
        },
        {
            "componentType": 5126,
            "type": "VEC3",
            "count": 578,
            "bufferView": 45,
            "byteOffset": 0,
            "min": [
                -0.00756501918658614,
                0.0106965005397797,
                -0.00127332203555852
            ],
            "max": [
                0.00756501918658614,
                0.0157318953424692,
                0.00713813398033381
            ]
        },
        {
            "componentType": 5126,
            "type": "VEC3",
            "count": 578,
            "bufferView": 46,
            "byteOffset": 0
        },
        {
            "componentType": 5126,
            "type": "VEC2",
            "count": 578,
            "bufferView": 47,
            "byteOffset": 0
        },
        {
            "componentType": 5126,
            "type": "VEC2",
            "count": 578,
            "bufferView": 48,
            "byteOffset": 0
        },
        {
            "componentType": 5123,
            "type": "VEC4",
            "count": 578,
            "bufferView": 49,
            "byteOffset": 0
        },
        {
            "componentType": 5126,
            "type": "VEC4",
            "count": 578,
            "bufferView": 50,
            "byteOffset": 0
        },
        {
            "componentType": 5123,
            "type": "SCALAR",
            "count": 660,
            "bufferView": 51,
            "byteOffset": 0
        },
        {
            "componentType": 5126,
            "type": "VEC3",
            "count": 182,
            "bufferView": 52,
            "byteOffset": 0,
            "min": [
                -0.00255490466952324,
                0.0155833913013339,
                -0.000937609351240098
            ],
            "max": [
                0.00255490466952324,
                0.0165759548544884,
                0.00626365281641483
            ]
        },
        {
            "componentType": 5126,
            "type": "VEC3",
            "count": 182,
            "bufferView": 53,
            "byteOffset": 0
        },
        {
            "componentType": 5126,
            "type": "VEC2",
            "count": 182,
            "bufferView": 54,
            "byteOffset": 0
        },
        {
            "componentType": 5126,
            "type": "VEC2",
            "count": 182,
            "bufferView": 55,
            "byteOffset": 0
        },
        {
            "componentType": 5123,
            "type": "VEC4",
            "count": 182,
            "bufferView": 56,
            "byteOffset": 0
        },
        {
            "componentType": 5126,
            "type": "VEC4",
            "count": 182,
            "bufferView": 57,
            "byteOffset": 0
        },
        {
            "componentType": 5126,
            "type": "MAT4",
            "count": 15,
            "bufferView": 58,
            "byteOffset": 0
        },
        {
            "componentType": 5126,
            "type": "MAT4",
            "count": 9,
            "bufferView": 59,
            "byteOffset": 0
        }
    ],
    "samplers": [
        {}
    ],
    "materials": [
        {
            "name": "lambert25",
            "alphaMode": "OPAQUE",
            "extras": {
                "fromFBX": {
                    "shadingModel": "Lambert",
                    "isTruePBR": false
                }
            },
            "pbrMetallicRoughness": {
                "baseColorFactor": [
                    0.400000005960464,
                    0.400000005960464,
                    0.400000005960464,
                    1.0
                ],
                "metallicFactor": 0.200000002980232,
                "roughnessFactor": 0.800000011920929
            }
        },
        {
            "name": "lambert26",
            "alphaMode": "OPAQUE",
            "extras": {
                "fromFBX": {
                    "shadingModel": "Lambert",
                    "isTruePBR": false
                }
            },
            "pbrMetallicRoughness": {
                "baseColorFactor": [
                    0.400000005960464,
                    0.400000005960464,
                    0.400000005960464,
                    1.0
                ],
                "metallicFactor": 0.200000002980232,
                "roughnessFactor": 0.800000011920929
            }
        }
    ],
    "meshes": [
        {
            "name": "AmongUS",
            "primitives": [
                {
                    "material": 0,
                    "mode": 4,
                    "attributes": {
                        "JOINTS_0": 42,
                        "NORMAL": 39,
                        "POSITION": 38,
                        "TEXCOORD_0": 40,
                        "TEXCOORD_1": 41,
                        "WEIGHTS_0": 43
                    },
                    "indices": 37
                },
                {
                    "material": 1,
                    "mode": 4,
                    "attributes": {
                        "JOINTS_0": 49,
                        "NORMAL": 46,
                        "POSITION": 45,
                        "TEXCOORD_0": 47,
                        "TEXCOORD_1": 48,
                        "WEIGHTS_0": 50
                    },
                    "indices": 44
                }
            ]
        },
        {
            "name": "Luoi",
            "primitives": [
                {
                    "material": 1,
                    "mode": 4,
                    "attributes": {
                        "JOINTS_0": 56,
                        "NORMAL": 53,
                        "POSITION": 52,
                        "TEXCOORD_0": 54,
                        "TEXCOORD_1": 55,
                        "WEIGHTS_0": 57
                    },
                    "indices": 51
                }
            ]
        }
    ],
    "skins": [
        {
            "joints": [
                5,
                6,
                7,
                8,
                9,
                11,
                22,
                23,
                24,
                25,
                26,
                27,
                28,
                29,
                10
            ],
            "inverseBindMatrices": 58,
            "skeleton": 5
        },
        {
            "joints": [
                13,
                14,
                15,
                16,
                17,
                18,
                19,
                20,
                21
            ],
            "inverseBindMatrices": 59,
            "skeleton": 13
        }
    ],
    "animations": [
        {
            "name": "AmongUs_Attack",
            "channels": [
                {
                    "sampler": 0,
                    "target": {
                        "node": 5,
                        "path": "translation"
                    }
                },
                {
                    "sampler": 1,
                    "target": {
                        "node": 5,
                        "path": "rotation"
                    }
                },
                {
                    "sampler": 2,
                    "target": {
                        "node": 6,
                        "path": "rotation"
                    }
                },
                {
                    "sampler": 3,
                    "target": {
                        "node": 7,
                        "path": "translation"
                    }
                },
                {
                    "sampler": 4,
                    "target": {
                        "node": 7,
                        "path": "rotation"
                    }
                },
                {
                    "sampler": 5,
                    "target": {
                        "node": 8,
                        "path": "rotation"
                    }
                },
                {
                    "sampler": 6,
                    "target": {
                        "node": 9,
                        "path": "translation"
                    }
                },
                {
                    "sampler": 7,
                    "target": {
                        "node": 9,
                        "path": "rotation"
                    }
                },
                {
                    "sampler": 8,
                    "target": {
                        "node": 10,
                        "path": "translation"
                    }
                },
                {
                    "sampler": 9,
                    "target": {
                        "node": 10,
                        "path": "rotation"
                    }
                },
                {
                    "sampler": 10,
                    "target": {
                        "node": 11,
                        "path": "translation"
                    }
                },
                {
                    "sampler": 11,
                    "target": {
                        "node": 11,
                        "path": "rotation"
                    }
                },
                {
                    "sampler": 12,
                    "target": {
                        "node": 13,
                        "path": "translation"
                    }
                },
                {
                    "sampler": 13,
                    "target": {
                        "node": 13,
                        "path": "rotation"
                    }
                },
                {
                    "sampler": 14,
                    "target": {
                        "node": 14,
                        "path": "translation"
                    }
                },
                {
                    "sampler": 15,
                    "target": {
                        "node": 14,
                        "path": "rotation"
                    }
                },
                {
                    "sampler": 16,
                    "target": {
                        "node": 15,
                        "path": "translation"
                    }
                },
                {
                    "sampler": 17,
                    "target": {
                        "node": 15,
                        "path": "rotation"
                    }
                },
                {
                    "sampler": 18,
                    "target": {
                        "node": 16,
                        "path": "translation"
                    }
                },
                {
                    "sampler": 19,
                    "target": {
                        "node": 16,
                        "path": "rotation"
                    }
                },
                {
                    "sampler": 20,
                    "target": {
                        "node": 17,
                        "path": "translation"
                    }
                },
                {
                    "sampler": 21,
                    "target": {
                        "node": 17,
                        "path": "rotation"
                    }
                },
                {
                    "sampler": 22,
                    "target": {
                        "node": 18,
                        "path": "translation"
                    }
                },
                {
                    "sampler": 23,
                    "target": {
                        "node": 18,
                        "path": "rotation"
                    }
                },
                {
                    "sampler": 24,
                    "target": {
                        "node": 19,
                        "path": "translation"
                    }
                },
                {
                    "sampler": 25,
                    "target": {
                        "node": 19,
                        "path": "rotation"
                    }
                },
                {
                    "sampler": 26,
                    "target": {
                        "node": 20,
                        "path": "translation"
                    }
                },
                {
                    "sampler": 27,
                    "target": {
                        "node": 20,
                        "path": "rotation"
                    }
                },
                {
                    "sampler": 28,
                    "target": {
                        "node": 21,
                        "path": "translation"
                    }
                },
                {
                    "sampler": 29,
                    "target": {
                        "node": 21,
                        "path": "rotation"
                    }
                },
                {
                    "sampler": 30,
                    "target": {
                        "node": 22,
                        "path": "rotation"
                    }
                },
                {
                    "sampler": 31,
                    "target": {
                        "node": 23,
                        "path": "rotation"
                    }
                },
                {
                    "sampler": 32,
                    "target": {
                        "node": 24,
                        "path": "rotation"
                    }
                },
                {
                    "sampler": 33,
                    "target": {
                        "node": 26,
                        "path": "rotation"
                    }
                },
                {
                    "sampler": 34,
                    "target": {
                        "node": 27,
                        "path": "rotation"
                    }
                },
                {
                    "sampler": 35,
                    "target": {
                        "node": 28,
                        "path": "rotation"
                    }
                }
            ],
            "samplers": [
                {
                    "input": 0,
                    "interpolation": "LINEAR",
                    "output": 1
                },
                {
                    "input": 0,
                    "interpolation": "LINEAR",
                    "output": 2
                },
                {
                    "input": 0,
                    "interpolation": "LINEAR",
                    "output": 3
                },
                {
                    "input": 0,
                    "interpolation": "LINEAR",
                    "output": 4
                },
                {
                    "input": 0,
                    "interpolation": "LINEAR",
                    "output": 5
                },
                {
                    "input": 0,
                    "interpolation": "LINEAR",
                    "output": 6
                },
                {
                    "input": 0,
                    "interpolation": "LINEAR",
                    "output": 7
                },
                {
                    "input": 0,
                    "interpolation": "LINEAR",
                    "output": 8
                },
                {
                    "input": 0,
                    "interpolation": "LINEAR",
                    "output": 9
                },
                {
                    "input": 0,
                    "interpolation": "LINEAR",
                    "output": 10
                },
                {
                    "input": 0,
                    "interpolation": "LINEAR",
                    "output": 11
                },
                {
                    "input": 0,
                    "interpolation": "LINEAR",
                    "output": 12
                },
                {
                    "input": 0,
                    "interpolation": "LINEAR",
                    "output": 13
                },
                {
                    "input": 0,
                    "interpolation": "LINEAR",
                    "output": 14
                },
                {
                    "input": 0,
                    "interpolation": "LINEAR",
                    "output": 15
                },
                {
                    "input": 0,
                    "interpolation": "LINEAR",
                    "output": 16
                },
                {
                    "input": 0,
                    "interpolation": "LINEAR",
                    "output": 17
                },
                {
                    "input": 0,
                    "interpolation": "LINEAR",
                    "output": 18
                },
                {
                    "input": 0,
                    "interpolation": "LINEAR",
                    "output": 19
                },
                {
                    "input": 0,
                    "interpolation": "LINEAR",
                    "output": 20
                },
                {
                    "input": 0,
                    "interpolation": "LINEAR",
                    "output": 21
                },
                {
                    "input": 0,
                    "interpolation": "LINEAR",
                    "output": 22
                },
                {
                    "input": 0,
                    "interpolation": "LINEAR",
                    "output": 23
                },
                {
                    "input": 0,
                    "interpolation": "LINEAR",
                    "output": 24
                },
                {
                    "input": 0,
                    "interpolation": "LINEAR",
                    "output": 25
                },
                {
                    "input": 0,
                    "interpolation": "LINEAR",
                    "output": 26
                },
                {
                    "input": 0,
                    "interpolation": "LINEAR",
                    "output": 27
                },
                {
                    "input": 0,
                    "interpolation": "LINEAR",
                    "output": 28
                },
                {
                    "input": 0,
                    "interpolation": "LINEAR",
                    "output": 29
                },
                {
                    "input": 0,
                    "interpolation": "LINEAR",
                    "output": 30
                },
                {
                    "input": 0,
                    "interpolation": "LINEAR",
                    "output": 31
                },
                {
                    "input": 0,
                    "interpolation": "LINEAR",
                    "output": 32
                },
                {
                    "input": 0,
                    "interpolation": "LINEAR",
                    "output": 33
                },
                {
                    "input": 0,
                    "interpolation": "LINEAR",
                    "output": 34
                },
                {
                    "input": 0,
                    "interpolation": "LINEAR",
                    "output": 35
                },
                {
                    "input": 0,
                    "interpolation": "LINEAR",
                    "output": 36
                }
            ]
        }
    ],
    "nodes": [
        {
            "name": "RootNode",
            "translation": [
                0.0,
                0.0,
                0.0
            ],
            "rotation": [
                0.0,
                0.0,
                0.0,
                1.0
            ],
            "scale": [
                1.0,
                1.0,
                1.0
            ],
            "children": [
                1,
                3
            ]
        },
        {
            "name": "AmongUS",
            "translation": [
                0.0,
                0.0,
                0.0
            ],
            "rotation": [
                0.0,
                0.0,
                0.0,
                1.0
            ],
            "scale": [
                1.0,
                1.0,
                1.0
            ],
            "children": [
                2
            ],
            "mesh": 0,
            "skin": 0
        },
        {
            "name": "Luoi",
            "translation": [
                0.0,
                0.0,
                0.0
            ],
            "rotation": [
                0.0,
                0.0,
                0.0,
                1.0
            ],
            "scale": [
                1.0,
                1.0,
                1.0
            ],
            "mesh": 1,
            "skin": 1
        },
        {
            "name": "All_ctrl",
            "translation": [
                0.0,
                0.0,
                0.0
            ],
            "rotation": [
                0.0,
                0.0,
                0.0,
                1.0
            ],
            "scale": [
                1.0,
                1.0,
                1.0
            ],
            "children": [
                4
            ]
        },
        {
            "name": "all_joint",
            "translation": [
                0.0,
                0.0,
                0.0
            ],
            "rotation": [
                0.0,
                0.0,
                0.0,
                1.0
            ],
            "scale": [
                1.0,
                1.0,
                1.0
            ],
            "children": [
                5
            ]
        },
        {
            "name": "hip",
            "translation": [
                -2.06726599571994e-05,
                0.010750649496913,
                0.000261787907220423
            ],
            "rotation": [
                0.0,
                0.0,
                0.0,
                1.0
            ],
            "scale": [
                1.0,
                1.0,
                1.0
            ],
            "children": [
                6,
                22,
                26
            ]
        },
        {
            "name": "spine_01",
            "translation": [
                0.0,
                0.0,
                0.0
            ],
            "rotation": [
                0.0,
                0.0,
                0.0,
                1.0
            ],
            "scale": [
                1.0,
                1.0,
                1.0
            ],
            "children": [
                7,
                11
            ]
        },
        {
            "name": "spine_02",
            "translation": [
                1.70663697645068e-05,
                0.00577584328129888,
                -0.000204509604373015
            ],
            "rotation": [
                0.0,
                0.0,
                0.0,
                1.0
            ],
            "scale": [
                1.0,
                1.0,
                1.0
            ],
            "children": [
                8,
                9,
                10
            ]
        },
        {
            "name": "head",
            "translation": [
                9.59556840608951e-17,
                0.00608219299465418,
                -1.68007959383931e-17
            ],
            "rotation": [
                -1.58861257482101e-11,
                -8.32017103675753e-05,
                -1.90935097066358e-07,
                1.0
            ],
            "scale": [
                1.0,
                1.0,
                1.0
            ]
        },
        {
            "name": "back",
            "translation": [
                1.0842021482517e-21,
                -0.00257369480095804,
                -0.00784720573574305
            ],
            "rotation": [
                0.0,
                0.0,
                0.0,
                1.0
            ],
            "scale": [
                1.0,
                1.0,
                1.0
            ]
        },
        {
            "name": "jaw_up",
            "translation": [
                0.0,
                -0.00179415487218648,
                0.00304747698828578
            ],
            "rotation": [
                0.0,
                0.0,
                0.0,
                1.0
            ],
            "scale": [
                1.0,
                1.0,
                1.0
            ]
        },
        {
            "name": "jaw_down",
            "translation": [
                0.0,
                0.00247043999843299,
                -0.00123132392764091
            ],
            "rotation": [
                0.0,
                0.0,
                0.0,
                1.0
            ],
            "scale": [
                1.0,
                1.0,
                1.0
            ],
            "children": [
                12,
                13
            ]
        },
        {
            "name": "jaw_down1",
            "translation": [
                0.0,
                -0.00205848040059209,
                0.00652236258611083
            ],
            "rotation": [
                0.0,
                0.0,
                0.0,
                1.0
            ],
            "scale": [
                1.0,
                1.0,
                1.0
            ]
        },
        {
            "name": "Luoi1",
            "translation": [
                2.23042898142012e-05,
                -0.00124296895228326,
                -0.000912740360945463
            ],
            "rotation": [
                -0.0,
                -0.70710676908493,
                0.0,
                0.70710676908493
            ],
            "scale": [
                1.0,
                1.0,
                1.0
            ],
            "children": [
                14
            ]
        },
        {
            "name": "Luoi2",
            "translation": [
                0.000704610487446189,
                0.0,
                1.55854062294791e-19
            ],
            "rotation": [
                0.0,
                0.0,
                0.0,
                1.0
            ],
            "scale": [
                1.0,
                1.0,
                1.0
            ],
            "children": [
                15
            ]
        },
        {
            "name": "Luoi3",
            "translation": [
                0.000730104802642018,
                0.0,
                1.61817168556595e-19
            ],
            "rotation": [
                0.0,
                0.0,
                0.0,
                1.0
            ],
            "scale": [
                1.0,
                1.0,
                1.0
            ],
            "children": [
                16
            ]
        },
        {
            "name": "Luoi4",
            "translation": [
                0.000752364401705563,
                0.0,
                1.67509230996119e-19
            ],
            "rotation": [
                0.0,
                0.0,
                0.0,
                1.0
            ],
            "scale": [
                1.0,
                1.0,
                1.0
            ],
            "children": [
                17
            ]
        },
        {
            "name": "Luoi5",
            "translation": [
                0.000736771035008132,
                0.0,
                1.62088225303571e-19
            ],
            "rotation": [
                0.0,
                0.0,
                0.0,
                1.0
            ],
            "scale": [
                1.0,
                1.0,
                1.0
            ],
            "children": [
                18
            ]
        },
        {
            "name": "Luoi6",
            "translation": [
                0.000753338332287967,
                2.22044599961948e-18,
                1.68051331565374e-19
            ],
            "rotation": [
                0.0,
                -0.0,
                -0.0160193089395761,
                0.999871671199799
            ],
            "scale": [
                1.0,
                1.0,
                1.0
            ],
            "children": [
                19
            ]
        },
        {
            "name": "Luoi7",
            "translation": [
                0.000747368496377021,
                -4.44089199923895e-18,
                1.653408287191e-19
            ],
            "rotation": [
                -3.85137935954083e-34,
                6.08380387256922e-36,
                -0.0157944578677416,
                0.999875247478485
            ],
            "scale": [
                1.0,
                1.0,
                1.0
            ],
            "children": [
                20
            ]
        },
        {
            "name": "Luoi8",
            "translation": [
                0.000753030471969396,
                -4.44089199923895e-18,
                1.66967130426865e-19
            ],
            "rotation": [
                8.73465403715901e-34,
                6.149211517875e-33,
                -0.0167453978210688,
                0.999859809875488
            ],
            "scale": [
                1.0,
                1.0,
                1.0
            ],
            "children": [
                21
            ]
        },
        {
            "name": "Luoi9",
            "translation": [
                0.000740690680686384,
                1.11022295845071e-17,
                1.63985570833614e-19
            ],
            "rotation": [
                -7.70371977754894e-34,
                -0.0,
                0.0,
                1.0
            ],
            "scale": [
                1.0,
                1.0,
                1.0
            ]
        },
        {
            "name": "leg_L",
            "translation": [
                0.00465013552457094,
                -0.00379317277111113,
                0.000159112401888706
            ],
            "rotation": [
                -0.0723621025681496,
                -0.0487258695065975,
                -0.707963943481445,
                0.700839936733246
            ],
            "scale": [
                1.0,
                1.0,
                1.0
            ],
            "children": [
                23
            ]
        },
        {
            "name": "knee_L",
            "translation": [
                0.00354297086596489,
                1.11022299980974e-18,
                2.77555749952435e-19
            ],
            "rotation": [
                -0.000110674533061683,
                0.187327742576599,
                0.00652872817590833,
                0.982275784015656
            ],
            "scale": [
                1.0,
                1.0,
                1.0
            ],
            "children": [
                24
            ]
        },
        {
            "name": "feet_L",
            "translation": [
                0.0031205506529659,
                1.11022299980974e-18,
                -8.32667249857304e-19
            ],
            "rotation": [
                0.0125349489971995,
                -0.775841057300568,
                -0.0102942734956741,
                0.630719900131226
            ],
            "scale": [
                1.0,
                1.0,
                1.0
            ],
            "children": [
                25
            ]
        },
        {
            "name": "feet_L_end",
            "translation": [
                0.00199049687944353,
                0.0,
                -6.93889374881086e-20
            ],
            "rotation": [
                -2.09731829852905e-23,
                0.0,
                -1.98523347012727e-23,
                1.0
            ],
            "scale": [
                1.0,
                1.0,
                1.0
            ]
        },
        {
            "name": "leg_R",
            "translation": [
                -0.00465013738721609,
                -0.00379316788166761,
                0.000159112096298486
            ],
            "rotation": [
                0.700839936733246,
                0.707963943481445,
                -0.0487258695065975,
                0.0723621025681496
            ],
            "scale": [
                1.0,
                1.0,
                1.0
            ],
            "children": [
                27
            ]
        },
        {
            "name": "knee_R",
            "translation": [
                -0.00354298041202128,
                7.43038630623971e-10,
                -1.26160104585438e-09
            ],
            "rotation": [
                -0.000110674533061683,
                0.187327742576599,
                0.00652872817590833,
                0.982275784015656
            ],
            "scale": [
                1.0,
                1.0,
                1.0
            ],
            "children": [
                28
            ]
        },
        {
            "name": "feet_R",
            "translation": [
                -0.00312054716050625,
                -2.22044599961948e-18,
                3.18168646984418e-09
            ],
            "rotation": [
                0.0125351045280695,
                -0.775841057300568,
                -0.0102943992242217,
                0.630719900131226
            ],
            "scale": [
                1.0,
                1.0,
                1.0
            ],
            "children": [
                29
            ]
        },
        {
            "name": "feet_R_end",
            "translation": [
                -0.00199049199000001,
                0.0,
                0.0
            ],
            "rotation": [
                -6.94127924399341e-23,
                -2.64697796016969e-23,
                5.29395592033938e-23,
                1.0
            ],
            "scale": [
                1.0,
                1.0,
                1.0
            ]
        }
    ]
}