{
  "__type__": "cc.Skeleton",
  "_name": "",
  "_objFlags": 0,
  "_native": "",
  "_model": {
    "__uuid__": "d8ae51a9-9737-4a0b-bd57-e3f934522010"
  },
  "_jointIndices": [
    29,
    28,
    21,
    27,
    26,
    25,
    24,
    23,
    22,
    20,
    19,
    12,
    18,
    17,
    16,
    15,
    14,
    13
  ],
  "_skinIndex": 2
}