{
  "__type__": "cc.Skeleton",
  "_name": "",
  "_objFlags": 0,
  "_native": "",
  "_model": {
    "__uuid__": "acd6275c-c4f8-4b2c-9936-6b4c55c4cc3c"
  },
  "_jointIndices": [
    6,
    7,
    8,
    9,
    10,
    35,
    46,
    47,
    48,
    50,
    51,
    52,
    11
  ],
  "_skinIndex": 0
}