{
  "__type__": "cc.Material",
  "_name": "New Material",
  "_objFlags": 0,
  "_native": "",
  "_effectAsset": {
    "__uuid__": "abc2cb62-7852-4525-a90d-d474487b88f2"
  },
  "_techniqueIndex": 0,
  "_techniqueData": {
    "0": {
      "defines": {
        "USE_DIFFUSE_TEXTURE": true,
        "USE_EMISSIVE": true,
        "USE_EMISSIVE_TEXTURE": true
      },
      "props": {
        "diffuseTexture": {
          "__uuid__": "6e4bc133-6493-450e-92cb-1981fc5e031a"
        },
        "emissiveTexture": {
          "__uuid__": "6e4bc133-6493-450e-92cb-1981fc5e031a"
        },
        "emissiveColor": {
          "__type__": "cc.Color",
          "r": 218,
          "g": 216,
          "b": 216,
          "a": 255
        },
        "diffuseColor": {
          "__type__": "cc.Color",
          "r": 216,
          "g": 214,
          "b": 214,
          "a": 255
        }
      }
    }
  }
}