{
  "__type__": "cc.SpriteFrame",
  "content": {
    "name": "Dr_Strange",
    "texture": "bae76bee-dfa2-43c0-ac59-df0aacd9a462",
    "atlas": "",
    "rect": [
      0,
      0,
      128,
      128
    ],
    "offset": [
      0,
      0
    ],
    "originalSize": [
      128,
      128
    ],
    "capInsets": [
      0,
      0,
      0,
      0
    ]
  }
}