{
    "asset": {
        "generator": "FBX2glTF v0.9.7",
        "version": "2.0"
    },
    "scene": 0,
    "buffers": [
        {
            "byteLength": 45736,
            "uri": "buffer.bin"
        }
    ],
    "bufferViews": [
        {
            "buffer": 0,
            "byteLength": 44,
            "byteOffset": 0
        },
        {
            "buffer": 0,
            "byteLength": 132,
            "byteOffset": 44
        },
        {
            "buffer": 0,
            "byteLength": 176,
            "byteOffset": 176
        },
        {
            "buffer": 0,
            "byteLength": 176,
            "byteOffset": 352
        },
        {
            "buffer": 0,
            "byteLength": 176,
            "byteOffset": 528
        },
        {
            "buffer": 0,
            "byteLength": 176,
            "byteOffset": 704
        },
        {
            "buffer": 0,
            "byteLength": 176,
            "byteOffset": 880
        },
        {
            "buffer": 0,
            "byteLength": 176,
            "byteOffset": 1056
        },
        {
            "buffer": 0,
            "byteLength": 132,
            "byteOffset": 1232
        },
        {
            "buffer": 0,
            "byteLength": 176,
            "byteOffset": 1364
        },
        {
            "buffer": 0,
            "byteLength": 5004,
            "byteOffset": 1540,
            "target": 34963
        },
        {
            "buffer": 0,
            "byteLength": 6864,
            "byteOffset": 6544,
            "target": 34962
        },
        {
            "buffer": 0,
            "byteLength": 6864,
            "byteOffset": 13408,
            "target": 34962
        },
        {
            "buffer": 0,
            "byteLength": 4576,
            "byteOffset": 20272,
            "target": 34962
        },
        {
            "buffer": 0,
            "byteLength": 4576,
            "byteOffset": 24848,
            "target": 34962
        },
        {
            "buffer": 0,
            "byteLength": 9152,
            "byteOffset": 29424,
            "target": 34962
        },
        {
            "buffer": 0,
            "byteLength": 240,
            "byteOffset": 38576,
            "target": 34963
        },
        {
            "buffer": 0,
            "byteLength": 396,
            "byteOffset": 38816,
            "target": 34962
        },
        {
            "buffer": 0,
            "byteLength": 396,
            "byteOffset": 39212,
            "target": 34962
        },
        {
            "buffer": 0,
            "byteLength": 264,
            "byteOffset": 39608,
            "target": 34962
        },
        {
            "buffer": 0,
            "byteLength": 264,
            "byteOffset": 39872,
            "target": 34962
        },
        {
            "buffer": 0,
            "byteLength": 528,
            "byteOffset": 40136,
            "target": 34962
        },
        {
            "buffer": 0,
            "byteLength": 744,
            "byteOffset": 40664,
            "target": 34963
        },
        {
            "buffer": 0,
            "byteLength": 804,
            "byteOffset": 41408,
            "target": 34962
        },
        {
            "buffer": 0,
            "byteLength": 804,
            "byteOffset": 42212,
            "target": 34962
        },
        {
            "buffer": 0,
            "byteLength": 536,
            "byteOffset": 43016,
            "target": 34962
        },
        {
            "buffer": 0,
            "byteLength": 536,
            "byteOffset": 43552,
            "target": 34962
        },
        {
            "buffer": 0,
            "byteLength": 1072,
            "byteOffset": 44088,
            "target": 34962
        },
        {
            "buffer": 0,
            "byteLength": 576,
            "byteOffset": 45160
        }
    ],
    "scenes": [
        {
            "name": "Root Scene",
            "nodes": [
                0
            ]
        }
    ],
    "accessors": [
        {
            "componentType": 5126,
            "type": "SCALAR",
            "count": 11,
            "bufferView": 0,
            "byteOffset": 0,
            "min": [
                0.0
            ],
            "max": [
                0.416666656732559
            ]
        },
        {
            "componentType": 5126,
            "type": "VEC3",
            "count": 11,
            "bufferView": 1,
            "byteOffset": 0
        },
        {
            "componentType": 5126,
            "type": "VEC4",
            "count": 11,
            "bufferView": 2,
            "byteOffset": 0
        },
        {
            "componentType": 5126,
            "type": "VEC4",
            "count": 11,
            "bufferView": 3,
            "byteOffset": 0
        },
        {
            "componentType": 5126,
            "type": "VEC4",
            "count": 11,
            "bufferView": 4,
            "byteOffset": 0
        },
        {
            "componentType": 5126,
            "type": "VEC4",
            "count": 11,
            "bufferView": 5,
            "byteOffset": 0
        },
        {
            "componentType": 5126,
            "type": "VEC4",
            "count": 11,
            "bufferView": 6,
            "byteOffset": 0
        },
        {
            "componentType": 5126,
            "type": "VEC4",
            "count": 11,
            "bufferView": 7,
            "byteOffset": 0
        },
        {
            "componentType": 5126,
            "type": "VEC3",
            "count": 11,
            "bufferView": 8,
            "byteOffset": 0
        },
        {
            "componentType": 5126,
            "type": "VEC4",
            "count": 11,
            "bufferView": 9,
            "byteOffset": 0
        },
        {
            "componentType": 5123,
            "type": "SCALAR",
            "count": 2502,
            "bufferView": 10,
            "byteOffset": 0
        },
        {
            "componentType": 5126,
            "type": "VEC3",
            "count": 572,
            "bufferView": 11,
            "byteOffset": 0,
            "min": [
                -0.00805864948779345,
                -1.35421751110698e-05,
                -0.0099889300763607
            ],
            "max": [
                0.00806283950805664,
                0.0139054991304874,
                0.00747392000630498
            ]
        },
        {
            "componentType": 5126,
            "type": "VEC3",
            "count": 572,
            "bufferView": 12,
            "byteOffset": 0
        },
        {
            "componentType": 5126,
            "type": "VEC2",
            "count": 572,
            "bufferView": 13,
            "byteOffset": 0
        },
        {
            "componentType": 5123,
            "type": "VEC4",
            "count": 572,
            "bufferView": 14,
            "byteOffset": 0
        },
        {
            "componentType": 5126,
            "type": "VEC4",
            "count": 572,
            "bufferView": 15,
            "byteOffset": 0
        },
        {
            "componentType": 5123,
            "type": "SCALAR",
            "count": 120,
            "bufferView": 16,
            "byteOffset": 0
        },
        {
            "componentType": 5126,
            "type": "VEC3",
            "count": 33,
            "bufferView": 17,
            "byteOffset": 0,
            "min": [
                -0.00631188973784447,
                0.0128857791423798,
                -0.00447865016758442
            ],
            "max": [
                0.00631659990176558,
                0.0128857791423798,
                0.00601725978776813
            ]
        },
        {
            "componentType": 5126,
            "type": "VEC3",
            "count": 33,
            "bufferView": 18,
            "byteOffset": 0
        },
        {
            "componentType": 5126,
            "type": "VEC2",
            "count": 33,
            "bufferView": 19,
            "byteOffset": 0
        },
        {
            "componentType": 5123,
            "type": "VEC4",
            "count": 33,
            "bufferView": 20,
            "byteOffset": 0
        },
        {
            "componentType": 5126,
            "type": "VEC4",
            "count": 33,
            "bufferView": 21,
            "byteOffset": 0
        },
        {
            "componentType": 5123,
            "type": "SCALAR",
            "count": 372,
            "bufferView": 22,
            "byteOffset": 0
        },
        {
            "componentType": 5126,
            "type": "VEC3",
            "count": 67,
            "bufferView": 23,
            "byteOffset": 0,
            "min": [
                -0.00339214992709458,
                0.0110304690897465,
                -0.00118258397560567
            ],
            "max": [
                0.00364137999713421,
                0.0186982285231352,
                0.00280335592105985
            ]
        },
        {
            "componentType": 5126,
            "type": "VEC3",
            "count": 67,
            "bufferView": 24,
            "byteOffset": 0
        },
        {
            "componentType": 5126,
            "type": "VEC2",
            "count": 67,
            "bufferView": 25,
            "byteOffset": 0
        },
        {
            "componentType": 5123,
            "type": "VEC4",
            "count": 67,
            "bufferView": 26,
            "byteOffset": 0
        },
        {
            "componentType": 5126,
            "type": "VEC4",
            "count": 67,
            "bufferView": 27,
            "byteOffset": 0
        },
        {
            "componentType": 5126,
            "type": "MAT4",
            "count": 9,
            "bufferView": 28,
            "byteOffset": 0
        }
    ],
    "samplers": [
        {}
    ],
    "materials": [
        {
            "name": "among_die_lambert25SG3",
            "alphaMode": "OPAQUE",
            "extras": {
                "fromFBX": {
                    "shadingModel": "Lambert",
                    "isTruePBR": false
                }
            },
            "pbrMetallicRoughness": {
                "baseColorFactor": [
                    0.400000005960464,
                    0.400000005960464,
                    0.400000005960464,
                    1.0
                ],
                "metallicFactor": 0.200000002980232,
                "roughnessFactor": 0.800000011920929
            }
        },
        {
            "name": "among_die_lambert26SG3",
            "alphaMode": "OPAQUE",
            "extras": {
                "fromFBX": {
                    "shadingModel": "Lambert",
                    "isTruePBR": false
                }
            },
            "pbrMetallicRoughness": {
                "baseColorFactor": [
                    0.432000011205673,
                    0.0,
                    0.0,
                    1.0
                ],
                "metallicFactor": 0.200000002980232,
                "roughnessFactor": 0.800000011920929
            }
        },
        {
            "name": "among_die_lambert27SG3",
            "alphaMode": "OPAQUE",
            "extras": {
                "fromFBX": {
                    "shadingModel": "Lambert",
                    "isTruePBR": false
                }
            },
            "pbrMetallicRoughness": {
                "baseColorFactor": [
                    0.800000011920929,
                    0.800000011920929,
                    0.800000011920929,
                    1.0
                ],
                "metallicFactor": 0.200000002980232,
                "roughnessFactor": 0.800000011920929
            }
        }
    ],
    "meshes": [
        {
            "name": "Among_Us_Die1",
            "primitives": [
                {
                    "material": 0,
                    "mode": 4,
                    "attributes": {
                        "JOINTS_0": 14,
                        "NORMAL": 12,
                        "POSITION": 11,
                        "TEXCOORD_0": 13,
                        "WEIGHTS_0": 15
                    },
                    "indices": 10
                },
                {
                    "material": 1,
                    "mode": 4,
                    "attributes": {
                        "JOINTS_0": 20,
                        "NORMAL": 18,
                        "POSITION": 17,
                        "TEXCOORD_0": 19,
                        "WEIGHTS_0": 21
                    },
                    "indices": 16
                },
                {
                    "material": 2,
                    "mode": 4,
                    "attributes": {
                        "JOINTS_0": 26,
                        "NORMAL": 24,
                        "POSITION": 23,
                        "TEXCOORD_0": 25,
                        "WEIGHTS_0": 27
                    },
                    "indices": 22
                }
            ]
        }
    ],
    "skins": [
        {
            "joints": [
                1,
                2,
                3,
                4,
                5,
                6,
                7,
                8,
                9
            ],
            "inverseBindMatrices": 28,
            "skeleton": 1
        }
    ],
    "animations": [
        {
            "name": "Take 001",
            "channels": [
                {
                    "sampler": 0,
                    "target": {
                        "node": 1,
                        "path": "translation"
                    }
                },
                {
                    "sampler": 1,
                    "target": {
                        "node": 1,
                        "path": "rotation"
                    }
                },
                {
                    "sampler": 2,
                    "target": {
                        "node": 3,
                        "path": "rotation"
                    }
                },
                {
                    "sampler": 3,
                    "target": {
                        "node": 4,
                        "path": "rotation"
                    }
                },
                {
                    "sampler": 4,
                    "target": {
                        "node": 5,
                        "path": "rotation"
                    }
                },
                {
                    "sampler": 5,
                    "target": {
                        "node": 6,
                        "path": "rotation"
                    }
                },
                {
                    "sampler": 6,
                    "target": {
                        "node": 7,
                        "path": "rotation"
                    }
                },
                {
                    "sampler": 7,
                    "target": {
                        "node": 10,
                        "path": "translation"
                    }
                },
                {
                    "sampler": 8,
                    "target": {
                        "node": 10,
                        "path": "rotation"
                    }
                }
            ],
            "samplers": [
                {
                    "input": 0,
                    "interpolation": "LINEAR",
                    "output": 1
                },
                {
                    "input": 0,
                    "interpolation": "LINEAR",
                    "output": 2
                },
                {
                    "input": 0,
                    "interpolation": "LINEAR",
                    "output": 3
                },
                {
                    "input": 0,
                    "interpolation": "LINEAR",
                    "output": 4
                },
                {
                    "input": 0,
                    "interpolation": "LINEAR",
                    "output": 5
                },
                {
                    "input": 0,
                    "interpolation": "LINEAR",
                    "output": 6
                },
                {
                    "input": 0,
                    "interpolation": "LINEAR",
                    "output": 7
                },
                {
                    "input": 0,
                    "interpolation": "LINEAR",
                    "output": 8
                },
                {
                    "input": 0,
                    "interpolation": "LINEAR",
                    "output": 9
                }
            ]
        }
    ],
    "nodes": [
        {
            "name": "RootNode",
            "translation": [
                0.0,
                0.0,
                0.0
            ],
            "rotation": [
                0.0,
                0.0,
                0.0,
                1.0
            ],
            "scale": [
                1.0,
                1.0,
                1.0
            ],
            "children": [
                1,
                10,
                11
            ]
        },
        {
            "name": "Among_Die",
            "translation": [
                0.0,
                0.00178294687066227,
                0.0014656858984381
            ],
            "rotation": [
                -0.610586225986481,
                -0.0,
                0.0,
                0.791949808597565
            ],
            "scale": [
                1.0,
                1.0,
                1.0
            ],
            "children": [
                2
            ]
        },
        {
            "name": "hip1",
            "translation": [
                -2.06726654141676e-05,
                0.0107506476342678,
                0.000261787907220423
            ],
            "rotation": [
                0.0,
                0.0,
                0.0,
                1.0
            ],
            "scale": [
                1.0,
                1.0,
                1.0
            ],
            "children": [
                3,
                6,
                9
            ]
        },
        {
            "name": "leg_L",
            "translation": [
                0.00465013552457094,
                -0.00379317277111113,
                0.000159112401888706
            ],
            "rotation": [
                -0.0958245322108269,
                -0.0724406018853188,
                -0.705931425094604,
                0.69801926612854
            ],
            "scale": [
                1.0,
                1.0,
                1.0
            ],
            "children": [
                4
            ]
        },
        {
            "name": "knee_L",
            "translation": [
                0.00354297086596489,
                5.55111499904869e-19,
                0.0
            ],
            "rotation": [
                0.000401023193262517,
                0.114276550710201,
                0.00412257481366396,
                0.993440330028534
            ],
            "scale": [
                1.0,
                1.0,
                1.0
            ],
            "children": [
                5
            ]
        },
        {
            "name": "feet_L",
            "translation": [
                0.0031205506529659,
                1.11022299980974e-18,
                -1.11022299980974e-18
            ],
            "rotation": [
                0.0122298058122396,
                -0.793881952762604,
                -0.0106549942865968,
                0.607855498790741
            ],
            "scale": [
                1.0,
                1.0,
                1.0
            ]
        },
        {
            "name": "leg_R",
            "translation": [
                -0.00465013738721609,
                -0.00379316788166761,
                0.000159112096298486
            ],
            "rotation": [
                0.694678664207458,
                0.70331871509552,
                -0.0944962278008461,
                0.117621392011642
            ],
            "scale": [
                1.0,
                1.0,
                1.0
            ],
            "children": [
                7
            ]
        },
        {
            "name": "knee_R",
            "translation": [
                -0.00354298041202128,
                7.43038630623971e-10,
                -1.26160104585438e-09
            ],
            "rotation": [
                0.000136778398882598,
                0.152118027210236,
                0.00536922458559275,
                0.988347768783569
            ],
            "scale": [
                1.0,
                1.0,
                1.0
            ],
            "children": [
                8
            ]
        },
        {
            "name": "feet_R",
            "translation": [
                -0.00312054716050625,
                -1.66533449971461e-18,
                3.18168646984418e-09
            ],
            "rotation": [
                0.0125351045280695,
                -0.775841057300568,
                -0.0102943992242217,
                0.630719900131226
            ],
            "scale": [
                1.0,
                1.0,
                1.0
            ]
        },
        {
            "name": "Among_Die",
            "translation": [
                2.06726654141676e-05,
                -0.0107506476342678,
                -0.000261787907220423
            ],
            "rotation": [
                0.0,
                0.0,
                0.0,
                1.0
            ],
            "scale": [
                1.0,
                1.0,
                1.0
            ]
        },
        {
            "name": "Among_Die_ctrl",
            "translation": [
                0.0,
                0.00178294687066227,
                0.0014656858984381
            ],
            "rotation": [
                -0.610586225986481,
                -0.0,
                0.0,
                0.791949808597565
            ],
            "scale": [
                1.0,
                1.0,
                1.0
            ]
        },
        {
            "name": "Among_Us_Die1",
            "translation": [
                0.0,
                0.0,
                0.0
            ],
            "rotation": [
                0.0,
                0.0,
                0.0,
                1.0
            ],
            "scale": [
                1.0,
                1.0,
                1.0
            ],
            "mesh": 0,
            "skin": 0
        }
    ]
}