{
  "__type__": "cc.Material",
  "_name": "Red",
  "_objFlags": 0,
  "_native": "",
  "_effectAsset": {
    "__uuid__": "abc2cb62-7852-4525-a90d-d474487b88f2"
  },
  "_techniqueIndex": 0,
  "_techniqueData": {
    "0": {
      "props": {
        "emissiveColor": {
          "__type__": "cc.Color",
          "r": 241,
          "g": 241,
          "b": 241,
          "a": 255
        },
        "diffuseColor": {
          "__type__": "cc.Color",
          "r": 160,
          "g": 160,
          "b": 160,
          "a": 255
        },
        "specularColor": {
          "__type__": "cc.Color",
          "r": 0,
          "g": 0,
          "b": 0,
          "a": 255
        },
        "glossiness": 10,
        "diffuseTexture": {
          "__uuid__": "939ac9e7-66b2-4359-b19e-22f831b272cf"
        },
        "emissiveTexture": {
          "__uuid__": "939ac9e7-66b2-4359-b19e-22f831b272cf"
        }
      },
      "defines": {
        "USE_DIFFUSE_TEXTURE": true,
        "USE_EMISSIVE": true,
        "USE_EMISSIVE_TEXTURE": true,
        "INPUT_IS_GAMMA": false
      }
    }
  }
}