{
  "__type__": "cc.SkeletonAnimationClip",
  "_name": "character_bones|trapman_win_3",
  "_objFlags": 0,
  "_native": ".bin",
  "_duration": 3.4166667461395264,
  "sample": 30,
  "speed": 1,
  "wrapMode": 2,
  "events": [],
  "description": {
    "character_bones/Bone": {
      "position": {
        "offset": 0,
        "frameCount": 71
      },
      "quat": {
        "offset": 284,
        "frameCount": 65
      },
      "scale": {
        "offset": 609,
        "frameCount": 1
      }
    },
    "character_bones/Bone/leg_up.L": {
      "quat": {
        "offset": 613,
        "frameCount": 83
      },
      "scale": {
        "offset": 1028,
        "frameCount": 1
      },
      "position": {
        "offset": 1032,
        "frameCount": 1
      }
    },
    "character_bones/Bone/leg_up.L/leg_down.L": {
      "quat": {
        "offset": 1036,
        "frameCount": 53
      },
      "scale": {
        "offset": 1301,
        "frameCount": 1
      },
      "position": {
        "offset": 1305,
        "frameCount": 1
      }
    },
    "character_bones/Bone/leg_up.L/leg_down.L/foot.L": {
      "quat": {
        "offset": 1309,
        "frameCount": 83
      },
      "scale": {
        "offset": 1724,
        "frameCount": 1
      },
      "position": {
        "offset": 1728,
        "frameCount": 1
      }
    },
    "character_bones/Bone/leg_up.R": {
      "quat": {
        "offset": 1732,
        "frameCount": 83
      },
      "scale": {
        "offset": 2147,
        "frameCount": 1
      },
      "position": {
        "offset": 2151,
        "frameCount": 1
      }
    },
    "character_bones/Bone/leg_up.R/leg_down.R": {
      "quat": {
        "offset": 2155,
        "frameCount": 52
      },
      "scale": {
        "offset": 2415,
        "frameCount": 1
      },
      "position": {
        "offset": 2419,
        "frameCount": 1
      }
    },
    "character_bones/Bone/leg_up.R/leg_down.R/foot.R": {
      "quat": {
        "offset": 2423,
        "frameCount": 83
      },
      "scale": {
        "offset": 2838,
        "frameCount": 1
      },
      "position": {
        "offset": 2842,
        "frameCount": 1
      }
    },
    "character_bones/Bone/Bone.001": {
      "quat": {
        "offset": 2846,
        "frameCount": 82
      },
      "scale": {
        "offset": 3256,
        "frameCount": 1
      },
      "position": {
        "offset": 3260,
        "frameCount": 1
      }
    },
    "character_bones/Bone/Bone.001/Bone.002": {
      "quat": {
        "offset": 3264,
        "frameCount": 82
      },
      "scale": {
        "offset": 3674,
        "frameCount": 1
      },
      "position": {
        "offset": 3678,
        "frameCount": 1
      }
    },
    "character_bones/Bone/Bone.001/arm_up.L": {
      "quat": {
        "offset": 3682,
        "frameCount": 82
      },
      "scale": {
        "offset": 4092,
        "frameCount": 1
      },
      "position": {
        "offset": 4096,
        "frameCount": 1
      }
    },
    "character_bones/Bone/Bone.001/arm_up.L/arm_down.L": {
      "quat": {
        "offset": 4100,
        "frameCount": 82
      },
      "scale": {
        "offset": 4510,
        "frameCount": 1
      },
      "position": {
        "offset": 4514,
        "frameCount": 1
      }
    },
    "character_bones/Bone/Bone.001/arm_up.R": {
      "quat": {
        "offset": 4518,
        "frameCount": 83
      },
      "scale": {
        "offset": 4933,
        "frameCount": 1
      },
      "position": {
        "offset": 4937,
        "frameCount": 1
      }
    },
    "character_bones/Bone/Bone.001/arm_up.R/arm_down.R": {
      "quat": {
        "offset": 4941,
        "frameCount": 83
      },
      "scale": {
        "offset": 5356,
        "frameCount": 1
      },
      "position": {
        "offset": 5360,
        "frameCount": 1
      }
    },
    "character_bones/ik_target.L": {
      "position": {
        "offset": 5364,
        "frameCount": 8
      },
      "quat": {
        "offset": 5396,
        "frameCount": 1
      },
      "scale": {
        "offset": 5401,
        "frameCount": 1
      }
    },
    "character_bones/ik_target.R": {
      "position": {
        "offset": 5405,
        "frameCount": 8
      },
      "quat": {
        "offset": 5437,
        "frameCount": 1
      },
      "scale": {
        "offset": 5442,
        "frameCount": 1
      }
    },
    "Steve": {
      "quat": {
        "offset": 5446,
        "frameCount": 1
      },
      "scale": {
        "offset": 5451,
        "frameCount": 1
      },
      "position": {
        "offset": 5455,
        "frameCount": 1
      }
    },
    "character_bones": {
      "quat": {
        "offset": 5459,
        "frameCount": 1
      },
      "scale": {
        "offset": 5464,
        "frameCount": 1
      },
      "position": {
        "offset": 5468,
        "frameCount": 1
      }
    },
    "character_bones/Bone/Bone.001/arm_up.L/arm_down.L/weapon_hand.L": {
      "quat": {
        "offset": 5472,
        "frameCount": 1
      },
      "scale": {
        "offset": 5477,
        "frameCount": 1
      },
      "position": {
        "offset": 5481,
        "frameCount": 1
      }
    },
    "character_bones/Bone/Bone.001/arm_up.R/arm_down.R/weapon_hand.R": {
      "quat": {
        "offset": 5485,
        "frameCount": 1
      },
      "scale": {
        "offset": 5490,
        "frameCount": 1
      },
      "position": {
        "offset": 5494,
        "frameCount": 1
      }
    },
    "character_bones/Bone/Bone.001/arm_up.R/arm_down.R/weapon_hand.R/boomerang": {
      "quat": {
        "offset": 5498,
        "frameCount": 1
      },
      "scale": {
        "offset": 5503,
        "frameCount": 1
      },
      "position": {
        "offset": 5507,
        "frameCount": 1
      }
    },
    "character_bones/Bone/Bone.001/arm_up.R/arm_down.R/weapon_hand.R/TNT": {
      "quat": {
        "offset": 5511,
        "frameCount": 1
      },
      "scale": {
        "offset": 5516,
        "frameCount": 1
      },
      "position": {
        "offset": 5520,
        "frameCount": 1
      }
    },
    "character_bones/ik_legPole.L": {
      "quat": {
        "offset": 5524,
        "frameCount": 1
      },
      "scale": {
        "offset": 5529,
        "frameCount": 1
      },
      "position": {
        "offset": 5533,
        "frameCount": 1
      }
    },
    "character_bones/ik_legPole.R": {
      "quat": {
        "offset": 5537,
        "frameCount": 1
      },
      "scale": {
        "offset": 5542,
        "frameCount": 1
      },
      "position": {
        "offset": 5546,
        "frameCount": 1
      }
    }
  }
}