{
  "__type__": "cc.SpriteFrame",
  "content": {
    "name": "btn_play",
    "texture": "5a8c2947-d698-45ee-99dc-bd86eab83753",
    "atlas": "",
    "rect": [
      0,
      0,
      225,
      202
    ],
    "offset": [
      0,
      0
    ],
    "originalSize": [
      225,
      202
    ],
    "capInsets": [
      0,
      0,
      0,
      0
    ]
  }
}