{
  "__type__": "cc.SpriteFrame",
  "content": {
    "name": "PERFECT",
    "texture": "95f33410-46a0-40fb-8848-acd9bb92db93",
    "atlas": "",
    "rect": [
      0,
      0,
      377,
      86
    ],
    "offset": [
      0,
      0
    ],
    "originalSize": [
      377,
      86
    ],
    "capInsets": [
      0,
      0,
      0,
      0
    ]
  }
}