{
  "__type__": "cc.SpriteFrame",
  "content": {
    "name": "Batgirl",
    "texture": "7bff7233-57fb-4a9f-93ec-ac4275b84319",
    "atlas": "",
    "rect": [
      0,
      0,
      112,
      128
    ],
    "offset": [
      -8,
      0
    ],
    "originalSize": [
      128,
      128
    ],
    "capInsets": [
      0,
      0,
      0,
      0
    ]
  }
}