{
  "__type__": "cc.Material",
  "_name": "Firestorm",
  "_objFlags": 0,
  "_native": "",
  "_effectAsset": {
    "__uuid__": "abc2cb62-7852-4525-a90d-d474487b88f2"
  },
  "_techniqueIndex": 0,
  "_techniqueData": {
    "0": {
      "defines": {
        "USE_DIFFUSE_TEXTURE": true,
        "USE_EMISSIVE": true,
        "USE_EMISSIVE_TEXTURE": true
      },
      "props": {
        "emissiveColor": {
          "__type__": "cc.Color",
          "r": 209,
          "g": 209,
          "b": 209,
          "a": 255
        },
        "diffuseTexture": {
          "__uuid__": "1be5f9ca-078e-4fea-8e0b-78cf0adbd1a4"
        },
        "emissiveTexture": {
          "__uuid__": "1be5f9ca-078e-4fea-8e0b-78cf0adbd1a4"
        }
      }
    }
  }
}