{
  "__type__": "cc.SpriteFrame",
  "content": {
    "name": "btn_green_big",
    "texture": "d52f8b97-1386-47e1-bcff-c33b9bf33c17",
    "atlas": "",
    "rect": [
      0,
      0,
      435,
      162
    ],
    "offset": [
      0,
      0
    ],
    "originalSize": [
      435,
      162
    ],
    "capInsets": [
      0,
      0,
      0,
      0
    ]
  }
}