{
  "__type__": "cc.SpriteFrame",
  "content": {
    "name": "Kid_Flash",
    "texture": "0663a184-0c1f-4532-8920-b984a50462df",
    "atlas": "",
    "rect": [
      0,
      0,
      124,
      128
    ],
    "offset": [
      -2,
      0
    ],
    "originalSize": [
      128,
      128
    ],
    "capInsets": [
      0,
      0,
      0,
      0
    ]
  }
}