{
  "__type__": "cc.SpriteFrame",
  "content": {
    "name": "Choose The Impostor_EN",
    "texture": "c6bea33d-2b4b-474a-a47a-836e33b34c15",
    "atlas": "",
    "rect": [
      0,
      0,
      376,
      107
    ],
    "offset": [
      0,
      0
    ],
    "originalSize": [
      376,
      107
    ],
    "capInsets": [
      0,
      0,
      0,
      0
    ]
  }
}