{
  "__type__": "cc.SpriteFrame",
  "content": {
    "name": "drag to move",
    "texture": "0c80edf6-e4d0-48f6-897c-bf6684dff9e4",
    "atlas": "",
    "rect": [
      0,
      0,
      196,
      28
    ],
    "offset": [
      0,
      0
    ],
    "originalSize": [
      196,
      28
    ],
    "capInsets": [
      0,
      0,
      0,
      0
    ]
  }
}