{
  "__type__": "cc.Skeleton",
  "_name": "",
  "_objFlags": 0,
  "_native": "",
  "_model": {
    "__uuid__": "38abeba0-b80e-4bac-b72f-4f2d3ca6ab1c"
  },
  "_jointIndices": [
    19,
    20,
    21,
    22,
    23,
    12,
    13,
    10,
    11,
    3,
    4,
    5,
    7,
    8,
    6,
    18,
    32,
    33,
    34,
    24,
    31,
    26,
    27,
    28,
    29,
    15,
    14,
    16
  ],
  "_skinIndex": 0
}