{
  "__type__": "cc.SpriteFrame",
  "content": {
    "name": "Skin_0000s_0000_Char_23",
    "texture": "b1ba280d-0353-43ab-9d8c-12aa2200e12b",
    "atlas": "",
    "rect": [
      0,
      0,
      127,
      168
    ],
    "offset": [
      0,
      0
    ],
    "originalSize": [
      127,
      168
    ],
    "capInsets": [
      0,
      0,
      0,
      0
    ]
  }
}