{
  "__type__": "cc.SpriteFrame",
  "content": {
    "name": "TryAgain_JP",
    "texture": "53fd1586-5fcf-4d00-9633-8b97abcb4f0f",
    "atlas": "",
    "rect": [
      0,
      0,
      240,
      75
    ],
    "offset": [
      0,
      0
    ],
    "originalSize": [
      240,
      75
    ],
    "capInsets": [
      0,
      0,
      0,
      0
    ]
  }
}