{
  "__type__": "cc.Skeleton",
  "_name": "",
  "_objFlags": 0,
  "_native": "",
  "_model": {
    "__uuid__": "cc532317-3fe0-4d44-8f05-d8badcc6aa34"
  },
  "_jointIndices": [
    31
  ],
  "_skinIndex": 4
}