{
  "__type__": "cc.Model",
  "_name": "tree",
  "_objFlags": 0,
  "_native": "",
  "_nodes": [
    {
      "name": "RootNode",
      "scale": [
        1,
        1,
        1
      ],
      "children": [
        1
      ],
      "position": [
        0,
        0,
        0
      ],
      "quat": [
        0,
        0,
        0,
        1
      ],
      "path": ""
    },
    {
      "name": "tree4",
      "scale": [
        1,
        1,
        1
      ],
      "children": [
        2,
        3,
        4,
        5
      ],
      "parent": null,
      "position": [
        0,
        0,
        0
      ],
      "quat": [
        0,
        0,
        0,
        1
      ],
      "path": "tree4"
    },
    {
      "name": "polySurface342",
      "scale": [
        1,
        1,
        1
      ],
      "mesh": 0,
      "parent": null,
      "position": [
        0,
        0,
        0
      ],
      "quat": [
        0,
        0,
        0,
        1
      ],
      "path": "tree4/polySurface342"
    },
    {
      "name": "polySurface343",
      "scale": [
        1,
        1,
        1
      ],
      "mesh": 1,
      "parent": null,
      "position": [
        0,
        0,
        0
      ],
      "quat": [
        0,
        0,
        0,
        1
      ],
      "path": "tree4/polySurface343"
    },
    {
      "name": "polySurface344",
      "scale": [
        1,
        1,
        1
      ],
      "mesh": 2,
      "parent": null,
      "position": [
        0,
        0,
        0
      ],
      "quat": [
        0,
        0,
        0,
        1
      ],
      "path": "tree4/polySurface344"
    },
    {
      "name": "polySurface345",
      "scale": [
        1,
        1,
        1
      ],
      "mesh": 3,
      "parent": null,
      "position": [
        0,
        0,
        0
      ],
      "quat": [
        0,
        0,
        0,
        1
      ],
      "path": "tree4/polySurface345"
    }
  ],
  "_precomputeJointMatrix": false
}