{
  "__type__": "cc.SpriteFrame",
  "content": {
    "name": "White_Canary",
    "texture": "3038685f-11e7-4966-b69c-71b82f713cfb",
    "atlas": "",
    "rect": [
      0,
      0,
      124,
      128
    ],
    "offset": [
      -2,
      0
    ],
    "originalSize": [
      128,
      128
    ],
    "capInsets": [
      0,
      0,
      0,
      0
    ]
  }
}