{
  "__type__": "cc.SpriteFrame",
  "content": {
    "name": "skin_majubin",
    "texture": "f781de75-96d0-4405-9978-13febeea72c8",
    "atlas": "",
    "rect": [
      0,
      0,
      320,
      320
    ],
    "offset": [
      0,
      0
    ],
    "originalSize": [
      320,
      320
    ],
    "capInsets": [
      0,
      0,
      0,
      0
    ]
  }
}