{
  "__type__": "cc.SkeletonAnimationClip",
  "_name": "character_bones|sword_run",
  "_objFlags": 0,
  "_native": ".bin",
  "_duration": 0.5,
  "sample": 30,
  "speed": 1,
  "wrapMode": 2,
  "events": [],
  "description": {
    "character_bones/Bone": {
      "position": {
        "offset": 0,
        "frameCount": 5
      },
      "quat": {
        "offset": 20,
        "frameCount": 11
      },
      "scale": {
        "offset": 75,
        "frameCount": 1
      }
    },
    "character_bones/Bone/leg_up.L": {
      "quat": {
        "offset": 79,
        "frameCount": 13
      },
      "scale": {
        "offset": 144,
        "frameCount": 1
      },
      "position": {
        "offset": 148,
        "frameCount": 1
      }
    },
    "character_bones/Bone/leg_up.L/leg_down.L": {
      "quat": {
        "offset": 152,
        "frameCount": 13
      },
      "scale": {
        "offset": 217,
        "frameCount": 1
      },
      "position": {
        "offset": 221,
        "frameCount": 1
      }
    },
    "character_bones/Bone/leg_up.L/leg_down.L/foot.L": {
      "quat": {
        "offset": 225,
        "frameCount": 13
      },
      "scale": {
        "offset": 290,
        "frameCount": 1
      },
      "position": {
        "offset": 294,
        "frameCount": 1
      }
    },
    "character_bones/Bone/leg_up.R": {
      "quat": {
        "offset": 298,
        "frameCount": 13
      },
      "scale": {
        "offset": 363,
        "frameCount": 1
      },
      "position": {
        "offset": 367,
        "frameCount": 1
      }
    },
    "character_bones/Bone/leg_up.R/leg_down.R": {
      "quat": {
        "offset": 371,
        "frameCount": 13
      },
      "scale": {
        "offset": 436,
        "frameCount": 1
      },
      "position": {
        "offset": 440,
        "frameCount": 1
      }
    },
    "character_bones/Bone/leg_up.R/leg_down.R/foot.R": {
      "quat": {
        "offset": 444,
        "frameCount": 13
      },
      "scale": {
        "offset": 509,
        "frameCount": 1
      },
      "position": {
        "offset": 513,
        "frameCount": 1
      }
    },
    "character_bones/Bone/Bone.001/Bone.002": {
      "quat": {
        "offset": 517,
        "frameCount": 11
      },
      "scale": {
        "offset": 572,
        "frameCount": 1
      },
      "position": {
        "offset": 576,
        "frameCount": 1
      }
    },
    "character_bones/Bone/Bone.001/arm_up.L": {
      "quat": {
        "offset": 580,
        "frameCount": 12
      },
      "scale": {
        "offset": 640,
        "frameCount": 1
      },
      "position": {
        "offset": 644,
        "frameCount": 1
      }
    },
    "character_bones/Bone/Bone.001/arm_up.L/arm_down.L": {
      "quat": {
        "offset": 648,
        "frameCount": 9
      },
      "scale": {
        "offset": 693,
        "frameCount": 1
      },
      "position": {
        "offset": 697,
        "frameCount": 1
      }
    },
    "character_bones/Bone/Bone.001/arm_up.R": {
      "quat": {
        "offset": 701,
        "frameCount": 12
      },
      "scale": {
        "offset": 761,
        "frameCount": 1
      },
      "position": {
        "offset": 765,
        "frameCount": 1
      }
    },
    "character_bones/Bone/Bone.001/arm_up.R/arm_down.R": {
      "quat": {
        "offset": 769,
        "frameCount": 9
      },
      "scale": {
        "offset": 814,
        "frameCount": 1
      },
      "position": {
        "offset": 818,
        "frameCount": 1
      }
    },
    "character_bones/Bone/Bone.001/arm_up.R/arm_down.R/weapon_hand.R": {
      "quat": {
        "offset": 822,
        "frameCount": 10
      },
      "scale": {
        "offset": 872,
        "frameCount": 1
      },
      "position": {
        "offset": 876,
        "frameCount": 1
      }
    },
    "character_bones/ik_target.L": {
      "position": {
        "offset": 880,
        "frameCount": 12
      },
      "quat": {
        "offset": 928,
        "frameCount": 12
      },
      "scale": {
        "offset": 988,
        "frameCount": 1
      }
    },
    "character_bones/ik_target.R": {
      "position": {
        "offset": 992,
        "frameCount": 12
      },
      "quat": {
        "offset": 1040,
        "frameCount": 11
      },
      "scale": {
        "offset": 1095,
        "frameCount": 1
      }
    },
    "Steve": {
      "quat": {
        "offset": 1099,
        "frameCount": 1
      },
      "scale": {
        "offset": 1104,
        "frameCount": 1
      },
      "position": {
        "offset": 1108,
        "frameCount": 1
      }
    },
    "character_bones": {
      "quat": {
        "offset": 1112,
        "frameCount": 1
      },
      "scale": {
        "offset": 1117,
        "frameCount": 1
      },
      "position": {
        "offset": 1121,
        "frameCount": 1
      }
    },
    "character_bones/Bone/Bone.001": {
      "quat": {
        "offset": 1125,
        "frameCount": 1
      },
      "scale": {
        "offset": 1130,
        "frameCount": 1
      },
      "position": {
        "offset": 1134,
        "frameCount": 1
      }
    },
    "character_bones/Bone/Bone.001/arm_up.L/arm_down.L/weapon_hand.L": {
      "quat": {
        "offset": 1138,
        "frameCount": 1
      },
      "scale": {
        "offset": 1143,
        "frameCount": 1
      },
      "position": {
        "offset": 1147,
        "frameCount": 1
      }
    },
    "character_bones/Bone/Bone.001/arm_up.R/arm_down.R/weapon_hand.R/katana.001": {
      "quat": {
        "offset": 1151,
        "frameCount": 1
      },
      "scale": {
        "offset": 1156,
        "frameCount": 1
      },
      "position": {
        "offset": 1160,
        "frameCount": 1
      }
    },
    "character_bones/Bone/Bone.001/arm_up.R/arm_down.R/weapon_hand.R/claymore": {
      "quat": {
        "offset": 1164,
        "frameCount": 1
      },
      "scale": {
        "offset": 1169,
        "frameCount": 1
      },
      "position": {
        "offset": 1173,
        "frameCount": 1
      }
    },
    "character_bones/Bone/Bone.001/arm_up.R/arm_down.R/weapon_hand.R/kiem_dai.001": {
      "quat": {
        "offset": 1177,
        "frameCount": 1
      },
      "scale": {
        "offset": 1182,
        "frameCount": 1
      },
      "position": {
        "offset": 1186,
        "frameCount": 1
      }
    },
    "character_bones/Bone/Bone.001/arm_up.R/arm_down.R/weapon_hand.R/laze_sword.001": {
      "quat": {
        "offset": 1190,
        "frameCount": 1
      },
      "scale": {
        "offset": 1195,
        "frameCount": 1
      },
      "position": {
        "offset": 1199,
        "frameCount": 1
      }
    },
    "character_bones/Bone/Bone.001/arm_up.R/arm_down.R/weapon_hand.R/kiem_ngulam.001": {
      "quat": {
        "offset": 1203,
        "frameCount": 1
      },
      "scale": {
        "offset": 1208,
        "frameCount": 1
      },
      "position": {
        "offset": 1212,
        "frameCount": 1
      }
    },
    "character_bones/Bone/Bone.001/arm_up.R/arm_down.R/weapon_hand.R/kiem_set.001": {
      "quat": {
        "offset": 1216,
        "frameCount": 1
      },
      "scale": {
        "offset": 1221,
        "frameCount": 1
      },
      "position": {
        "offset": 1225,
        "frameCount": 1
      }
    },
    "character_bones/ik_legPole.L": {
      "quat": {
        "offset": 1229,
        "frameCount": 1
      },
      "scale": {
        "offset": 1234,
        "frameCount": 1
      },
      "position": {
        "offset": 1238,
        "frameCount": 1
      }
    },
    "character_bones/ik_legPole.R": {
      "quat": {
        "offset": 1242,
        "frameCount": 1
      },
      "scale": {
        "offset": 1247,
        "frameCount": 1
      },
      "position": {
        "offset": 1251,
        "frameCount": 1
      }
    }
  }
}