{
  "__type__": "cc.SpriteFrame",
  "content": {
    "name": "Black_Lightning",
    "texture": "fe85ff5c-eae3-414e-ba0e-ffa106ffa690",
    "atlas": "",
    "rect": [
      0,
      0,
      128,
      128
    ],
    "offset": [
      0,
      0
    ],
    "originalSize": [
      128,
      128
    ],
    "capInsets": [
      0,
      0,
      0,
      0
    ]
  }
}