{
  "__type__": "cc.SpriteFrame",
  "content": {
    "name": "Heatwave",
    "texture": "3d20a4a5-c8d0-4982-9e7f-6854dfb392f8",
    "atlas": "",
    "rect": [
      0,
      0,
      128,
      128
    ],
    "offset": [
      0,
      0
    ],
    "originalSize": [
      128,
      128
    ],
    "capInsets": [
      0,
      0,
      0,
      0
    ]
  }
}