{
  "__type__": "cc.SpriteFrame",
  "content": {
    "name": "HoldToRun_JP",
    "texture": "45b9df79-ef95-47d7-bed5-47d976d40254",
    "atlas": "",
    "rect": [
      0,
      0,
      466,
      93
    ],
    "offset": [
      0,
      0
    ],
    "originalSize": [
      466,
      93
    ],
    "capInsets": [
      0,
      0,
      0,
      0
    ]
  }
}