{
  "__type__": "cc.SpriteFrame",
  "content": {
    "name": "weapon_knife1",
    "texture": "81360ba1-1110-41b0-a3e4-d10885c2794f",
    "atlas": "",
    "rect": [
      0,
      0,
      256,
      256
    ],
    "offset": [
      0,
      0
    ],
    "originalSize": [
      256,
      256
    ],
    "capInsets": [
      0,
      0,
      0,
      0
    ]
  }
}