{
  "__type__": "cc.SpriteFrame",
  "content": {
    "name": "Cliff",
    "texture": "07cb1704-5755-4ae9-bb2d-84cf43fcb03c",
    "atlas": "",
    "rect": [
      0,
      0,
      128,
      128
    ],
    "offset": [
      0,
      0
    ],
    "originalSize": [
      128,
      128
    ],
    "capInsets": [
      0,
      0,
      0,
      0
    ]
  }
}