{
  "__type__": "cc.Skeleton",
  "_name": "",
  "_objFlags": 0,
  "_native": "",
  "_model": {
    "__uuid__": "936446cb-f526-4f44-b7f3-115ce99ce286"
  },
  "_jointIndices": [
    3,
    4,
    5,
    6,
    7,
    8,
    9,
    10,
    11,
    12,
    13,
    14,
    15,
    16,
    17,
    20,
    21,
    22,
    23
  ],
  "_skinIndex": 0
}