[
  {
    "__type__": "cc.Mesh",
    "_name": "",
    "_objFlags": 0,
    "_native": ".bin",
    "_vertexBundles": [
      {
        "__id__": 1
      }
    ],
    "_primitives": [
      {
        "__id__": 8
      }
    ],
    "_minPos": {
      "__type__": "cc.Vec3",
      "x": -0.00550647405907512,
      "y": 0.0000253772723226575,
      "z": -0.0026864807587117
    },
    "_maxPos": {
      "__type__": "cc.Vec3",
      "x": 0.00550647405907512,
      "y": 0.021637424826622,
      "z": 0.00268648122437298
    }
  },
  {
    "__type__": "cc.mesh.VertexBundle",
    "data": {
      "__id__": 2
    },
    "formats": [
      {
        "__id__": 3
      },
      {
        "__id__": 4
      },
      {
        "__id__": 5
      },
      {
        "__id__": 6
      },
      {
        "__id__": 7
      }
    ],
    "verticesCount": 456
  },
  {
    "__type__": "cc.BufferRange",
    "offset": 0,
    "length": 25536
  },
  {
    "__type__": "cc.mesh.VertexFormat",
    "name": "a_joints",
    "type": 5123,
    "num": 4,
    "normalize": false
  },
  {
    "__type__": "cc.mesh.VertexFormat",
    "name": "a_normal",
    "type": 5126,
    "num": 3,
    "normalize": false
  },
  {
    "__type__": "cc.mesh.VertexFormat",
    "name": "a_position",
    "type": 5126,
    "num": 3,
    "normalize": false
  },
  {
    "__type__": "cc.mesh.VertexFormat",
    "name": "a_uv0",
    "type": 5126,
    "num": 2,
    "normalize": false
  },
  {
    "__type__": "cc.mesh.VertexFormat",
    "name": "a_weights",
    "type": 5126,
    "num": 4,
    "normalize": false
  },
  {
    "__type__": "cc.mesh.Primitive",
    "vertexBundleIndices": [
      0
    ],
    "data": {
      "__id__": 9
    },
    "indexUnit": 5123,
    "topology": 4
  },
  {
    "__type__": "cc.BufferRange",
    "offset": 25536,
    "length": 2784
  }
]