{
  "__type__": "cc.SpriteFrame",
  "content": {
    "name": "17",
    "texture": "7d15aeee-5063-4e52-a8eb-7c6eb5d5d0b6",
    "atlas": "",
    "rect": [
      0,
      1,
      127,
      167
    ],
    "offset": [
      0,
      -0.5
    ],
    "originalSize": [
      127,
      168
    ],
    "capInsets": [
      0,
      0,
      0,
      0
    ]
  }
}