{
  "__type__": "cc.SpriteFrame",
  "content": {
    "name": "ChooseYourRole_DE",
    "texture": "603014e2-81a3-4640-8a49-9c4a06b69ed2",
    "atlas": "",
    "rect": [
      0,
      0,
      396,
      30
    ],
    "offset": [
      0,
      0
    ],
    "originalSize": [
      396,
      30
    ],
    "capInsets": [
      0,
      0,
      0,
      0
    ]
  }
}