{
  "__type__": "cc.SpriteFrame",
  "content": {
    "name": "Drag  to  move",
    "texture": "782ee42a-53fc-4002-9a56-291040b94451",
    "atlas": "",
    "rect": [
      0,
      0,
      284,
      24
    ],
    "offset": [
      0,
      0
    ],
    "originalSize": [
      284,
      24
    ],
    "capInsets": [
      0,
      0,
      0,
      0
    ]
  }
}