{
  "__type__": "cc.Material",
  "_name": "Steve",
  "_objFlags": 0,
  "_native": "",
  "_effectAsset": {
    "__uuid__": "abc2cb62-7852-4525-a90d-d474487b88f2"
  },
  "_techniqueIndex": 0,
  "_techniqueData": {
    "0": {
      "defines": {
        "USE_DIFFUSE_TEXTURE": true,
        "USE_EMISSIVE": true,
        "USE_EMISSIVE_TEXTURE": true
      },
      "props": {
        "diffuseTexture": {
          "__uuid__": "80521683-36c0-4e9c-9a33-9632d86b4eb0"
        },
        "emissiveTexture": {
          "__uuid__": "80521683-36c0-4e9c-9a33-9632d86b4eb0"
        },
        "emissiveColor": {
          "__type__": "cc.Color",
          "r": 209,
          "g": 209,
          "b": 209,
          "a": 255
        }
      }
    }
  }
}