{
  "__type__": "cc.SpriteFrame",
  "content": {
    "name": "texture-minecraft2",
    "texture": "4d40590c-a442-4f46-99ec-0a847c7dacdd",
    "atlas": "",
    "rect": [
      0,
      0,
      1024,
      1024
    ],
    "offset": [
      0,
      0
    ],
    "originalSize": [
      1024,
      1024
    ],
    "capInsets": [
      0,
      0,
      0,
      0
    ]
  }
}