{
  "__type__": "cc.SpriteFrame",
  "content": {
    "name": "Nathan_Drake",
    "texture": "840a11ac-8dfe-4067-913a-5e4d5f2b2574",
    "atlas": "",
    "rect": [
      0,
      0,
      124,
      128
    ],
    "offset": [
      -2,
      0
    ],
    "originalSize": [
      128,
      128
    ],
    "capInsets": [
      0,
      0,
      0,
      0
    ]
  }
}