{
    "asset": {
        "generator": "FBX2glTF v0.9.7",
        "version": "2.0"
    },
    "scene": 0,
    "buffers": [
        {
            "byteLength": 399904,
            "uri": "buffer.bin"
        }
    ],
    "bufferViews": [
        {
            "buffer": 0,
            "byteLength": 132,
            "byteOffset": 0
        },
        {
            "buffer": 0,
            "byteLength": 396,
            "byteOffset": 132
        },
        {
            "buffer": 0,
            "byteLength": 528,
            "byteOffset": 528
        },
        {
            "buffer": 0,
            "byteLength": 528,
            "byteOffset": 1056
        },
        {
            "buffer": 0,
            "byteLength": 396,
            "byteOffset": 1584
        },
        {
            "buffer": 0,
            "byteLength": 528,
            "byteOffset": 1980
        },
        {
            "buffer": 0,
            "byteLength": 528,
            "byteOffset": 2508
        },
        {
            "buffer": 0,
            "byteLength": 528,
            "byteOffset": 3036
        },
        {
            "buffer": 0,
            "byteLength": 396,
            "byteOffset": 3564
        },
        {
            "buffer": 0,
            "byteLength": 528,
            "byteOffset": 3960
        },
        {
            "buffer": 0,
            "byteLength": 396,
            "byteOffset": 4488
        },
        {
            "buffer": 0,
            "byteLength": 528,
            "byteOffset": 4884
        },
        {
            "buffer": 0,
            "byteLength": 396,
            "byteOffset": 5412
        },
        {
            "buffer": 0,
            "byteLength": 528,
            "byteOffset": 5808
        },
        {
            "buffer": 0,
            "byteLength": 396,
            "byteOffset": 6336
        },
        {
            "buffer": 0,
            "byteLength": 528,
            "byteOffset": 6732
        },
        {
            "buffer": 0,
            "byteLength": 396,
            "byteOffset": 7260
        },
        {
            "buffer": 0,
            "byteLength": 528,
            "byteOffset": 7656
        },
        {
            "buffer": 0,
            "byteLength": 396,
            "byteOffset": 8184
        },
        {
            "buffer": 0,
            "byteLength": 528,
            "byteOffset": 8580
        },
        {
            "buffer": 0,
            "byteLength": 396,
            "byteOffset": 9108
        },
        {
            "buffer": 0,
            "byteLength": 528,
            "byteOffset": 9504
        },
        {
            "buffer": 0,
            "byteLength": 396,
            "byteOffset": 10032
        },
        {
            "buffer": 0,
            "byteLength": 528,
            "byteOffset": 10428
        },
        {
            "buffer": 0,
            "byteLength": 396,
            "byteOffset": 10956
        },
        {
            "buffer": 0,
            "byteLength": 528,
            "byteOffset": 11352
        },
        {
            "buffer": 0,
            "byteLength": 396,
            "byteOffset": 11880
        },
        {
            "buffer": 0,
            "byteLength": 528,
            "byteOffset": 12276
        },
        {
            "buffer": 0,
            "byteLength": 396,
            "byteOffset": 12804
        },
        {
            "buffer": 0,
            "byteLength": 528,
            "byteOffset": 13200
        },
        {
            "buffer": 0,
            "byteLength": 396,
            "byteOffset": 13728
        },
        {
            "buffer": 0,
            "byteLength": 528,
            "byteOffset": 14124
        },
        {
            "buffer": 0,
            "byteLength": 396,
            "byteOffset": 14652
        },
        {
            "buffer": 0,
            "byteLength": 528,
            "byteOffset": 15048
        },
        {
            "buffer": 0,
            "byteLength": 396,
            "byteOffset": 15576
        },
        {
            "buffer": 0,
            "byteLength": 528,
            "byteOffset": 15972
        },
        {
            "buffer": 0,
            "byteLength": 396,
            "byteOffset": 16500
        },
        {
            "buffer": 0,
            "byteLength": 528,
            "byteOffset": 16896
        },
        {
            "buffer": 0,
            "byteLength": 396,
            "byteOffset": 17424
        },
        {
            "buffer": 0,
            "byteLength": 528,
            "byteOffset": 17820
        },
        {
            "buffer": 0,
            "byteLength": 396,
            "byteOffset": 18348
        },
        {
            "buffer": 0,
            "byteLength": 528,
            "byteOffset": 18744
        },
        {
            "buffer": 0,
            "byteLength": 396,
            "byteOffset": 19272
        },
        {
            "buffer": 0,
            "byteLength": 528,
            "byteOffset": 19668
        },
        {
            "buffer": 0,
            "byteLength": 396,
            "byteOffset": 20196
        },
        {
            "buffer": 0,
            "byteLength": 528,
            "byteOffset": 20592
        },
        {
            "buffer": 0,
            "byteLength": 396,
            "byteOffset": 21120
        },
        {
            "buffer": 0,
            "byteLength": 528,
            "byteOffset": 21516
        },
        {
            "buffer": 0,
            "byteLength": 396,
            "byteOffset": 22044
        },
        {
            "buffer": 0,
            "byteLength": 528,
            "byteOffset": 22440
        },
        {
            "buffer": 0,
            "byteLength": 396,
            "byteOffset": 22968
        },
        {
            "buffer": 0,
            "byteLength": 528,
            "byteOffset": 23364
        },
        {
            "buffer": 0,
            "byteLength": 396,
            "byteOffset": 23892
        },
        {
            "buffer": 0,
            "byteLength": 528,
            "byteOffset": 24288
        },
        {
            "buffer": 0,
            "byteLength": 396,
            "byteOffset": 24816
        },
        {
            "buffer": 0,
            "byteLength": 528,
            "byteOffset": 25212
        },
        {
            "buffer": 0,
            "byteLength": 528,
            "byteOffset": 25740
        },
        {
            "buffer": 0,
            "byteLength": 528,
            "byteOffset": 26268
        },
        {
            "buffer": 0,
            "byteLength": 528,
            "byteOffset": 26796
        },
        {
            "buffer": 0,
            "byteLength": 528,
            "byteOffset": 27324
        },
        {
            "buffer": 0,
            "byteLength": 528,
            "byteOffset": 27852
        },
        {
            "buffer": 0,
            "byteLength": 528,
            "byteOffset": 28380
        },
        {
            "buffer": 0,
            "byteLength": 16344,
            "byteOffset": 28908,
            "target": 34963
        },
        {
            "buffer": 0,
            "byteLength": 19644,
            "byteOffset": 45252,
            "target": 34962
        },
        {
            "buffer": 0,
            "byteLength": 19644,
            "byteOffset": 64896,
            "target": 34962
        },
        {
            "buffer": 0,
            "byteLength": 13096,
            "byteOffset": 84540,
            "target": 34962
        },
        {
            "buffer": 0,
            "byteLength": 13096,
            "byteOffset": 97636,
            "target": 34962
        },
        {
            "buffer": 0,
            "byteLength": 13096,
            "byteOffset": 110732,
            "target": 34962
        },
        {
            "buffer": 0,
            "byteLength": 26192,
            "byteOffset": 123828,
            "target": 34962
        },
        {
            "buffer": 0,
            "byteLength": 1320,
            "byteOffset": 150020,
            "target": 34963
        },
        {
            "buffer": 0,
            "byteLength": 2184,
            "byteOffset": 151340,
            "target": 34962
        },
        {
            "buffer": 0,
            "byteLength": 2184,
            "byteOffset": 153524,
            "target": 34962
        },
        {
            "buffer": 0,
            "byteLength": 1456,
            "byteOffset": 155708,
            "target": 34962
        },
        {
            "buffer": 0,
            "byteLength": 1456,
            "byteOffset": 157164,
            "target": 34962
        },
        {
            "buffer": 0,
            "byteLength": 1456,
            "byteOffset": 158620,
            "target": 34962
        },
        {
            "buffer": 0,
            "byteLength": 2912,
            "byteOffset": 160076,
            "target": 34962
        },
        {
            "buffer": 0,
            "byteLength": 20544,
            "byteOffset": 162988,
            "target": 34963
        },
        {
            "buffer": 0,
            "byteLength": 23496,
            "byteOffset": 183532,
            "target": 34962
        },
        {
            "buffer": 0,
            "byteLength": 23496,
            "byteOffset": 207028,
            "target": 34962
        },
        {
            "buffer": 0,
            "byteLength": 15664,
            "byteOffset": 230524,
            "target": 34962
        },
        {
            "buffer": 0,
            "byteLength": 15664,
            "byteOffset": 246188,
            "target": 34962
        },
        {
            "buffer": 0,
            "byteLength": 15664,
            "byteOffset": 261852,
            "target": 34962
        },
        {
            "buffer": 0,
            "byteLength": 31328,
            "byteOffset": 277516,
            "target": 34962
        },
        {
            "buffer": 0,
            "byteLength": 7476,
            "byteOffset": 308844,
            "target": 34963
        },
        {
            "buffer": 0,
            "byteLength": 15180,
            "byteOffset": 316320,
            "target": 34962
        },
        {
            "buffer": 0,
            "byteLength": 15180,
            "byteOffset": 331500,
            "target": 34962
        },
        {
            "buffer": 0,
            "byteLength": 10120,
            "byteOffset": 346680,
            "target": 34962
        },
        {
            "buffer": 0,
            "byteLength": 10120,
            "byteOffset": 356800,
            "target": 34962
        },
        {
            "buffer": 0,
            "byteLength": 10120,
            "byteOffset": 366920,
            "target": 34962
        },
        {
            "buffer": 0,
            "byteLength": 20240,
            "byteOffset": 377040,
            "target": 34962
        },
        {
            "buffer": 0,
            "byteLength": 832,
            "byteOffset": 397280
        },
        {
            "buffer": 0,
            "byteLength": 576,
            "byteOffset": 398112
        },
        {
            "buffer": 0,
            "byteLength": 1152,
            "byteOffset": 398688
        },
        {
            "buffer": 0,
            "byteLength": 64,
            "byteOffset": 399840
        }
    ],
    "scenes": [
        {
            "name": "Root Scene",
            "nodes": [
                0
            ]
        }
    ],
    "accessors": [
        {
            "componentType": 5126,
            "type": "SCALAR",
            "count": 33,
            "bufferView": 0,
            "byteOffset": 0,
            "min": [
                0.0
            ],
            "max": [
                1.33333337306976
            ]
        },
        {
            "componentType": 5126,
            "type": "VEC3",
            "count": 33,
            "bufferView": 1,
            "byteOffset": 0
        },
        {
            "componentType": 5126,
            "type": "VEC4",
            "count": 33,
            "bufferView": 2,
            "byteOffset": 0
        },
        {
            "componentType": 5126,
            "type": "VEC4",
            "count": 33,
            "bufferView": 3,
            "byteOffset": 0
        },
        {
            "componentType": 5126,
            "type": "VEC3",
            "count": 33,
            "bufferView": 4,
            "byteOffset": 0
        },
        {
            "componentType": 5126,
            "type": "VEC4",
            "count": 33,
            "bufferView": 5,
            "byteOffset": 0
        },
        {
            "componentType": 5126,
            "type": "VEC4",
            "count": 33,
            "bufferView": 6,
            "byteOffset": 0
        },
        {
            "componentType": 5126,
            "type": "VEC4",
            "count": 33,
            "bufferView": 7,
            "byteOffset": 0
        },
        {
            "componentType": 5126,
            "type": "VEC3",
            "count": 33,
            "bufferView": 8,
            "byteOffset": 0
        },
        {
            "componentType": 5126,
            "type": "VEC4",
            "count": 33,
            "bufferView": 9,
            "byteOffset": 0
        },
        {
            "componentType": 5126,
            "type": "VEC3",
            "count": 33,
            "bufferView": 10,
            "byteOffset": 0
        },
        {
            "componentType": 5126,
            "type": "VEC4",
            "count": 33,
            "bufferView": 11,
            "byteOffset": 0
        },
        {
            "componentType": 5126,
            "type": "VEC3",
            "count": 33,
            "bufferView": 12,
            "byteOffset": 0
        },
        {
            "componentType": 5126,
            "type": "VEC4",
            "count": 33,
            "bufferView": 13,
            "byteOffset": 0
        },
        {
            "componentType": 5126,
            "type": "VEC3",
            "count": 33,
            "bufferView": 14,
            "byteOffset": 0
        },
        {
            "componentType": 5126,
            "type": "VEC4",
            "count": 33,
            "bufferView": 15,
            "byteOffset": 0
        },
        {
            "componentType": 5126,
            "type": "VEC3",
            "count": 33,
            "bufferView": 16,
            "byteOffset": 0
        },
        {
            "componentType": 5126,
            "type": "VEC4",
            "count": 33,
            "bufferView": 17,
            "byteOffset": 0
        },
        {
            "componentType": 5126,
            "type": "VEC3",
            "count": 33,
            "bufferView": 18,
            "byteOffset": 0
        },
        {
            "componentType": 5126,
            "type": "VEC4",
            "count": 33,
            "bufferView": 19,
            "byteOffset": 0
        },
        {
            "componentType": 5126,
            "type": "VEC3",
            "count": 33,
            "bufferView": 20,
            "byteOffset": 0
        },
        {
            "componentType": 5126,
            "type": "VEC4",
            "count": 33,
            "bufferView": 21,
            "byteOffset": 0
        },
        {
            "componentType": 5126,
            "type": "VEC3",
            "count": 33,
            "bufferView": 22,
            "byteOffset": 0
        },
        {
            "componentType": 5126,
            "type": "VEC4",
            "count": 33,
            "bufferView": 23,
            "byteOffset": 0
        },
        {
            "componentType": 5126,
            "type": "VEC3",
            "count": 33,
            "bufferView": 24,
            "byteOffset": 0
        },
        {
            "componentType": 5126,
            "type": "VEC4",
            "count": 33,
            "bufferView": 25,
            "byteOffset": 0
        },
        {
            "componentType": 5126,
            "type": "VEC3",
            "count": 33,
            "bufferView": 26,
            "byteOffset": 0
        },
        {
            "componentType": 5126,
            "type": "VEC4",
            "count": 33,
            "bufferView": 27,
            "byteOffset": 0
        },
        {
            "componentType": 5126,
            "type": "VEC3",
            "count": 33,
            "bufferView": 28,
            "byteOffset": 0
        },
        {
            "componentType": 5126,
            "type": "VEC4",
            "count": 33,
            "bufferView": 29,
            "byteOffset": 0
        },
        {
            "componentType": 5126,
            "type": "VEC3",
            "count": 33,
            "bufferView": 30,
            "byteOffset": 0
        },
        {
            "componentType": 5126,
            "type": "VEC4",
            "count": 33,
            "bufferView": 31,
            "byteOffset": 0
        },
        {
            "componentType": 5126,
            "type": "VEC3",
            "count": 33,
            "bufferView": 32,
            "byteOffset": 0
        },
        {
            "componentType": 5126,
            "type": "VEC4",
            "count": 33,
            "bufferView": 33,
            "byteOffset": 0
        },
        {
            "componentType": 5126,
            "type": "VEC3",
            "count": 33,
            "bufferView": 34,
            "byteOffset": 0
        },
        {
            "componentType": 5126,
            "type": "VEC4",
            "count": 33,
            "bufferView": 35,
            "byteOffset": 0
        },
        {
            "componentType": 5126,
            "type": "VEC3",
            "count": 33,
            "bufferView": 36,
            "byteOffset": 0
        },
        {
            "componentType": 5126,
            "type": "VEC4",
            "count": 33,
            "bufferView": 37,
            "byteOffset": 0
        },
        {
            "componentType": 5126,
            "type": "VEC3",
            "count": 33,
            "bufferView": 38,
            "byteOffset": 0
        },
        {
            "componentType": 5126,
            "type": "VEC4",
            "count": 33,
            "bufferView": 39,
            "byteOffset": 0
        },
        {
            "componentType": 5126,
            "type": "VEC3",
            "count": 33,
            "bufferView": 40,
            "byteOffset": 0
        },
        {
            "componentType": 5126,
            "type": "VEC4",
            "count": 33,
            "bufferView": 41,
            "byteOffset": 0
        },
        {
            "componentType": 5126,
            "type": "VEC3",
            "count": 33,
            "bufferView": 42,
            "byteOffset": 0
        },
        {
            "componentType": 5126,
            "type": "VEC4",
            "count": 33,
            "bufferView": 43,
            "byteOffset": 0
        },
        {
            "componentType": 5126,
            "type": "VEC3",
            "count": 33,
            "bufferView": 44,
            "byteOffset": 0
        },
        {
            "componentType": 5126,
            "type": "VEC4",
            "count": 33,
            "bufferView": 45,
            "byteOffset": 0
        },
        {
            "componentType": 5126,
            "type": "VEC3",
            "count": 33,
            "bufferView": 46,
            "byteOffset": 0
        },
        {
            "componentType": 5126,
            "type": "VEC4",
            "count": 33,
            "bufferView": 47,
            "byteOffset": 0
        },
        {
            "componentType": 5126,
            "type": "VEC3",
            "count": 33,
            "bufferView": 48,
            "byteOffset": 0
        },
        {
            "componentType": 5126,
            "type": "VEC4",
            "count": 33,
            "bufferView": 49,
            "byteOffset": 0
        },
        {
            "componentType": 5126,
            "type": "VEC3",
            "count": 33,
            "bufferView": 50,
            "byteOffset": 0
        },
        {
            "componentType": 5126,
            "type": "VEC4",
            "count": 33,
            "bufferView": 51,
            "byteOffset": 0
        },
        {
            "componentType": 5126,
            "type": "VEC3",
            "count": 33,
            "bufferView": 52,
            "byteOffset": 0
        },
        {
            "componentType": 5126,
            "type": "VEC4",
            "count": 33,
            "bufferView": 53,
            "byteOffset": 0
        },
        {
            "componentType": 5126,
            "type": "VEC3",
            "count": 33,
            "bufferView": 54,
            "byteOffset": 0
        },
        {
            "componentType": 5126,
            "type": "VEC4",
            "count": 33,
            "bufferView": 55,
            "byteOffset": 0
        },
        {
            "componentType": 5126,
            "type": "VEC4",
            "count": 33,
            "bufferView": 56,
            "byteOffset": 0
        },
        {
            "componentType": 5126,
            "type": "VEC4",
            "count": 33,
            "bufferView": 57,
            "byteOffset": 0
        },
        {
            "componentType": 5126,
            "type": "VEC4",
            "count": 33,
            "bufferView": 58,
            "byteOffset": 0
        },
        {
            "componentType": 5126,
            "type": "VEC4",
            "count": 33,
            "bufferView": 59,
            "byteOffset": 0
        },
        {
            "componentType": 5126,
            "type": "VEC4",
            "count": 33,
            "bufferView": 60,
            "byteOffset": 0
        },
        {
            "componentType": 5126,
            "type": "VEC4",
            "count": 33,
            "bufferView": 61,
            "byteOffset": 0
        },
        {
            "componentType": 5123,
            "type": "SCALAR",
            "count": 8172,
            "bufferView": 62,
            "byteOffset": 0
        },
        {
            "componentType": 5126,
            "type": "VEC3",
            "count": 1637,
            "bufferView": 63,
            "byteOffset": 0,
            "min": [
                -0.00805865041911602,
                -1.35396003315691e-05,
                -0.00998892728239298
            ],
            "max": [
                0.00806283857673407,
                0.0279839802533388,
                0.0099889300763607
            ]
        },
        {
            "componentType": 5126,
            "type": "VEC3",
            "count": 1637,
            "bufferView": 64,
            "byteOffset": 0
        },
        {
            "componentType": 5126,
            "type": "VEC2",
            "count": 1637,
            "bufferView": 65,
            "byteOffset": 0
        },
        {
            "componentType": 5126,
            "type": "VEC2",
            "count": 1637,
            "bufferView": 66,
            "byteOffset": 0
        },
        {
            "componentType": 5123,
            "type": "VEC4",
            "count": 1637,
            "bufferView": 67,
            "byteOffset": 0
        },
        {
            "componentType": 5126,
            "type": "VEC4",
            "count": 1637,
            "bufferView": 68,
            "byteOffset": 0
        },
        {
            "componentType": 5123,
            "type": "SCALAR",
            "count": 660,
            "bufferView": 69,
            "byteOffset": 0
        },
        {
            "componentType": 5126,
            "type": "VEC3",
            "count": 182,
            "bufferView": 70,
            "byteOffset": 0,
            "min": [
                -0.00255490466952324,
                0.0155833913013339,
                -0.000937609351240098
            ],
            "max": [
                0.00255490466952324,
                0.0165759548544884,
                0.00626365281641483
            ]
        },
        {
            "componentType": 5126,
            "type": "VEC3",
            "count": 182,
            "bufferView": 71,
            "byteOffset": 0
        },
        {
            "componentType": 5126,
            "type": "VEC2",
            "count": 182,
            "bufferView": 72,
            "byteOffset": 0
        },
        {
            "componentType": 5126,
            "type": "VEC2",
            "count": 182,
            "bufferView": 73,
            "byteOffset": 0
        },
        {
            "componentType": 5123,
            "type": "VEC4",
            "count": 182,
            "bufferView": 74,
            "byteOffset": 0
        },
        {
            "componentType": 5126,
            "type": "VEC4",
            "count": 182,
            "bufferView": 75,
            "byteOffset": 0
        },
        {
            "componentType": 5123,
            "type": "SCALAR",
            "count": 10272,
            "bufferView": 76,
            "byteOffset": 0
        },
        {
            "componentType": 5126,
            "type": "VEC3",
            "count": 1958,
            "bufferView": 77,
            "byteOffset": 0,
            "min": [
                -0.0194490570574999,
                0.0141341779381037,
                -0.00172056851442903
            ],
            "max": [
                0.0194603875279427,
                0.0171862114220858,
                0.00441426876932383
            ]
        },
        {
            "componentType": 5126,
            "type": "VEC3",
            "count": 1958,
            "bufferView": 78,
            "byteOffset": 0
        },
        {
            "componentType": 5126,
            "type": "VEC2",
            "count": 1958,
            "bufferView": 79,
            "byteOffset": 0
        },
        {
            "componentType": 5126,
            "type": "VEC2",
            "count": 1958,
            "bufferView": 80,
            "byteOffset": 0
        },
        {
            "componentType": 5123,
            "type": "VEC4",
            "count": 1958,
            "bufferView": 81,
            "byteOffset": 0
        },
        {
            "componentType": 5126,
            "type": "VEC4",
            "count": 1958,
            "bufferView": 82,
            "byteOffset": 0
        },
        {
            "componentType": 5123,
            "type": "SCALAR",
            "count": 3738,
            "bufferView": 83,
            "byteOffset": 0
        },
        {
            "componentType": 5126,
            "type": "VEC3",
            "count": 1265,
            "bufferView": 84,
            "byteOffset": 0,
            "min": [
                -0.0176530592143536,
                -0.000296595098916441,
                0.00551068177446723
            ],
            "max": [
                -0.0104645369574428,
                0.00818652287125587,
                0.0243137553334236
            ]
        },
        {
            "componentType": 5126,
            "type": "VEC3",
            "count": 1265,
            "bufferView": 85,
            "byteOffset": 0
        },
        {
            "componentType": 5126,
            "type": "VEC2",
            "count": 1265,
            "bufferView": 86,
            "byteOffset": 0
        },
        {
            "componentType": 5126,
            "type": "VEC2",
            "count": 1265,
            "bufferView": 87,
            "byteOffset": 0
        },
        {
            "componentType": 5123,
            "type": "VEC4",
            "count": 1265,
            "bufferView": 88,
            "byteOffset": 0
        },
        {
            "componentType": 5126,
            "type": "VEC4",
            "count": 1265,
            "bufferView": 89,
            "byteOffset": 0
        },
        {
            "componentType": 5126,
            "type": "MAT4",
            "count": 13,
            "bufferView": 90,
            "byteOffset": 0
        },
        {
            "componentType": 5126,
            "type": "MAT4",
            "count": 9,
            "bufferView": 91,
            "byteOffset": 0
        },
        {
            "componentType": 5126,
            "type": "MAT4",
            "count": 18,
            "bufferView": 92,
            "byteOffset": 0
        },
        {
            "componentType": 5126,
            "type": "MAT4",
            "count": 1,
            "bufferView": 93,
            "byteOffset": 0
        }
    ],
    "images": [
        {
            "name": "file54",
            "uri": "data:image/png;base64,iVBORw0KGgoAAAANSUhEUgAAAAEAAAABCAYAAAAfFcSJAAAADUlEQVR42mP8/5+hHgAHggJ/PchI7wAAAABJRU5ErkJggg=="
        },
        {
            "name": "file46",
            "uri": "data:image/png;base64,iVBORw0KGgoAAAANSUhEUgAAAAEAAAABCAYAAAAfFcSJAAAADUlEQVR42mP8/5+hHgAHggJ/PchI7wAAAABJRU5ErkJggg=="
        }
    ],
    "samplers": [
        {}
    ],
    "textures": [
        {
            "name": "file54",
            "sampler": 0,
            "source": 0
        },
        {
            "name": "file46",
            "sampler": 0,
            "source": 1
        }
    ],
    "materials": [
        {
            "name": "lambert2",
            "alphaMode": "OPAQUE",
            "extras": {
                "fromFBX": {
                    "shadingModel": "Lambert",
                    "isTruePBR": false
                }
            },
            "pbrMetallicRoughness": {
                "baseColorTexture": {
                    "index": 0,
                    "texCoord": 0
                },
                "baseColorFactor": [
                    0.800000011920929,
                    0.800000011920929,
                    0.800000011920929,
                    1.0
                ],
                "metallicFactor": 0.200000002980232,
                "roughnessFactor": 0.800000011920929
            }
        },
        {
            "name": "M_weapon_bazooka1",
            "alphaMode": "OPAQUE",
            "extras": {
                "fromFBX": {
                    "shadingModel": "Lambert",
                    "isTruePBR": false
                }
            },
            "pbrMetallicRoughness": {
                "baseColorTexture": {
                    "index": 1,
                    "texCoord": 0
                },
                "baseColorFactor": [
                    0.800000011920929,
                    0.800000011920929,
                    0.800000011920929,
                    1.0
                ],
                "metallicFactor": 0.200000002980232,
                "roughnessFactor": 0.800000011920929
            }
        }
    ],
    "meshes": [
        {
            "name": "AmongUS",
            "primitives": [
                {
                    "material": 0,
                    "mode": 4,
                    "attributes": {
                        "JOINTS_0": 67,
                        "NORMAL": 64,
                        "POSITION": 63,
                        "TEXCOORD_0": 65,
                        "TEXCOORD_1": 66,
                        "WEIGHTS_0": 68
                    },
                    "indices": 62
                }
            ]
        },
        {
            "name": "Luoi",
            "primitives": [
                {
                    "material": 0,
                    "mode": 4,
                    "attributes": {
                        "JOINTS_0": 74,
                        "NORMAL": 71,
                        "POSITION": 70,
                        "TEXCOORD_0": 72,
                        "TEXCOORD_1": 73,
                        "WEIGHTS_0": 75
                    },
                    "indices": 69
                }
            ]
        },
        {
            "name": "Hand3",
            "primitives": [
                {
                    "material": 0,
                    "mode": 4,
                    "attributes": {
                        "JOINTS_0": 81,
                        "NORMAL": 78,
                        "POSITION": 77,
                        "TEXCOORD_0": 79,
                        "TEXCOORD_1": 80,
                        "WEIGHTS_0": 82
                    },
                    "indices": 76
                }
            ]
        },
        {
            "name": "weapon_bazooka",
            "primitives": [
                {
                    "material": 1,
                    "mode": 4,
                    "attributes": {
                        "JOINTS_0": 88,
                        "NORMAL": 85,
                        "POSITION": 84,
                        "TEXCOORD_0": 86,
                        "TEXCOORD_1": 87,
                        "WEIGHTS_0": 89
                    },
                    "indices": 83
                }
            ]
        }
    ],
    "skins": [
        {
            "joints": [
                6,
                7,
                8,
                9,
                10,
                35,
                46,
                47,
                48,
                50,
                51,
                52,
                11
            ],
            "inverseBindMatrices": 90,
            "skeleton": 6
        },
        {
            "joints": [
                37,
                38,
                39,
                40,
                41,
                42,
                43,
                44,
                45
            ],
            "inverseBindMatrices": 91,
            "skeleton": 37
        },
        {
            "joints": [
                12,
                13,
                14,
                15,
                16,
                17,
                18,
                19,
                20,
                21,
                22,
                23,
                24,
                25,
                26,
                27,
                28,
                29
            ],
            "inverseBindMatrices": 92,
            "skeleton": 12
        },
        {
            "joints": [
                33
            ],
            "inverseBindMatrices": 93,
            "skeleton": 33
        }
    ],
    "animations": [
        {
            "name": "Bazooka Attack",
            "channels": [
                {
                    "sampler": 0,
                    "target": {
                        "node": 6,
                        "path": "translation"
                    }
                },
                {
                    "sampler": 1,
                    "target": {
                        "node": 6,
                        "path": "rotation"
                    }
                },
                {
                    "sampler": 2,
                    "target": {
                        "node": 7,
                        "path": "rotation"
                    }
                },
                {
                    "sampler": 3,
                    "target": {
                        "node": 8,
                        "path": "translation"
                    }
                },
                {
                    "sampler": 4,
                    "target": {
                        "node": 8,
                        "path": "rotation"
                    }
                },
                {
                    "sampler": 5,
                    "target": {
                        "node": 9,
                        "path": "rotation"
                    }
                },
                {
                    "sampler": 6,
                    "target": {
                        "node": 11,
                        "path": "rotation"
                    }
                },
                {
                    "sampler": 7,
                    "target": {
                        "node": 12,
                        "path": "translation"
                    }
                },
                {
                    "sampler": 8,
                    "target": {
                        "node": 12,
                        "path": "rotation"
                    }
                },
                {
                    "sampler": 9,
                    "target": {
                        "node": 13,
                        "path": "translation"
                    }
                },
                {
                    "sampler": 10,
                    "target": {
                        "node": 13,
                        "path": "rotation"
                    }
                },
                {
                    "sampler": 11,
                    "target": {
                        "node": 14,
                        "path": "translation"
                    }
                },
                {
                    "sampler": 12,
                    "target": {
                        "node": 14,
                        "path": "rotation"
                    }
                },
                {
                    "sampler": 13,
                    "target": {
                        "node": 15,
                        "path": "translation"
                    }
                },
                {
                    "sampler": 14,
                    "target": {
                        "node": 15,
                        "path": "rotation"
                    }
                },
                {
                    "sampler": 15,
                    "target": {
                        "node": 16,
                        "path": "translation"
                    }
                },
                {
                    "sampler": 16,
                    "target": {
                        "node": 16,
                        "path": "rotation"
                    }
                },
                {
                    "sampler": 17,
                    "target": {
                        "node": 17,
                        "path": "translation"
                    }
                },
                {
                    "sampler": 18,
                    "target": {
                        "node": 17,
                        "path": "rotation"
                    }
                },
                {
                    "sampler": 19,
                    "target": {
                        "node": 18,
                        "path": "translation"
                    }
                },
                {
                    "sampler": 20,
                    "target": {
                        "node": 18,
                        "path": "rotation"
                    }
                },
                {
                    "sampler": 21,
                    "target": {
                        "node": 19,
                        "path": "translation"
                    }
                },
                {
                    "sampler": 22,
                    "target": {
                        "node": 19,
                        "path": "rotation"
                    }
                },
                {
                    "sampler": 23,
                    "target": {
                        "node": 20,
                        "path": "translation"
                    }
                },
                {
                    "sampler": 24,
                    "target": {
                        "node": 20,
                        "path": "rotation"
                    }
                },
                {
                    "sampler": 25,
                    "target": {
                        "node": 21,
                        "path": "translation"
                    }
                },
                {
                    "sampler": 26,
                    "target": {
                        "node": 21,
                        "path": "rotation"
                    }
                },
                {
                    "sampler": 27,
                    "target": {
                        "node": 22,
                        "path": "translation"
                    }
                },
                {
                    "sampler": 28,
                    "target": {
                        "node": 22,
                        "path": "rotation"
                    }
                },
                {
                    "sampler": 29,
                    "target": {
                        "node": 23,
                        "path": "translation"
                    }
                },
                {
                    "sampler": 30,
                    "target": {
                        "node": 23,
                        "path": "rotation"
                    }
                },
                {
                    "sampler": 31,
                    "target": {
                        "node": 24,
                        "path": "translation"
                    }
                },
                {
                    "sampler": 32,
                    "target": {
                        "node": 24,
                        "path": "rotation"
                    }
                },
                {
                    "sampler": 33,
                    "target": {
                        "node": 25,
                        "path": "translation"
                    }
                },
                {
                    "sampler": 34,
                    "target": {
                        "node": 25,
                        "path": "rotation"
                    }
                },
                {
                    "sampler": 35,
                    "target": {
                        "node": 26,
                        "path": "translation"
                    }
                },
                {
                    "sampler": 36,
                    "target": {
                        "node": 26,
                        "path": "rotation"
                    }
                },
                {
                    "sampler": 37,
                    "target": {
                        "node": 27,
                        "path": "translation"
                    }
                },
                {
                    "sampler": 38,
                    "target": {
                        "node": 27,
                        "path": "rotation"
                    }
                },
                {
                    "sampler": 39,
                    "target": {
                        "node": 28,
                        "path": "translation"
                    }
                },
                {
                    "sampler": 40,
                    "target": {
                        "node": 28,
                        "path": "rotation"
                    }
                },
                {
                    "sampler": 41,
                    "target": {
                        "node": 29,
                        "path": "translation"
                    }
                },
                {
                    "sampler": 42,
                    "target": {
                        "node": 29,
                        "path": "rotation"
                    }
                },
                {
                    "sampler": 43,
                    "target": {
                        "node": 30,
                        "path": "translation"
                    }
                },
                {
                    "sampler": 44,
                    "target": {
                        "node": 30,
                        "path": "rotation"
                    }
                },
                {
                    "sampler": 45,
                    "target": {
                        "node": 31,
                        "path": "translation"
                    }
                },
                {
                    "sampler": 46,
                    "target": {
                        "node": 31,
                        "path": "rotation"
                    }
                },
                {
                    "sampler": 47,
                    "target": {
                        "node": 32,
                        "path": "translation"
                    }
                },
                {
                    "sampler": 48,
                    "target": {
                        "node": 32,
                        "path": "rotation"
                    }
                },
                {
                    "sampler": 49,
                    "target": {
                        "node": 33,
                        "path": "translation"
                    }
                },
                {
                    "sampler": 50,
                    "target": {
                        "node": 33,
                        "path": "rotation"
                    }
                },
                {
                    "sampler": 51,
                    "target": {
                        "node": 34,
                        "path": "translation"
                    }
                },
                {
                    "sampler": 52,
                    "target": {
                        "node": 34,
                        "path": "rotation"
                    }
                },
                {
                    "sampler": 53,
                    "target": {
                        "node": 35,
                        "path": "translation"
                    }
                },
                {
                    "sampler": 54,
                    "target": {
                        "node": 35,
                        "path": "rotation"
                    }
                },
                {
                    "sampler": 55,
                    "target": {
                        "node": 46,
                        "path": "rotation"
                    }
                },
                {
                    "sampler": 56,
                    "target": {
                        "node": 47,
                        "path": "rotation"
                    }
                },
                {
                    "sampler": 57,
                    "target": {
                        "node": 48,
                        "path": "rotation"
                    }
                },
                {
                    "sampler": 58,
                    "target": {
                        "node": 50,
                        "path": "rotation"
                    }
                },
                {
                    "sampler": 59,
                    "target": {
                        "node": 51,
                        "path": "rotation"
                    }
                },
                {
                    "sampler": 60,
                    "target": {
                        "node": 52,
                        "path": "rotation"
                    }
                }
            ],
            "samplers": [
                {
                    "input": 0,
                    "interpolation": "LINEAR",
                    "output": 1
                },
                {
                    "input": 0,
                    "interpolation": "LINEAR",
                    "output": 2
                },
                {
                    "input": 0,
                    "interpolation": "LINEAR",
                    "output": 3
                },
                {
                    "input": 0,
                    "interpolation": "LINEAR",
                    "output": 4
                },
                {
                    "input": 0,
                    "interpolation": "LINEAR",
                    "output": 5
                },
                {
                    "input": 0,
                    "interpolation": "LINEAR",
                    "output": 6
                },
                {
                    "input": 0,
                    "interpolation": "LINEAR",
                    "output": 7
                },
                {
                    "input": 0,
                    "interpolation": "LINEAR",
                    "output": 8
                },
                {
                    "input": 0,
                    "interpolation": "LINEAR",
                    "output": 9
                },
                {
                    "input": 0,
                    "interpolation": "LINEAR",
                    "output": 10
                },
                {
                    "input": 0,
                    "interpolation": "LINEAR",
                    "output": 11
                },
                {
                    "input": 0,
                    "interpolation": "LINEAR",
                    "output": 12
                },
                {
                    "input": 0,
                    "interpolation": "LINEAR",
                    "output": 13
                },
                {
                    "input": 0,
                    "interpolation": "LINEAR",
                    "output": 14
                },
                {
                    "input": 0,
                    "interpolation": "LINEAR",
                    "output": 15
                },
                {
                    "input": 0,
                    "interpolation": "LINEAR",
                    "output": 16
                },
                {
                    "input": 0,
                    "interpolation": "LINEAR",
                    "output": 17
                },
                {
                    "input": 0,
                    "interpolation": "LINEAR",
                    "output": 18
                },
                {
                    "input": 0,
                    "interpolation": "LINEAR",
                    "output": 19
                },
                {
                    "input": 0,
                    "interpolation": "LINEAR",
                    "output": 20
                },
                {
                    "input": 0,
                    "interpolation": "LINEAR",
                    "output": 21
                },
                {
                    "input": 0,
                    "interpolation": "LINEAR",
                    "output": 22
                },
                {
                    "input": 0,
                    "interpolation": "LINEAR",
                    "output": 23
                },
                {
                    "input": 0,
                    "interpolation": "LINEAR",
                    "output": 24
                },
                {
                    "input": 0,
                    "interpolation": "LINEAR",
                    "output": 25
                },
                {
                    "input": 0,
                    "interpolation": "LINEAR",
                    "output": 26
                },
                {
                    "input": 0,
                    "interpolation": "LINEAR",
                    "output": 27
                },
                {
                    "input": 0,
                    "interpolation": "LINEAR",
                    "output": 28
                },
                {
                    "input": 0,
                    "interpolation": "LINEAR",
                    "output": 29
                },
                {
                    "input": 0,
                    "interpolation": "LINEAR",
                    "output": 30
                },
                {
                    "input": 0,
                    "interpolation": "LINEAR",
                    "output": 31
                },
                {
                    "input": 0,
                    "interpolation": "LINEAR",
                    "output": 32
                },
                {
                    "input": 0,
                    "interpolation": "LINEAR",
                    "output": 33
                },
                {
                    "input": 0,
                    "interpolation": "LINEAR",
                    "output": 34
                },
                {
                    "input": 0,
                    "interpolation": "LINEAR",
                    "output": 35
                },
                {
                    "input": 0,
                    "interpolation": "LINEAR",
                    "output": 36
                },
                {
                    "input": 0,
                    "interpolation": "LINEAR",
                    "output": 37
                },
                {
                    "input": 0,
                    "interpolation": "LINEAR",
                    "output": 38
                },
                {
                    "input": 0,
                    "interpolation": "LINEAR",
                    "output": 39
                },
                {
                    "input": 0,
                    "interpolation": "LINEAR",
                    "output": 40
                },
                {
                    "input": 0,
                    "interpolation": "LINEAR",
                    "output": 41
                },
                {
                    "input": 0,
                    "interpolation": "LINEAR",
                    "output": 42
                },
                {
                    "input": 0,
                    "interpolation": "LINEAR",
                    "output": 43
                },
                {
                    "input": 0,
                    "interpolation": "LINEAR",
                    "output": 44
                },
                {
                    "input": 0,
                    "interpolation": "LINEAR",
                    "output": 45
                },
                {
                    "input": 0,
                    "interpolation": "LINEAR",
                    "output": 46
                },
                {
                    "input": 0,
                    "interpolation": "LINEAR",
                    "output": 47
                },
                {
                    "input": 0,
                    "interpolation": "LINEAR",
                    "output": 48
                },
                {
                    "input": 0,
                    "interpolation": "LINEAR",
                    "output": 49
                },
                {
                    "input": 0,
                    "interpolation": "LINEAR",
                    "output": 50
                },
                {
                    "input": 0,
                    "interpolation": "LINEAR",
                    "output": 51
                },
                {
                    "input": 0,
                    "interpolation": "LINEAR",
                    "output": 52
                },
                {
                    "input": 0,
                    "interpolation": "LINEAR",
                    "output": 53
                },
                {
                    "input": 0,
                    "interpolation": "LINEAR",
                    "output": 54
                },
                {
                    "input": 0,
                    "interpolation": "LINEAR",
                    "output": 55
                },
                {
                    "input": 0,
                    "interpolation": "LINEAR",
                    "output": 56
                },
                {
                    "input": 0,
                    "interpolation": "LINEAR",
                    "output": 57
                },
                {
                    "input": 0,
                    "interpolation": "LINEAR",
                    "output": 58
                },
                {
                    "input": 0,
                    "interpolation": "LINEAR",
                    "output": 59
                },
                {
                    "input": 0,
                    "interpolation": "LINEAR",
                    "output": 60
                },
                {
                    "input": 0,
                    "interpolation": "LINEAR",
                    "output": 61
                }
            ]
        }
    ],
    "nodes": [
        {
            "name": "RootNode",
            "translation": [
                0.0,
                0.0,
                0.0
            ],
            "rotation": [
                0.0,
                0.0,
                0.0,
                1.0
            ],
            "scale": [
                1.0,
                1.0,
                1.0
            ],
            "children": [
                1,
                4,
                54
            ]
        },
        {
            "name": "AmongUS",
            "translation": [
                0.0,
                0.0,
                0.0
            ],
            "rotation": [
                0.0,
                0.0,
                0.0,
                1.0
            ],
            "scale": [
                1.0,
                1.0,
                1.0
            ],
            "children": [
                2,
                3
            ],
            "mesh": 0,
            "skin": 0
        },
        {
            "name": "Luoi",
            "translation": [
                0.0,
                0.0,
                0.0
            ],
            "rotation": [
                0.0,
                0.0,
                0.0,
                1.0
            ],
            "scale": [
                1.0,
                1.0,
                1.0
            ],
            "mesh": 1,
            "skin": 1
        },
        {
            "name": "Hand3",
            "translation": [
                0.0,
                0.0,
                0.0
            ],
            "rotation": [
                0.0,
                0.0,
                0.0,
                1.0
            ],
            "scale": [
                1.0,
                1.0,
                1.0
            ],
            "mesh": 2,
            "skin": 2
        },
        {
            "name": "All_ctrl",
            "translation": [
                0.0,
                0.0,
                0.0
            ],
            "rotation": [
                0.0,
                0.0,
                0.0,
                1.0
            ],
            "scale": [
                1.0,
                1.0,
                1.0
            ],
            "children": [
                5
            ]
        },
        {
            "name": "all_joint",
            "translation": [
                0.0,
                0.0,
                0.0
            ],
            "rotation": [
                0.0,
                0.0,
                0.0,
                1.0
            ],
            "scale": [
                1.0,
                1.0,
                1.0
            ],
            "children": [
                6
            ]
        },
        {
            "name": "hip",
            "translation": [
                -2.06726599571994e-05,
                0.010750649496913,
                0.000261787907220423
            ],
            "rotation": [
                0.0,
                0.0,
                0.0,
                1.0
            ],
            "scale": [
                1.0,
                1.0,
                1.0
            ],
            "children": [
                7,
                46,
                50
            ]
        },
        {
            "name": "spine_01",
            "translation": [
                0.0,
                2.22044599961948e-18,
                0.0
            ],
            "rotation": [
                0.0,
                0.0,
                0.0,
                1.0
            ],
            "scale": [
                1.0,
                1.0,
                1.0
            ],
            "children": [
                8,
                35
            ]
        },
        {
            "name": "spine_02",
            "translation": [
                1.70663697645068e-05,
                0.00577584328129888,
                -0.000204509604373015
            ],
            "rotation": [
                0.0,
                0.0,
                0.0,
                1.0
            ],
            "scale": [
                1.0,
                1.0,
                1.0
            ],
            "children": [
                9,
                10,
                11,
                12,
                21
            ]
        },
        {
            "name": "head",
            "translation": [
                0.0,
                0.00608219299465418,
                0.0
            ],
            "rotation": [
                0.0,
                0.0,
                0.0,
                1.0
            ],
            "scale": [
                1.0,
                1.0,
                1.0
            ]
        },
        {
            "name": "back",
            "translation": [
                1.0842021482517e-21,
                -0.00257369480095804,
                -0.00784720573574305
            ],
            "rotation": [
                0.0,
                0.0,
                0.0,
                1.0
            ],
            "scale": [
                1.0,
                1.0,
                1.0
            ]
        },
        {
            "name": "jaw_up",
            "translation": [
                0.0,
                -0.00179415487218648,
                0.00304747698828578
            ],
            "rotation": [
                0.0,
                0.0,
                0.0,
                1.0
            ],
            "scale": [
                1.0,
                1.0,
                1.0
            ]
        },
        {
            "name": "Hand_L_01",
            "translation": [
                0.00438381778076291,
                -0.00327991810627282,
                -0.00882835313677788
            ],
            "rotation": [
                0.276060253381729,
                0.69185870885849,
                0.478879451751709,
                -0.464539229869843
            ],
            "scale": [
                1.0,
                1.0,
                1.0
            ],
            "children": [
                13,
                15,
                17,
                19
            ]
        },
        {
            "name": "Thumb_L_01",
            "translation": [
                0.00438021123409271,
                0.0132465753704309,
                -0.00877107493579388
            ],
            "rotation": [
                0.213912785053253,
                0.752451479434967,
                0.554736018180847,
                -0.283418595790863
            ],
            "scale": [
                1.0,
                1.0,
                1.0
            ],
            "children": [
                14
            ]
        },
        {
            "name": "Thumb_L_02",
            "translation": [
                0.00438021123409271,
                0.0132465753704309,
                -0.00877107493579388
            ],
            "rotation": [
                0.0763097777962685,
                0.687203168869019,
                0.557418167591095,
                -0.459579885005951
            ],
            "scale": [
                1.0,
                1.0,
                1.0
            ]
        },
        {
            "name": "idex_L_01",
            "translation": [
                0.00438021123409271,
                0.0132465753704309,
                -0.00877107493579388
            ],
            "rotation": [
                -0.382928788661957,
                0.729030013084412,
                0.552098095417023,
                0.130646586418152
            ],
            "scale": [
                1.0,
                1.0,
                1.0
            ],
            "children": [
                16
            ]
        },
        {
            "name": "idex_L_02",
            "translation": [
                0.00438021123409271,
                0.0132465753704309,
                -0.00877107493579388
            ],
            "rotation": [
                0.75336104631424,
                -0.332179546356201,
                -0.350955635309219,
                -0.446020245552063
            ],
            "scale": [
                1.0,
                1.0,
                1.0
            ]
        },
        {
            "name": "Ring_L_01",
            "translation": [
                0.00438021123409271,
                0.0132465753704309,
                -0.00877107493579388
            ],
            "rotation": [
                -0.351223051548004,
                0.690762937068939,
                0.627018749713898,
                0.0796016231179237
            ],
            "scale": [
                1.0,
                1.0,
                1.0
            ],
            "children": [
                18
            ]
        },
        {
            "name": "Ring_L_02",
            "translation": [
                0.00438021123409271,
                0.0132465753704309,
                -0.00877107493579388
            ],
            "rotation": [
                0.685190141201019,
                -0.361919373273849,
                -0.466467618942261,
                -0.426540553569794
            ],
            "scale": [
                1.0,
                1.0,
                1.0
            ]
        },
        {
            "name": "Little_L_01",
            "translation": [
                0.00438021123409271,
                0.0132465753704309,
                -0.00877107493579388
            ],
            "rotation": [
                -0.425117880105972,
                0.588899672031403,
                0.672643899917603,
                0.141499504446983
            ],
            "scale": [
                1.0,
                1.0,
                1.0
            ],
            "children": [
                20
            ]
        },
        {
            "name": "Little_L_02",
            "translation": [
                0.00438021123409271,
                0.0132465753704309,
                -0.00877107493579388
            ],
            "rotation": [
                0.667911291122437,
                -0.285403341054916,
                -0.503359019756317,
                -0.468048244714737
            ],
            "scale": [
                1.0,
                1.0,
                1.0
            ]
        },
        {
            "name": "Hand_R_01",
            "translation": [
                0.00151650200132281,
                -0.000969985267147422,
                -0.00455965008586645
            ],
            "rotation": [
                0.862443625926971,
                -0.194767221808434,
                -0.00833551865071058,
                -0.467105150222778
            ],
            "scale": [
                1.0,
                1.0,
                1.0
            ],
            "children": [
                22,
                24,
                26,
                28,
                30,
                31,
                32,
                33,
                34
            ]
        },
        {
            "name": "Thumb_R_01",
            "translation": [
                0.00151289580389857,
                0.0155565077438951,
                -0.00450237188488245
            ],
            "rotation": [
                -0.758693218231201,
                -0.352993309497833,
                0.0297517310827971,
                0.546713054180145
            ],
            "scale": [
                1.0,
                1.0,
                1.0
            ],
            "children": [
                23
            ]
        },
        {
            "name": "Thumb_R_02",
            "translation": [
                0.00151289580389857,
                0.0155565077438951,
                -0.00450237188488245
            ],
            "rotation": [
                -0.729797422885895,
                -0.167081460356712,
                -0.203274071216583,
                0.630998551845551
            ],
            "scale": [
                1.0,
                1.0,
                1.0
            ]
        },
        {
            "name": "idex_R_01",
            "translation": [
                0.00151289580389857,
                0.0155565077438951,
                -0.00450237188488245
            ],
            "rotation": [
                0.735640287399292,
                0.45525050163269,
                0.209625363349915,
                -0.455672651529312
            ],
            "scale": [
                1.0,
                1.0,
                1.0
            ],
            "children": [
                25
            ]
        },
        {
            "name": "idex_R_02",
            "translation": [
                0.00151289580389857,
                0.0155565077438951,
                -0.00450237188488245
            ],
            "rotation": [
                0.526783049106598,
                0.686284422874451,
                0.35749951004982,
                -0.351720631122589
            ],
            "scale": [
                1.0,
                1.0,
                1.0
            ]
        },
        {
            "name": "Ring_R_01",
            "translation": [
                0.00151289580389857,
                0.0155565077438951,
                -0.00450237188488245
            ],
            "rotation": [
                0.762154638767242,
                0.436763048171997,
                0.271484404802322,
                -0.393261432647705
            ],
            "scale": [
                1.0,
                1.0,
                1.0
            ],
            "children": [
                27
            ]
        },
        {
            "name": "Ring_R_02",
            "translation": [
                0.00151289580389857,
                0.0155565077438951,
                -0.00450237188488245
            ],
            "rotation": [
                0.522640645503998,
                0.706043124198914,
                0.406557500362396,
                -0.251119196414948
            ],
            "scale": [
                1.0,
                1.0,
                1.0
            ]
        },
        {
            "name": "Little_R_01",
            "translation": [
                0.00151289580389857,
                0.0155565077438951,
                -0.00450237188488245
            ],
            "rotation": [
                0.773524403572083,
                0.433429688215256,
                0.32790669798851,
                -0.325999885797501
            ],
            "scale": [
                1.0,
                1.0,
                1.0
            ],
            "children": [
                29
            ]
        },
        {
            "name": "Little_R_02",
            "translation": [
                0.00151289580389857,
                0.0155565077438951,
                -0.00450237188488245
            ],
            "rotation": [
                0.504422843456268,
                0.729215085506439,
                0.437790483236313,
                -0.148803472518921
            ],
            "scale": [
                1.0,
                1.0,
                1.0
            ]
        },
        {
            "name": "weapon_gun_joint",
            "translation": [
                0.00151289580389857,
                0.0155565077438951,
                -0.00450237188488245
            ],
            "rotation": [
                0.889366865158081,
                -0.109494112432003,
                -0.161291018128395,
                0.41354912519455
            ],
            "scale": [
                1.0,
                1.0,
                1.0
            ]
        },
        {
            "name": "weapon_katana_joint",
            "translation": [
                0.00151289580389857,
                0.0155565077438951,
                -0.00450237188488245
            ],
            "rotation": [
                0.467105150222778,
                0.00833551865071058,
                -0.194767221808434,
                0.862443625926971
            ],
            "scale": [
                1.0,
                1.0,
                1.0
            ]
        },
        {
            "name": "weapon_knife_joint",
            "translation": [
                0.00151289580389857,
                0.0155565077438951,
                -0.00450237188488245
            ],
            "rotation": [
                0.886665463447571,
                -0.19512090086937,
                -0.0345104485750198,
                -0.417805284261703
            ],
            "scale": [
                1.0,
                1.0,
                1.0
            ]
        },
        {
            "name": "weapon_bazooka_joint",
            "translation": [
                0.00151289580389857,
                0.0155565077438951,
                -0.00450237188488245
            ],
            "rotation": [
                0.467105150222778,
                0.00833551865071058,
                -0.194767221808434,
                0.862443625926971
            ],
            "scale": [
                1.0,
                1.0,
                1.0
            ]
        },
        {
            "name": "weapon_bua_joint",
            "translation": [
                0.00151289580389857,
                0.0155565077438951,
                -0.00450237188488245
            ],
            "rotation": [
                0.441640257835388,
                -0.0959152951836586,
                -0.245385676622391,
                0.857636272907257
            ],
            "scale": [
                1.0,
                1.0,
                1.0
            ]
        },
        {
            "name": "jaw_down",
            "translation": [
                0.0,
                0.00247043999843299,
                -0.00123132392764091
            ],
            "rotation": [
                0.0,
                0.0,
                0.0,
                1.0
            ],
            "scale": [
                1.0,
                1.0,
                1.0
            ],
            "children": [
                36,
                37
            ]
        },
        {
            "name": "jaw_down1",
            "translation": [
                0.0,
                -0.00205848040059209,
                0.00652236258611083
            ],
            "rotation": [
                0.0,
                0.0,
                0.0,
                1.0
            ],
            "scale": [
                1.0,
                1.0,
                1.0
            ]
        },
        {
            "name": "Luoi1",
            "translation": [
                2.23042898142012e-05,
                -0.000203395495191216,
                0.000603716180194169
            ],
            "rotation": [
                -0.0,
                -0.70710676908493,
                0.0,
                0.70710676908493
            ],
            "scale": [
                1.0,
                1.0,
                1.0
            ],
            "children": [
                38
            ]
        },
        {
            "name": "Luoi2",
            "translation": [
                0.000704610487446189,
                0.0,
                1.56938263433301e-19
            ],
            "rotation": [
                0.0,
                0.0,
                0.0,
                1.0
            ],
            "scale": [
                1.0,
                1.0,
                1.0
            ],
            "children": [
                39
            ]
        },
        {
            "name": "Luoi3",
            "translation": [
                0.000730104802642018,
                0.0,
                1.6127506798734e-19
            ],
            "rotation": [
                0.0,
                0.0,
                0.0,
                1.0
            ],
            "scale": [
                1.0,
                1.0,
                1.0
            ],
            "children": [
                40
            ]
        },
        {
            "name": "Luoi4",
            "translation": [
                0.000752364401705563,
                0.0,
                1.67238187173841e-19
            ],
            "rotation": [
                0.0,
                0.0,
                0.0,
                1.0
            ],
            "scale": [
                1.0,
                1.0,
                1.0
            ],
            "children": [
                41
            ]
        },
        {
            "name": "Luoi5",
            "translation": [
                0.000736771035008132,
                0.0,
                1.62901369695105e-19
            ],
            "rotation": [
                0.0,
                0.0,
                0.0,
                1.0
            ],
            "scale": [
                1.0,
                1.0,
                1.0
            ],
            "children": [
                42
            ]
        },
        {
            "name": "Luoi6",
            "translation": [
                0.000753338332287967,
                2.22044599961948e-18,
                1.67780287743095e-19
            ],
            "rotation": [
                0.0,
                -0.0,
                -0.0160193089395761,
                0.999871671199799
            ],
            "scale": [
                1.0,
                1.0,
                1.0
            ],
            "children": [
                43
            ]
        },
        {
            "name": "Luoi7",
            "translation": [
                0.000747368496377021,
                -8.88178399847791e-18,
                1.653408287191e-19
            ],
            "rotation": [
                -3.85137935954083e-34,
                6.08380387256922e-36,
                -0.0157944578677416,
                0.999875247478485
            ],
            "scale": [
                1.0,
                1.0,
                1.0
            ],
            "children": [
                44
            ]
        },
        {
            "name": "Luoi8",
            "translation": [
                0.000753030471969396,
                2.22044599961948e-18,
                1.66967130426865e-19
            ],
            "rotation": [
                8.73465403715901e-34,
                6.149211517875e-33,
                -0.0167453978210688,
                0.999859809875488
            ],
            "scale": [
                1.0,
                1.0,
                1.0
            ],
            "children": [
                45
            ]
        },
        {
            "name": "Luoi9",
            "translation": [
                0.000740690680686384,
                4.44089199923895e-18,
                1.63985570833614e-19
            ],
            "rotation": [
                -7.70371977754894e-34,
                -0.0,
                0.0,
                1.0
            ],
            "scale": [
                1.0,
                1.0,
                1.0
            ]
        },
        {
            "name": "leg_L",
            "translation": [
                0.00465013552457094,
                -0.00379317277111113,
                0.000159112401888706
            ],
            "rotation": [
                -0.0723621472716331,
                -0.0487260296940804,
                -0.707963705062866,
                0.700840175151825
            ],
            "scale": [
                1.0,
                1.0,
                1.0
            ],
            "children": [
                47
            ]
        },
        {
            "name": "knee_L",
            "translation": [
                0.00354297086596489,
                1.11022299980974e-18,
                2.77555749952435e-19
            ],
            "rotation": [
                -0.000110674533061683,
                0.187327742576599,
                0.00652872817590833,
                0.982275784015656
            ],
            "scale": [
                1.0,
                1.0,
                1.0
            ],
            "children": [
                48
            ]
        },
        {
            "name": "feet_L",
            "translation": [
                0.0031205506529659,
                1.66533449971461e-18,
                -8.32667249857304e-19
            ],
            "rotation": [
                0.0125349489971995,
                -0.775841057300568,
                -0.0102942734956741,
                0.630719900131226
            ],
            "scale": [
                1.0,
                1.0,
                1.0
            ],
            "children": [
                49
            ]
        },
        {
            "name": "feet_L_end",
            "translation": [
                0.00199049687944353,
                0.0,
                2.77555749952435e-19
            ],
            "rotation": [
                -3.52431097423111e-26,
                -0.0,
                1.03397576569128e-25,
                1.0
            ],
            "scale": [
                1.0,
                1.0,
                1.0
            ]
        },
        {
            "name": "leg_R",
            "translation": [
                -0.00465013738721609,
                -0.00379316788166761,
                0.000159112096298486
            ],
            "rotation": [
                0.700840175151825,
                0.707963645458221,
                -0.0487258844077587,
                0.0723622888326645
            ],
            "scale": [
                1.0,
                1.0,
                1.0
            ],
            "children": [
                51
            ]
        },
        {
            "name": "knee_R",
            "translation": [
                -0.00354298041202128,
                7.43038630623971e-10,
                -1.26160104585438e-09
            ],
            "rotation": [
                -0.000110674533061683,
                0.187327742576599,
                0.00652872817590833,
                0.982275784015656
            ],
            "scale": [
                1.0,
                1.0,
                1.0
            ],
            "children": [
                52
            ]
        },
        {
            "name": "feet_R",
            "translation": [
                -0.00312054716050625,
                -2.77555739612677e-18,
                3.18168646984418e-09
            ],
            "rotation": [
                0.0125351045280695,
                -0.775841057300568,
                -0.0102943992242217,
                0.630719900131226
            ],
            "scale": [
                1.0,
                1.0,
                1.0
            ],
            "children": [
                53
            ]
        },
        {
            "name": "feet_R_end",
            "translation": [
                -0.00199049199000001,
                -1.83464350584142e-15,
                2.98372422151579e-18
            ],
            "rotation": [
                -1.17029225515328e-26,
                3.23117426778526e-27,
                -4.13590306276514e-25,
                1.0
            ],
            "scale": [
                1.0,
                1.0,
                1.0
            ]
        },
        {
            "name": "weapon_bazooka",
            "translation": [
                0.0,
                0.0,
                0.0
            ],
            "rotation": [
                0.0,
                0.0,
                0.0,
                1.0
            ],
            "scale": [
                1.0,
                1.0,
                1.0
            ],
            "mesh": 3,
            "skin": 3
        }
    ]
}