{
  "__type__": "cc.SkeletonAnimationClip",
  "_name": "character_bones|axe_win_1",
  "_objFlags": 0,
  "_native": ".bin",
  "_duration": 5.791666507720947,
  "sample": 30,
  "speed": 1,
  "wrapMode": 2,
  "events": [],
  "description": {
    "character_bones/Bone": {
      "position": {
        "offset": 0,
        "frameCount": 39
      },
      "quat": {
        "offset": 156,
        "frameCount": 19
      },
      "scale": {
        "offset": 251,
        "frameCount": 1
      }
    },
    "character_bones/Bone/leg_up.L": {
      "quat": {
        "offset": 255,
        "frameCount": 139
      },
      "scale": {
        "offset": 950,
        "frameCount": 1
      },
      "position": {
        "offset": 954,
        "frameCount": 1
      }
    },
    "character_bones/Bone/leg_up.L/leg_down.L": {
      "quat": {
        "offset": 958,
        "frameCount": 138
      },
      "scale": {
        "offset": 1648,
        "frameCount": 1
      },
      "position": {
        "offset": 1652,
        "frameCount": 1
      }
    },
    "character_bones/Bone/leg_up.L/leg_down.L/foot.L": {
      "quat": {
        "offset": 1656,
        "frameCount": 139
      },
      "scale": {
        "offset": 2351,
        "frameCount": 1
      },
      "position": {
        "offset": 2355,
        "frameCount": 1
      }
    },
    "character_bones/Bone/leg_up.R": {
      "quat": {
        "offset": 2359,
        "frameCount": 139
      },
      "scale": {
        "offset": 3054,
        "frameCount": 1
      },
      "position": {
        "offset": 3058,
        "frameCount": 1
      }
    },
    "character_bones/Bone/leg_up.R/leg_down.R": {
      "quat": {
        "offset": 3062,
        "frameCount": 127
      },
      "scale": {
        "offset": 3697,
        "frameCount": 1
      },
      "position": {
        "offset": 3701,
        "frameCount": 1
      }
    },
    "character_bones/Bone/leg_up.R/leg_down.R/foot.R": {
      "quat": {
        "offset": 3705,
        "frameCount": 139
      },
      "scale": {
        "offset": 4400,
        "frameCount": 1
      },
      "position": {
        "offset": 4404,
        "frameCount": 1
      }
    },
    "character_bones/Bone/Bone.001": {
      "quat": {
        "offset": 4408,
        "frameCount": 19
      },
      "scale": {
        "offset": 4503,
        "frameCount": 1
      },
      "position": {
        "offset": 4507,
        "frameCount": 1
      }
    },
    "character_bones/Bone/Bone.001/Bone.002": {
      "quat": {
        "offset": 4511,
        "frameCount": 135
      },
      "scale": {
        "offset": 5186,
        "frameCount": 1
      },
      "position": {
        "offset": 5190,
        "frameCount": 1
      }
    },
    "character_bones/Bone/Bone.001/arm_up.L": {
      "quat": {
        "offset": 5194,
        "frameCount": 19
      },
      "scale": {
        "offset": 5289,
        "frameCount": 1
      },
      "position": {
        "offset": 5293,
        "frameCount": 1
      }
    },
    "character_bones/Bone/Bone.001/arm_up.L/arm_down.L": {
      "quat": {
        "offset": 5297,
        "frameCount": 134
      },
      "scale": {
        "offset": 5967,
        "frameCount": 1
      },
      "position": {
        "offset": 5971,
        "frameCount": 1
      }
    },
    "character_bones/Bone/Bone.001/arm_up.R": {
      "quat": {
        "offset": 5975,
        "frameCount": 139
      },
      "scale": {
        "offset": 6670,
        "frameCount": 1
      },
      "position": {
        "offset": 6674,
        "frameCount": 1
      }
    },
    "character_bones/Bone/Bone.001/arm_up.R/arm_down.R": {
      "quat": {
        "offset": 6678,
        "frameCount": 18
      },
      "scale": {
        "offset": 6768,
        "frameCount": 1
      },
      "position": {
        "offset": 6772,
        "frameCount": 1
      }
    },
    "character_bones/Bone/Bone.001/arm_up.R/arm_down.R/weapon_hand.R": {
      "quat": {
        "offset": 6776,
        "frameCount": 139
      },
      "scale": {
        "offset": 7471,
        "frameCount": 1
      },
      "position": {
        "offset": 7475,
        "frameCount": 1
      }
    },
    "character_bones/ik_legPole.L": {
      "position": {
        "offset": 7479,
        "frameCount": 18
      },
      "quat": {
        "offset": 7551,
        "frameCount": 1
      },
      "scale": {
        "offset": 7556,
        "frameCount": 1
      }
    },
    "character_bones/ik_target.L": {
      "position": {
        "offset": 7560,
        "frameCount": 16
      },
      "quat": {
        "offset": 7624,
        "frameCount": 18
      },
      "scale": {
        "offset": 7714,
        "frameCount": 1
      }
    },
    "character_bones/ik_target.R": {
      "quat": {
        "offset": 7718,
        "frameCount": 18
      },
      "scale": {
        "offset": 7808,
        "frameCount": 1
      },
      "position": {
        "offset": 7812,
        "frameCount": 1
      }
    },
    "Steve": {
      "quat": {
        "offset": 7816,
        "frameCount": 1
      },
      "scale": {
        "offset": 7821,
        "frameCount": 1
      },
      "position": {
        "offset": 7825,
        "frameCount": 1
      }
    },
    "character_bones": {
      "quat": {
        "offset": 7829,
        "frameCount": 1
      },
      "scale": {
        "offset": 7834,
        "frameCount": 1
      },
      "position": {
        "offset": 7838,
        "frameCount": 1
      }
    },
    "character_bones/Bone/Bone.001/arm_up.L/arm_down.L/weapon_hand.L": {
      "quat": {
        "offset": 7842,
        "frameCount": 1
      },
      "scale": {
        "offset": 7847,
        "frameCount": 1
      },
      "position": {
        "offset": 7851,
        "frameCount": 1
      }
    },
    "character_bones/Bone/Bone.001/arm_up.R/arm_down.R/weapon_hand.R/axe": {
      "quat": {
        "offset": 7855,
        "frameCount": 1
      },
      "scale": {
        "offset": 7860,
        "frameCount": 1
      },
      "position": {
        "offset": 7864,
        "frameCount": 1
      }
    },
    "character_bones/Bone/Bone.001/arm_up.R/arm_down.R/weapon_hand.R/axe_1": {
      "quat": {
        "offset": 7868,
        "frameCount": 1
      },
      "scale": {
        "offset": 7873,
        "frameCount": 1
      },
      "position": {
        "offset": 7877,
        "frameCount": 1
      }
    },
    "character_bones/Bone/Bone.001/arm_up.R/arm_down.R/weapon_hand.R/axe_2": {
      "quat": {
        "offset": 7881,
        "frameCount": 1
      },
      "scale": {
        "offset": 7886,
        "frameCount": 1
      },
      "position": {
        "offset": 7890,
        "frameCount": 1
      }
    },
    "character_bones/Bone/Bone.001/arm_up.R/arm_down.R/weapon_hand.R/luoihai": {
      "quat": {
        "offset": 7894,
        "frameCount": 1
      },
      "scale": {
        "offset": 7899,
        "frameCount": 1
      },
      "position": {
        "offset": 7903,
        "frameCount": 1
      }
    },
    "character_bones/Bone/Bone.001/arm_up.R/arm_down.R/weapon_hand.R/xeng": {
      "quat": {
        "offset": 7907,
        "frameCount": 1
      },
      "scale": {
        "offset": 7912,
        "frameCount": 1
      },
      "position": {
        "offset": 7916,
        "frameCount": 1
      }
    },
    "character_bones/ik_legPole.R": {
      "quat": {
        "offset": 7920,
        "frameCount": 1
      },
      "scale": {
        "offset": 7925,
        "frameCount": 1
      },
      "position": {
        "offset": 7929,
        "frameCount": 1
      }
    }
  }
}