{
  "__type__": "cc.Material",
  "_name": "",
  "_objFlags": 0,
  "_native": "",
  "_effectAsset": {
    "__uuid__": "abc2cb62-7852-4525-a90d-d474487b88f2"
  },
  "_techniqueIndex": 0,
  "_techniqueData": {
    "0": {
      "props": {
        "diffuseColor": {
          "__type__": "cc.Color",
          "r": 39,
          "g": 39,
          "b": 39,
          "a": 0
        },
        "diffuseTexture": {
          "__uuid__": "3099a3c9-a470-4aaa-9d66-f2a45910e555"
        },
        "emissiveTexture": {
          "__uuid__": "3099a3c9-a470-4aaa-9d66-f2a45910e555"
        },
        "emissiveColor": {
          "__type__": "cc.Color",
          "r": 125,
          "g": 209,
          "b": 113,
          "a": 255
        }
      },
      "defines": {
        "USE_DIFFUSE_TEXTURE": true,
        "USE_EMISSIVE": true,
        "USE_EMISSIVE_TEXTURE": true
      }
    }
  }
}