{
  "__type__": "cc.Skeleton",
  "_name": "",
  "_objFlags": 0,
  "_native": "",
  "_model": {
    "__uuid__": "9418eec5-e104-4432-8bf8-6a2023ffd075"
  },
  "_jointIndices": [
    30
  ],
  "_skinIndex": 3
}