{
  "__type__": "cc.SpriteFrame",
  "content": {
    "name": "tex_ground_02",
    "texture": "73c71fcb-82e5-42bc-a489-836c878bf9b8",
    "atlas": "",
    "rect": [
      0,
      0,
      64,
      64
    ],
    "offset": [
      0,
      0
    ],
    "originalSize": [
      64,
      64
    ],
    "capInsets": [
      0,
      0,
      0,
      0
    ]
  }
}