{
  "__type__": "cc.AnimationClip",
  "_name": "Arrow",
  "_objFlags": 0,
  "_native": "",
  "_duration": 1,
  "sample": 60,
  "speed": 1,
  "wrapMode": 2,
  "curveData": {
    "props": {
      "position": [
        {
          "frame": 0,
          "value": [
            -1.37,
            31.244,
            8
          ]
        },
        {
          "frame": 0.5,
          "value": [
            -1.37,
            31.244,
            2
          ]
        },
        {
          "frame": 1,
          "value": [
            -1.37,
            31.244,
            8
          ]
        }
      ]
    }
  },
  "events": []
}