{
  "__type__": "cc.SpriteFrame",
  "content": {
    "name": "Punisher",
    "texture": "604355ad-4794-4aaa-807e-cd08caaad1c5",
    "atlas": "",
    "rect": [
      0,
      0,
      128,
      128
    ],
    "offset": [
      0,
      0
    ],
    "originalSize": [
      128,
      128
    ],
    "capInsets": [
      0,
      0,
      0,
      0
    ]
  }
}