{
  "__type__": "cc.Skeleton",
  "_name": "",
  "_objFlags": 0,
  "_native": "",
  "_model": {
    "__uuid__": "e98c6292-6575-4187-8d78-f36baabed778"
  },
  "_jointIndices": [
    37,
    38,
    39,
    40,
    41,
    42,
    43,
    44,
    45
  ],
  "_skinIndex": 1
}