{
  "__type__": "cc.SpriteFrame",
  "content": {
    "name": "color_grey",
    "texture": "17a81144-b437-420c-bf51-2e0393775ec2",
    "atlas": "",
    "rect": [
      0,
      0,
      1024,
      1024
    ],
    "offset": [
      0,
      0
    ],
    "originalSize": [
      1024,
      1024
    ],
    "capInsets": [
      0,
      0,
      0,
      0
    ]
  }
}