{
  "__type__": "cc.SpriteFrame",
  "content": {
    "name": "J_Todd",
    "texture": "61e81762-f059-41b3-8093-9a98627c2d02",
    "atlas": "",
    "rect": [
      0,
      0,
      128,
      128
    ],
    "offset": [
      0,
      0
    ],
    "originalSize": [
      128,
      128
    ],
    "capInsets": [
      0,
      0,
      0,
      0
    ]
  }
}