{
  "__type__": "cc.Skeleton",
  "_name": "",
  "_objFlags": 0,
  "_native": "",
  "_model": {
    "__uuid__": "474dbf18-502c-412f-89b8-cc5b88275cf3"
  },
  "_jointIndices": [
    31
  ],
  "_skinIndex": 2
}