{
  "__type__": "cc.SpriteFrame",
  "content": {
    "name": "STARK",
    "texture": "200b4370-57f9-4de0-9699-0b3c229e1aca",
    "atlas": "",
    "rect": [
      0,
      0,
      87,
      27
    ],
    "offset": [
      0,
      0
    ],
    "originalSize": [
      87,
      27
    ],
    "capInsets": [
      0,
      0,
      0,
      0
    ]
  }
}