{
    "asset": {
        "generator": "FBX2glTF v0.9.7",
        "version": "2.0"
    },
    "scene": 0,
    "buffers": [
        {
            "byteLength": 246444,
            "uri": "buffer.bin"
        }
    ],
    "bufferViews": [
        {
            "buffer": 0,
            "byteLength": 72,
            "byteOffset": 0
        },
        {
            "buffer": 0,
            "byteLength": 216,
            "byteOffset": 72
        },
        {
            "buffer": 0,
            "byteLength": 288,
            "byteOffset": 288
        },
        {
            "buffer": 0,
            "byteLength": 288,
            "byteOffset": 576
        },
        {
            "buffer": 0,
            "byteLength": 288,
            "byteOffset": 864
        },
        {
            "buffer": 0,
            "byteLength": 288,
            "byteOffset": 1152
        },
        {
            "buffer": 0,
            "byteLength": 288,
            "byteOffset": 1440
        },
        {
            "buffer": 0,
            "byteLength": 288,
            "byteOffset": 1728
        },
        {
            "buffer": 0,
            "byteLength": 288,
            "byteOffset": 2016
        },
        {
            "buffer": 0,
            "byteLength": 288,
            "byteOffset": 2304
        },
        {
            "buffer": 0,
            "byteLength": 288,
            "byteOffset": 2592
        },
        {
            "buffer": 0,
            "byteLength": 288,
            "byteOffset": 2880
        },
        {
            "buffer": 0,
            "byteLength": 288,
            "byteOffset": 3168
        },
        {
            "buffer": 0,
            "byteLength": 288,
            "byteOffset": 3456
        },
        {
            "buffer": 0,
            "byteLength": 288,
            "byteOffset": 3744
        },
        {
            "buffer": 0,
            "byteLength": 216,
            "byteOffset": 4032
        },
        {
            "buffer": 0,
            "byteLength": 216,
            "byteOffset": 4248
        },
        {
            "buffer": 0,
            "byteLength": 244,
            "byteOffset": 4464
        },
        {
            "buffer": 0,
            "byteLength": 732,
            "byteOffset": 4708
        },
        {
            "buffer": 0,
            "byteLength": 976,
            "byteOffset": 5440
        },
        {
            "buffer": 0,
            "byteLength": 976,
            "byteOffset": 6416
        },
        {
            "buffer": 0,
            "byteLength": 976,
            "byteOffset": 7392
        },
        {
            "buffer": 0,
            "byteLength": 976,
            "byteOffset": 8368
        },
        {
            "buffer": 0,
            "byteLength": 976,
            "byteOffset": 9344
        },
        {
            "buffer": 0,
            "byteLength": 976,
            "byteOffset": 10320
        },
        {
            "buffer": 0,
            "byteLength": 976,
            "byteOffset": 11296
        },
        {
            "buffer": 0,
            "byteLength": 976,
            "byteOffset": 12272
        },
        {
            "buffer": 0,
            "byteLength": 976,
            "byteOffset": 13248
        },
        {
            "buffer": 0,
            "byteLength": 976,
            "byteOffset": 14224
        },
        {
            "buffer": 0,
            "byteLength": 976,
            "byteOffset": 15200
        },
        {
            "buffer": 0,
            "byteLength": 52,
            "byteOffset": 16176
        },
        {
            "buffer": 0,
            "byteLength": 156,
            "byteOffset": 16228
        },
        {
            "buffer": 0,
            "byteLength": 208,
            "byteOffset": 16384
        },
        {
            "buffer": 0,
            "byteLength": 208,
            "byteOffset": 16592
        },
        {
            "buffer": 0,
            "byteLength": 208,
            "byteOffset": 16800
        },
        {
            "buffer": 0,
            "byteLength": 208,
            "byteOffset": 17008
        },
        {
            "buffer": 0,
            "byteLength": 208,
            "byteOffset": 17216
        },
        {
            "buffer": 0,
            "byteLength": 208,
            "byteOffset": 17424
        },
        {
            "buffer": 0,
            "byteLength": 208,
            "byteOffset": 17632
        },
        {
            "buffer": 0,
            "byteLength": 208,
            "byteOffset": 17840
        },
        {
            "buffer": 0,
            "byteLength": 208,
            "byteOffset": 18048
        },
        {
            "buffer": 0,
            "byteLength": 208,
            "byteOffset": 18256
        },
        {
            "buffer": 0,
            "byteLength": 156,
            "byteOffset": 18464
        },
        {
            "buffer": 0,
            "byteLength": 208,
            "byteOffset": 18620
        },
        {
            "buffer": 0,
            "byteLength": 156,
            "byteOffset": 18828
        },
        {
            "buffer": 0,
            "byteLength": 208,
            "byteOffset": 18984
        },
        {
            "buffer": 0,
            "byteLength": 340,
            "byteOffset": 19192
        },
        {
            "buffer": 0,
            "byteLength": 1020,
            "byteOffset": 19532
        },
        {
            "buffer": 0,
            "byteLength": 1360,
            "byteOffset": 20552
        },
        {
            "buffer": 0,
            "byteLength": 1360,
            "byteOffset": 21912
        },
        {
            "buffer": 0,
            "byteLength": 1360,
            "byteOffset": 23272
        },
        {
            "buffer": 0,
            "byteLength": 1360,
            "byteOffset": 24632
        },
        {
            "buffer": 0,
            "byteLength": 1360,
            "byteOffset": 25992
        },
        {
            "buffer": 0,
            "byteLength": 1360,
            "byteOffset": 27352
        },
        {
            "buffer": 0,
            "byteLength": 1360,
            "byteOffset": 28712
        },
        {
            "buffer": 0,
            "byteLength": 1360,
            "byteOffset": 30072
        },
        {
            "buffer": 0,
            "byteLength": 1360,
            "byteOffset": 31432
        },
        {
            "buffer": 0,
            "byteLength": 1360,
            "byteOffset": 32792
        },
        {
            "buffer": 0,
            "byteLength": 1360,
            "byteOffset": 34152
        },
        {
            "buffer": 0,
            "byteLength": 1360,
            "byteOffset": 35512
        },
        {
            "buffer": 0,
            "byteLength": 1020,
            "byteOffset": 36872
        },
        {
            "buffer": 0,
            "byteLength": 660,
            "byteOffset": 37892
        },
        {
            "buffer": 0,
            "byteLength": 1980,
            "byteOffset": 38552
        },
        {
            "buffer": 0,
            "byteLength": 2640,
            "byteOffset": 40532
        },
        {
            "buffer": 0,
            "byteLength": 2640,
            "byteOffset": 43172
        },
        {
            "buffer": 0,
            "byteLength": 2640,
            "byteOffset": 45812
        },
        {
            "buffer": 0,
            "byteLength": 2640,
            "byteOffset": 48452
        },
        {
            "buffer": 0,
            "byteLength": 2640,
            "byteOffset": 51092
        },
        {
            "buffer": 0,
            "byteLength": 2640,
            "byteOffset": 53732
        },
        {
            "buffer": 0,
            "byteLength": 2640,
            "byteOffset": 56372
        },
        {
            "buffer": 0,
            "byteLength": 2640,
            "byteOffset": 59012
        },
        {
            "buffer": 0,
            "byteLength": 2640,
            "byteOffset": 61652
        },
        {
            "buffer": 0,
            "byteLength": 2640,
            "byteOffset": 64292
        },
        {
            "buffer": 0,
            "byteLength": 2640,
            "byteOffset": 66932
        },
        {
            "buffer": 0,
            "byteLength": 2640,
            "byteOffset": 69572
        },
        {
            "buffer": 0,
            "byteLength": 580,
            "byteOffset": 72212
        },
        {
            "buffer": 0,
            "byteLength": 1740,
            "byteOffset": 72792
        },
        {
            "buffer": 0,
            "byteLength": 2320,
            "byteOffset": 74532
        },
        {
            "buffer": 0,
            "byteLength": 2320,
            "byteOffset": 76852
        },
        {
            "buffer": 0,
            "byteLength": 2320,
            "byteOffset": 79172
        },
        {
            "buffer": 0,
            "byteLength": 2320,
            "byteOffset": 81492
        },
        {
            "buffer": 0,
            "byteLength": 2320,
            "byteOffset": 83812
        },
        {
            "buffer": 0,
            "byteLength": 2320,
            "byteOffset": 86132
        },
        {
            "buffer": 0,
            "byteLength": 2320,
            "byteOffset": 88452
        },
        {
            "buffer": 0,
            "byteLength": 2320,
            "byteOffset": 90772
        },
        {
            "buffer": 0,
            "byteLength": 2320,
            "byteOffset": 93092
        },
        {
            "buffer": 0,
            "byteLength": 2320,
            "byteOffset": 95412
        },
        {
            "buffer": 0,
            "byteLength": 2320,
            "byteOffset": 97732
        },
        {
            "buffer": 0,
            "byteLength": 2320,
            "byteOffset": 100052
        },
        {
            "buffer": 0,
            "byteLength": 2320,
            "byteOffset": 102372
        },
        {
            "buffer": 0,
            "byteLength": 1740,
            "byteOffset": 104692
        },
        {
            "buffer": 0,
            "byteLength": 1740,
            "byteOffset": 106432
        },
        {
            "buffer": 0,
            "byteLength": 2320,
            "byteOffset": 108172
        },
        {
            "buffer": 0,
            "byteLength": 1740,
            "byteOffset": 110492
        },
        {
            "buffer": 0,
            "byteLength": 1740,
            "byteOffset": 112232
        },
        {
            "buffer": 0,
            "byteLength": 2320,
            "byteOffset": 113972
        },
        {
            "buffer": 0,
            "byteLength": 2784,
            "byteOffset": 116292,
            "target": 34963
        },
        {
            "buffer": 0,
            "byteLength": 5472,
            "byteOffset": 119076,
            "target": 34962
        },
        {
            "buffer": 0,
            "byteLength": 5472,
            "byteOffset": 124548,
            "target": 34962
        },
        {
            "buffer": 0,
            "byteLength": 3648,
            "byteOffset": 130020,
            "target": 34962
        },
        {
            "buffer": 0,
            "byteLength": 3648,
            "byteOffset": 133668,
            "target": 34962
        },
        {
            "buffer": 0,
            "byteLength": 7296,
            "byteOffset": 137316,
            "target": 34962
        },
        {
            "buffer": 0,
            "byteLength": 4362,
            "byteOffset": 144612,
            "target": 34963
        },
        {
            "buffer": 0,
            "byteLength": 14472,
            "byteOffset": 148976,
            "target": 34962
        },
        {
            "buffer": 0,
            "byteLength": 14472,
            "byteOffset": 163448,
            "target": 34962
        },
        {
            "buffer": 0,
            "byteLength": 9648,
            "byteOffset": 177920,
            "target": 34962
        },
        {
            "buffer": 0,
            "byteLength": 2184,
            "byteOffset": 187568,
            "target": 34963
        },
        {
            "buffer": 0,
            "byteLength": 8736,
            "byteOffset": 189752,
            "target": 34962
        },
        {
            "buffer": 0,
            "byteLength": 8736,
            "byteOffset": 198488,
            "target": 34962
        },
        {
            "buffer": 0,
            "byteLength": 5824,
            "byteOffset": 207224,
            "target": 34962
        },
        {
            "buffer": 0,
            "byteLength": 3282,
            "byteOffset": 213048,
            "target": 34963
        },
        {
            "buffer": 0,
            "byteLength": 10836,
            "byteOffset": 216332,
            "target": 34962
        },
        {
            "buffer": 0,
            "byteLength": 10836,
            "byteOffset": 227168,
            "target": 34962
        },
        {
            "buffer": 0,
            "byteLength": 7224,
            "byteOffset": 238004,
            "target": 34962
        },
        {
            "buffer": 0,
            "byteLength": 1216,
            "byteOffset": 245228
        }
    ],
    "scenes": [
        {
            "name": "Root Scene",
            "nodes": [
                0
            ]
        }
    ],
    "accessors": [
        {
            "componentType": 5126,
            "type": "SCALAR",
            "count": 18,
            "bufferView": 0,
            "byteOffset": 0,
            "min": [
                0.0
            ],
            "max": [
                0.708333313465118
            ]
        },
        {
            "componentType": 5126,
            "type": "VEC3",
            "count": 18,
            "bufferView": 1,
            "byteOffset": 0
        },
        {
            "componentType": 5126,
            "type": "VEC4",
            "count": 18,
            "bufferView": 2,
            "byteOffset": 0
        },
        {
            "componentType": 5126,
            "type": "VEC4",
            "count": 18,
            "bufferView": 3,
            "byteOffset": 0
        },
        {
            "componentType": 5126,
            "type": "VEC4",
            "count": 18,
            "bufferView": 4,
            "byteOffset": 0
        },
        {
            "componentType": 5126,
            "type": "VEC4",
            "count": 18,
            "bufferView": 5,
            "byteOffset": 0
        },
        {
            "componentType": 5126,
            "type": "VEC4",
            "count": 18,
            "bufferView": 6,
            "byteOffset": 0
        },
        {
            "componentType": 5126,
            "type": "VEC4",
            "count": 18,
            "bufferView": 7,
            "byteOffset": 0
        },
        {
            "componentType": 5126,
            "type": "VEC4",
            "count": 18,
            "bufferView": 8,
            "byteOffset": 0
        },
        {
            "componentType": 5126,
            "type": "VEC4",
            "count": 18,
            "bufferView": 9,
            "byteOffset": 0
        },
        {
            "componentType": 5126,
            "type": "VEC4",
            "count": 18,
            "bufferView": 10,
            "byteOffset": 0
        },
        {
            "componentType": 5126,
            "type": "VEC4",
            "count": 18,
            "bufferView": 11,
            "byteOffset": 0
        },
        {
            "componentType": 5126,
            "type": "VEC4",
            "count": 18,
            "bufferView": 12,
            "byteOffset": 0
        },
        {
            "componentType": 5126,
            "type": "VEC4",
            "count": 18,
            "bufferView": 13,
            "byteOffset": 0
        },
        {
            "componentType": 5126,
            "type": "VEC4",
            "count": 18,
            "bufferView": 14,
            "byteOffset": 0
        },
        {
            "componentType": 5126,
            "type": "VEC3",
            "count": 18,
            "bufferView": 15,
            "byteOffset": 0
        },
        {
            "componentType": 5126,
            "type": "VEC3",
            "count": 18,
            "bufferView": 16,
            "byteOffset": 0
        },
        {
            "componentType": 5126,
            "type": "SCALAR",
            "count": 61,
            "bufferView": 17,
            "byteOffset": 0,
            "min": [
                0.0
            ],
            "max": [
                2.5
            ]
        },
        {
            "componentType": 5126,
            "type": "VEC3",
            "count": 61,
            "bufferView": 18,
            "byteOffset": 0
        },
        {
            "componentType": 5126,
            "type": "VEC4",
            "count": 61,
            "bufferView": 19,
            "byteOffset": 0
        },
        {
            "componentType": 5126,
            "type": "VEC4",
            "count": 61,
            "bufferView": 20,
            "byteOffset": 0
        },
        {
            "componentType": 5126,
            "type": "VEC4",
            "count": 61,
            "bufferView": 21,
            "byteOffset": 0
        },
        {
            "componentType": 5126,
            "type": "VEC4",
            "count": 61,
            "bufferView": 22,
            "byteOffset": 0
        },
        {
            "componentType": 5126,
            "type": "VEC4",
            "count": 61,
            "bufferView": 23,
            "byteOffset": 0
        },
        {
            "componentType": 5126,
            "type": "VEC4",
            "count": 61,
            "bufferView": 24,
            "byteOffset": 0
        },
        {
            "componentType": 5126,
            "type": "VEC4",
            "count": 61,
            "bufferView": 25,
            "byteOffset": 0
        },
        {
            "componentType": 5126,
            "type": "VEC4",
            "count": 61,
            "bufferView": 26,
            "byteOffset": 0
        },
        {
            "componentType": 5126,
            "type": "VEC4",
            "count": 61,
            "bufferView": 27,
            "byteOffset": 0
        },
        {
            "componentType": 5126,
            "type": "VEC4",
            "count": 61,
            "bufferView": 28,
            "byteOffset": 0
        },
        {
            "componentType": 5126,
            "type": "VEC4",
            "count": 61,
            "bufferView": 29,
            "byteOffset": 0
        },
        {
            "componentType": 5126,
            "type": "SCALAR",
            "count": 13,
            "bufferView": 30,
            "byteOffset": 0,
            "min": [
                0.0
            ],
            "max": [
                0.5
            ]
        },
        {
            "componentType": 5126,
            "type": "VEC3",
            "count": 13,
            "bufferView": 31,
            "byteOffset": 0
        },
        {
            "componentType": 5126,
            "type": "VEC4",
            "count": 13,
            "bufferView": 32,
            "byteOffset": 0
        },
        {
            "componentType": 5126,
            "type": "VEC4",
            "count": 13,
            "bufferView": 33,
            "byteOffset": 0
        },
        {
            "componentType": 5126,
            "type": "VEC4",
            "count": 13,
            "bufferView": 34,
            "byteOffset": 0
        },
        {
            "componentType": 5126,
            "type": "VEC4",
            "count": 13,
            "bufferView": 35,
            "byteOffset": 0
        },
        {
            "componentType": 5126,
            "type": "VEC4",
            "count": 13,
            "bufferView": 36,
            "byteOffset": 0
        },
        {
            "componentType": 5126,
            "type": "VEC4",
            "count": 13,
            "bufferView": 37,
            "byteOffset": 0
        },
        {
            "componentType": 5126,
            "type": "VEC4",
            "count": 13,
            "bufferView": 38,
            "byteOffset": 0
        },
        {
            "componentType": 5126,
            "type": "VEC4",
            "count": 13,
            "bufferView": 39,
            "byteOffset": 0
        },
        {
            "componentType": 5126,
            "type": "VEC4",
            "count": 13,
            "bufferView": 40,
            "byteOffset": 0
        },
        {
            "componentType": 5126,
            "type": "VEC4",
            "count": 13,
            "bufferView": 41,
            "byteOffset": 0
        },
        {
            "componentType": 5126,
            "type": "VEC3",
            "count": 13,
            "bufferView": 42,
            "byteOffset": 0
        },
        {
            "componentType": 5126,
            "type": "VEC4",
            "count": 13,
            "bufferView": 43,
            "byteOffset": 0
        },
        {
            "componentType": 5126,
            "type": "VEC3",
            "count": 13,
            "bufferView": 44,
            "byteOffset": 0
        },
        {
            "componentType": 5126,
            "type": "VEC4",
            "count": 13,
            "bufferView": 45,
            "byteOffset": 0
        },
        {
            "componentType": 5126,
            "type": "SCALAR",
            "count": 85,
            "bufferView": 46,
            "byteOffset": 0,
            "min": [
                0.0
            ],
            "max": [
                3.5
            ]
        },
        {
            "componentType": 5126,
            "type": "VEC3",
            "count": 85,
            "bufferView": 47,
            "byteOffset": 0
        },
        {
            "componentType": 5126,
            "type": "VEC4",
            "count": 85,
            "bufferView": 48,
            "byteOffset": 0
        },
        {
            "componentType": 5126,
            "type": "VEC4",
            "count": 85,
            "bufferView": 49,
            "byteOffset": 0
        },
        {
            "componentType": 5126,
            "type": "VEC4",
            "count": 85,
            "bufferView": 50,
            "byteOffset": 0
        },
        {
            "componentType": 5126,
            "type": "VEC4",
            "count": 85,
            "bufferView": 51,
            "byteOffset": 0
        },
        {
            "componentType": 5126,
            "type": "VEC4",
            "count": 85,
            "bufferView": 52,
            "byteOffset": 0
        },
        {
            "componentType": 5126,
            "type": "VEC4",
            "count": 85,
            "bufferView": 53,
            "byteOffset": 0
        },
        {
            "componentType": 5126,
            "type": "VEC4",
            "count": 85,
            "bufferView": 54,
            "byteOffset": 0
        },
        {
            "componentType": 5126,
            "type": "VEC4",
            "count": 85,
            "bufferView": 55,
            "byteOffset": 0
        },
        {
            "componentType": 5126,
            "type": "VEC4",
            "count": 85,
            "bufferView": 56,
            "byteOffset": 0
        },
        {
            "componentType": 5126,
            "type": "VEC4",
            "count": 85,
            "bufferView": 57,
            "byteOffset": 0
        },
        {
            "componentType": 5126,
            "type": "VEC4",
            "count": 85,
            "bufferView": 58,
            "byteOffset": 0
        },
        {
            "componentType": 5126,
            "type": "VEC4",
            "count": 85,
            "bufferView": 59,
            "byteOffset": 0
        },
        {
            "componentType": 5126,
            "type": "VEC3",
            "count": 85,
            "bufferView": 60,
            "byteOffset": 0
        },
        {
            "componentType": 5126,
            "type": "SCALAR",
            "count": 165,
            "bufferView": 61,
            "byteOffset": 0,
            "min": [
                0.0
            ],
            "max": [
                6.83333349227905
            ]
        },
        {
            "componentType": 5126,
            "type": "VEC3",
            "count": 165,
            "bufferView": 62,
            "byteOffset": 0
        },
        {
            "componentType": 5126,
            "type": "VEC4",
            "count": 165,
            "bufferView": 63,
            "byteOffset": 0
        },
        {
            "componentType": 5126,
            "type": "VEC4",
            "count": 165,
            "bufferView": 64,
            "byteOffset": 0
        },
        {
            "componentType": 5126,
            "type": "VEC4",
            "count": 165,
            "bufferView": 65,
            "byteOffset": 0
        },
        {
            "componentType": 5126,
            "type": "VEC4",
            "count": 165,
            "bufferView": 66,
            "byteOffset": 0
        },
        {
            "componentType": 5126,
            "type": "VEC4",
            "count": 165,
            "bufferView": 67,
            "byteOffset": 0
        },
        {
            "componentType": 5126,
            "type": "VEC4",
            "count": 165,
            "bufferView": 68,
            "byteOffset": 0
        },
        {
            "componentType": 5126,
            "type": "VEC4",
            "count": 165,
            "bufferView": 69,
            "byteOffset": 0
        },
        {
            "componentType": 5126,
            "type": "VEC4",
            "count": 165,
            "bufferView": 70,
            "byteOffset": 0
        },
        {
            "componentType": 5126,
            "type": "VEC4",
            "count": 165,
            "bufferView": 71,
            "byteOffset": 0
        },
        {
            "componentType": 5126,
            "type": "VEC4",
            "count": 165,
            "bufferView": 72,
            "byteOffset": 0
        },
        {
            "componentType": 5126,
            "type": "VEC4",
            "count": 165,
            "bufferView": 73,
            "byteOffset": 0
        },
        {
            "componentType": 5126,
            "type": "VEC4",
            "count": 165,
            "bufferView": 74,
            "byteOffset": 0
        },
        {
            "componentType": 5126,
            "type": "SCALAR",
            "count": 145,
            "bufferView": 75,
            "byteOffset": 0,
            "min": [
                0.0
            ],
            "max": [
                6.0
            ]
        },
        {
            "componentType": 5126,
            "type": "VEC3",
            "count": 145,
            "bufferView": 76,
            "byteOffset": 0
        },
        {
            "componentType": 5126,
            "type": "VEC4",
            "count": 145,
            "bufferView": 77,
            "byteOffset": 0
        },
        {
            "componentType": 5126,
            "type": "VEC4",
            "count": 145,
            "bufferView": 78,
            "byteOffset": 0
        },
        {
            "componentType": 5126,
            "type": "VEC4",
            "count": 145,
            "bufferView": 79,
            "byteOffset": 0
        },
        {
            "componentType": 5126,
            "type": "VEC4",
            "count": 145,
            "bufferView": 80,
            "byteOffset": 0
        },
        {
            "componentType": 5126,
            "type": "VEC4",
            "count": 145,
            "bufferView": 81,
            "byteOffset": 0
        },
        {
            "componentType": 5126,
            "type": "VEC4",
            "count": 145,
            "bufferView": 82,
            "byteOffset": 0
        },
        {
            "componentType": 5126,
            "type": "VEC4",
            "count": 145,
            "bufferView": 83,
            "byteOffset": 0
        },
        {
            "componentType": 5126,
            "type": "VEC4",
            "count": 145,
            "bufferView": 84,
            "byteOffset": 0
        },
        {
            "componentType": 5126,
            "type": "VEC4",
            "count": 145,
            "bufferView": 85,
            "byteOffset": 0
        },
        {
            "componentType": 5126,
            "type": "VEC4",
            "count": 145,
            "bufferView": 86,
            "byteOffset": 0
        },
        {
            "componentType": 5126,
            "type": "VEC4",
            "count": 145,
            "bufferView": 87,
            "byteOffset": 0
        },
        {
            "componentType": 5126,
            "type": "VEC4",
            "count": 145,
            "bufferView": 88,
            "byteOffset": 0
        },
        {
            "componentType": 5126,
            "type": "VEC4",
            "count": 145,
            "bufferView": 89,
            "byteOffset": 0
        },
        {
            "componentType": 5126,
            "type": "VEC3",
            "count": 145,
            "bufferView": 90,
            "byteOffset": 0
        },
        {
            "componentType": 5126,
            "type": "VEC3",
            "count": 145,
            "bufferView": 91,
            "byteOffset": 0
        },
        {
            "componentType": 5126,
            "type": "VEC4",
            "count": 145,
            "bufferView": 92,
            "byteOffset": 0
        },
        {
            "componentType": 5126,
            "type": "VEC3",
            "count": 145,
            "bufferView": 93,
            "byteOffset": 0
        },
        {
            "componentType": 5126,
            "type": "VEC3",
            "count": 145,
            "bufferView": 94,
            "byteOffset": 0
        },
        {
            "componentType": 5126,
            "type": "VEC4",
            "count": 145,
            "bufferView": 95,
            "byteOffset": 0
        },
        {
            "componentType": 5123,
            "type": "SCALAR",
            "count": 1392,
            "bufferView": 96,
            "byteOffset": 0
        },
        {
            "componentType": 5126,
            "type": "VEC3",
            "count": 456,
            "bufferView": 97,
            "byteOffset": 0,
            "min": [
                -0.00550647359341383,
                2.53772723226575e-05,
                -0.0026864807587117
            ],
            "max": [
                0.00550647359341383,
                0.021637424826622,
                0.00268648122437298
            ]
        },
        {
            "componentType": 5126,
            "type": "VEC3",
            "count": 456,
            "bufferView": 98,
            "byteOffset": 0
        },
        {
            "componentType": 5126,
            "type": "VEC2",
            "count": 456,
            "bufferView": 99,
            "byteOffset": 0
        },
        {
            "componentType": 5123,
            "type": "VEC4",
            "count": 456,
            "bufferView": 100,
            "byteOffset": 0
        },
        {
            "componentType": 5126,
            "type": "VEC4",
            "count": 456,
            "bufferView": 101,
            "byteOffset": 0
        },
        {
            "componentType": 5123,
            "type": "SCALAR",
            "count": 2181,
            "bufferView": 102,
            "byteOffset": 0
        },
        {
            "componentType": 5126,
            "type": "VEC3",
            "count": 1206,
            "bufferView": 103,
            "byteOffset": 0,
            "min": [
                0.00363423186354339,
                0.00569214997813106,
                -0.00224678916856647
            ],
            "max": [
                0.00955728534609079,
                0.0128578953444958,
                0.00153137801680714
            ]
        },
        {
            "componentType": 5126,
            "type": "VEC3",
            "count": 1206,
            "bufferView": 104,
            "byteOffset": 0
        },
        {
            "componentType": 5126,
            "type": "VEC2",
            "count": 1206,
            "bufferView": 105,
            "byteOffset": 0
        },
        {
            "componentType": 5123,
            "type": "SCALAR",
            "count": 1092,
            "bufferView": 106,
            "byteOffset": 0
        },
        {
            "componentType": 5126,
            "type": "VEC3",
            "count": 728,
            "bufferView": 107,
            "byteOffset": 0,
            "min": [
                0.00330420187674463,
                0.00472656963393092,
                -0.00155675085261464
            ],
            "max": [
                0.0107458019629121,
                0.0131771033629775,
                0.00417265435680747
            ]
        },
        {
            "componentType": 5126,
            "type": "VEC3",
            "count": 728,
            "bufferView": 108,
            "byteOffset": 0
        },
        {
            "componentType": 5126,
            "type": "VEC2",
            "count": 728,
            "bufferView": 109,
            "byteOffset": 0
        },
        {
            "componentType": 5123,
            "type": "SCALAR",
            "count": 1641,
            "bufferView": 110,
            "byteOffset": 0
        },
        {
            "componentType": 5126,
            "type": "VEC3",
            "count": 903,
            "bufferView": 111,
            "byteOffset": 0,
            "min": [
                0.00306118209846318,
                0.00366680114530027,
                -0.00380243477411568
            ],
            "max": [
                0.0110247517004609,
                0.0134850665926933,
                0.00319473934359848
            ]
        },
        {
            "componentType": 5126,
            "type": "VEC3",
            "count": 903,
            "bufferView": 112,
            "byteOffset": 0
        },
        {
            "componentType": 5126,
            "type": "VEC2",
            "count": 903,
            "bufferView": 113,
            "byteOffset": 0
        },
        {
            "componentType": 5126,
            "type": "MAT4",
            "count": 19,
            "bufferView": 114,
            "byteOffset": 0
        }
    ],
    "images": [
        {
            "name": "base_color_texture",
            "uri": "data:image/png;base64,iVBORw0KGgoAAAANSUhEUgAAAAEAAAABCAYAAAAfFcSJAAAADUlEQVR42mP8/5+hHgAHggJ/PchI7wAAAABJRU5ErkJggg=="
        }
    ],
    "samplers": [
        {}
    ],
    "textures": [
        {
            "name": "base_color_texture",
            "sampler": 0,
            "source": 0
        }
    ],
    "materials": [
        {
            "name": "02 - Default",
            "alphaMode": "OPAQUE",
            "extras": {
                "fromFBX": {
                    "shadingModel": "Phong",
                    "isTruePBR": false
                }
            },
            "pbrMetallicRoughness": {
                "baseColorTexture": {
                    "index": 0,
                    "texCoord": 0
                },
                "baseColorFactor": [
                    1.0,
                    1.0,
                    1.0,
                    1.0
                ],
                "metallicFactor": 0.400000005960464,
                "roughnessFactor": 0.707106709480286
            }
        },
        {
            "name": "texture_minecraft2_1Material1.006",
            "alphaMode": "OPAQUE",
            "extras": {
                "fromFBX": {
                    "shadingModel": "Phong",
                    "isTruePBR": false
                }
            },
            "pbrMetallicRoughness": {
                "baseColorTexture": {
                    "index": 0,
                    "texCoord": 0
                },
                "baseColorFactor": [
                    1.0,
                    1.0,
                    1.0,
                    1.0
                ],
                "metallicFactor": 0.400000005960464,
                "roughnessFactor": 0.301511347293854
            }
        },
        {
            "name": "texture_minecraft2_1Material1.007",
            "alphaMode": "OPAQUE",
            "extras": {
                "fromFBX": {
                    "shadingModel": "Phong",
                    "isTruePBR": false
                }
            },
            "pbrMetallicRoughness": {
                "baseColorTexture": {
                    "index": 0,
                    "texCoord": 0
                },
                "baseColorFactor": [
                    1.0,
                    1.0,
                    1.0,
                    1.0
                ],
                "metallicFactor": 0.400000005960464,
                "roughnessFactor": 0.301511347293854
            }
        },
        {
            "name": "texture_minecraft2_1Material1.008",
            "alphaMode": "OPAQUE",
            "extras": {
                "fromFBX": {
                    "shadingModel": "Phong",
                    "isTruePBR": false
                }
            },
            "pbrMetallicRoughness": {
                "baseColorTexture": {
                    "index": 0,
                    "texCoord": 0
                },
                "baseColorFactor": [
                    1.0,
                    1.0,
                    1.0,
                    1.0
                ],
                "metallicFactor": 0.400000005960464,
                "roughnessFactor": 0.301511347293854
            }
        }
    ],
    "meshes": [
        {
            "name": "Steve",
            "primitives": [
                {
                    "material": 0,
                    "mode": 4,
                    "attributes": {
                        "JOINTS_0": 100,
                        "NORMAL": 98,
                        "POSITION": 97,
                        "TEXCOORD_0": 99,
                        "WEIGHTS_0": 101
                    },
                    "indices": 96
                }
            ]
        },
        {
            "name": "knife",
            "primitives": [
                {
                    "material": 1,
                    "mode": 4,
                    "attributes": {
                        "NORMAL": 104,
                        "POSITION": 103,
                        "TEXCOORD_0": 105
                    },
                    "indices": 102
                }
            ]
        },
        {
            "name": "luoi_liem",
            "primitives": [
                {
                    "material": 2,
                    "mode": 4,
                    "attributes": {
                        "NORMAL": 108,
                        "POSITION": 107,
                        "TEXCOORD_0": 109
                    },
                    "indices": 106
                }
            ]
        },
        {
            "name": "kiem_ngan",
            "primitives": [
                {
                    "material": 3,
                    "mode": 4,
                    "attributes": {
                        "NORMAL": 112,
                        "POSITION": 111,
                        "TEXCOORD_0": 113
                    },
                    "indices": 110
                }
            ]
        }
    ],
    "skins": [
        {
            "joints": [
                3,
                4,
                5,
                6,
                7,
                8,
                9,
                10,
                11,
                12,
                13,
                14,
                15,
                16,
                17,
                21,
                22,
                23,
                24
            ],
            "inverseBindMatrices": 114,
            "skeleton": 3
        }
    ],
    "animations": [
        {
            "name": "character_bones|assassin_attack",
            "channels": [
                {
                    "sampler": 0,
                    "target": {
                        "node": 3,
                        "path": "translation"
                    }
                },
                {
                    "sampler": 1,
                    "target": {
                        "node": 3,
                        "path": "rotation"
                    }
                },
                {
                    "sampler": 2,
                    "target": {
                        "node": 4,
                        "path": "rotation"
                    }
                },
                {
                    "sampler": 3,
                    "target": {
                        "node": 5,
                        "path": "rotation"
                    }
                },
                {
                    "sampler": 4,
                    "target": {
                        "node": 6,
                        "path": "rotation"
                    }
                },
                {
                    "sampler": 5,
                    "target": {
                        "node": 7,
                        "path": "rotation"
                    }
                },
                {
                    "sampler": 6,
                    "target": {
                        "node": 8,
                        "path": "rotation"
                    }
                },
                {
                    "sampler": 7,
                    "target": {
                        "node": 9,
                        "path": "rotation"
                    }
                },
                {
                    "sampler": 8,
                    "target": {
                        "node": 10,
                        "path": "rotation"
                    }
                },
                {
                    "sampler": 9,
                    "target": {
                        "node": 11,
                        "path": "rotation"
                    }
                },
                {
                    "sampler": 10,
                    "target": {
                        "node": 12,
                        "path": "rotation"
                    }
                },
                {
                    "sampler": 11,
                    "target": {
                        "node": 15,
                        "path": "rotation"
                    }
                },
                {
                    "sampler": 12,
                    "target": {
                        "node": 16,
                        "path": "rotation"
                    }
                },
                {
                    "sampler": 13,
                    "target": {
                        "node": 22,
                        "path": "rotation"
                    }
                },
                {
                    "sampler": 14,
                    "target": {
                        "node": 23,
                        "path": "translation"
                    }
                },
                {
                    "sampler": 15,
                    "target": {
                        "node": 24,
                        "path": "translation"
                    }
                }
            ],
            "samplers": [
                {
                    "input": 0,
                    "interpolation": "LINEAR",
                    "output": 1
                },
                {
                    "input": 0,
                    "interpolation": "LINEAR",
                    "output": 2
                },
                {
                    "input": 0,
                    "interpolation": "LINEAR",
                    "output": 3
                },
                {
                    "input": 0,
                    "interpolation": "LINEAR",
                    "output": 4
                },
                {
                    "input": 0,
                    "interpolation": "LINEAR",
                    "output": 5
                },
                {
                    "input": 0,
                    "interpolation": "LINEAR",
                    "output": 6
                },
                {
                    "input": 0,
                    "interpolation": "LINEAR",
                    "output": 7
                },
                {
                    "input": 0,
                    "interpolation": "LINEAR",
                    "output": 8
                },
                {
                    "input": 0,
                    "interpolation": "LINEAR",
                    "output": 9
                },
                {
                    "input": 0,
                    "interpolation": "LINEAR",
                    "output": 10
                },
                {
                    "input": 0,
                    "interpolation": "LINEAR",
                    "output": 11
                },
                {
                    "input": 0,
                    "interpolation": "LINEAR",
                    "output": 12
                },
                {
                    "input": 0,
                    "interpolation": "LINEAR",
                    "output": 13
                },
                {
                    "input": 0,
                    "interpolation": "LINEAR",
                    "output": 14
                },
                {
                    "input": 0,
                    "interpolation": "LINEAR",
                    "output": 15
                },
                {
                    "input": 0,
                    "interpolation": "LINEAR",
                    "output": 16
                }
            ]
        },
        {
            "name": "character_bones|assassin_idle",
            "channels": [
                {
                    "sampler": 0,
                    "target": {
                        "node": 3,
                        "path": "translation"
                    }
                },
                {
                    "sampler": 1,
                    "target": {
                        "node": 3,
                        "path": "rotation"
                    }
                },
                {
                    "sampler": 2,
                    "target": {
                        "node": 4,
                        "path": "rotation"
                    }
                },
                {
                    "sampler": 3,
                    "target": {
                        "node": 5,
                        "path": "rotation"
                    }
                },
                {
                    "sampler": 4,
                    "target": {
                        "node": 6,
                        "path": "rotation"
                    }
                },
                {
                    "sampler": 5,
                    "target": {
                        "node": 7,
                        "path": "rotation"
                    }
                },
                {
                    "sampler": 6,
                    "target": {
                        "node": 8,
                        "path": "rotation"
                    }
                },
                {
                    "sampler": 7,
                    "target": {
                        "node": 9,
                        "path": "rotation"
                    }
                },
                {
                    "sampler": 8,
                    "target": {
                        "node": 10,
                        "path": "rotation"
                    }
                },
                {
                    "sampler": 9,
                    "target": {
                        "node": 11,
                        "path": "rotation"
                    }
                },
                {
                    "sampler": 10,
                    "target": {
                        "node": 12,
                        "path": "rotation"
                    }
                },
                {
                    "sampler": 11,
                    "target": {
                        "node": 16,
                        "path": "rotation"
                    }
                }
            ],
            "samplers": [
                {
                    "input": 17,
                    "interpolation": "LINEAR",
                    "output": 18
                },
                {
                    "input": 17,
                    "interpolation": "LINEAR",
                    "output": 19
                },
                {
                    "input": 17,
                    "interpolation": "LINEAR",
                    "output": 20
                },
                {
                    "input": 17,
                    "interpolation": "LINEAR",
                    "output": 21
                },
                {
                    "input": 17,
                    "interpolation": "LINEAR",
                    "output": 22
                },
                {
                    "input": 17,
                    "interpolation": "LINEAR",
                    "output": 23
                },
                {
                    "input": 17,
                    "interpolation": "LINEAR",
                    "output": 24
                },
                {
                    "input": 17,
                    "interpolation": "LINEAR",
                    "output": 25
                },
                {
                    "input": 17,
                    "interpolation": "LINEAR",
                    "output": 26
                },
                {
                    "input": 17,
                    "interpolation": "LINEAR",
                    "output": 27
                },
                {
                    "input": 17,
                    "interpolation": "LINEAR",
                    "output": 28
                },
                {
                    "input": 17,
                    "interpolation": "LINEAR",
                    "output": 29
                }
            ]
        },
        {
            "name": "character_bones|assassin_run",
            "channels": [
                {
                    "sampler": 0,
                    "target": {
                        "node": 3,
                        "path": "translation"
                    }
                },
                {
                    "sampler": 1,
                    "target": {
                        "node": 3,
                        "path": "rotation"
                    }
                },
                {
                    "sampler": 2,
                    "target": {
                        "node": 4,
                        "path": "rotation"
                    }
                },
                {
                    "sampler": 3,
                    "target": {
                        "node": 5,
                        "path": "rotation"
                    }
                },
                {
                    "sampler": 4,
                    "target": {
                        "node": 6,
                        "path": "rotation"
                    }
                },
                {
                    "sampler": 5,
                    "target": {
                        "node": 7,
                        "path": "rotation"
                    }
                },
                {
                    "sampler": 6,
                    "target": {
                        "node": 8,
                        "path": "rotation"
                    }
                },
                {
                    "sampler": 7,
                    "target": {
                        "node": 9,
                        "path": "rotation"
                    }
                },
                {
                    "sampler": 8,
                    "target": {
                        "node": 11,
                        "path": "rotation"
                    }
                },
                {
                    "sampler": 9,
                    "target": {
                        "node": 12,
                        "path": "rotation"
                    }
                },
                {
                    "sampler": 10,
                    "target": {
                        "node": 15,
                        "path": "rotation"
                    }
                },
                {
                    "sampler": 11,
                    "target": {
                        "node": 22,
                        "path": "translation"
                    }
                },
                {
                    "sampler": 12,
                    "target": {
                        "node": 22,
                        "path": "rotation"
                    }
                },
                {
                    "sampler": 13,
                    "target": {
                        "node": 24,
                        "path": "translation"
                    }
                },
                {
                    "sampler": 14,
                    "target": {
                        "node": 24,
                        "path": "rotation"
                    }
                }
            ],
            "samplers": [
                {
                    "input": 30,
                    "interpolation": "LINEAR",
                    "output": 31
                },
                {
                    "input": 30,
                    "interpolation": "LINEAR",
                    "output": 32
                },
                {
                    "input": 30,
                    "interpolation": "LINEAR",
                    "output": 33
                },
                {
                    "input": 30,
                    "interpolation": "LINEAR",
                    "output": 34
                },
                {
                    "input": 30,
                    "interpolation": "LINEAR",
                    "output": 35
                },
                {
                    "input": 30,
                    "interpolation": "LINEAR",
                    "output": 36
                },
                {
                    "input": 30,
                    "interpolation": "LINEAR",
                    "output": 37
                },
                {
                    "input": 30,
                    "interpolation": "LINEAR",
                    "output": 38
                },
                {
                    "input": 30,
                    "interpolation": "LINEAR",
                    "output": 39
                },
                {
                    "input": 30,
                    "interpolation": "LINEAR",
                    "output": 40
                },
                {
                    "input": 30,
                    "interpolation": "LINEAR",
                    "output": 41
                },
                {
                    "input": 30,
                    "interpolation": "LINEAR",
                    "output": 42
                },
                {
                    "input": 30,
                    "interpolation": "LINEAR",
                    "output": 43
                },
                {
                    "input": 30,
                    "interpolation": "LINEAR",
                    "output": 44
                },
                {
                    "input": 30,
                    "interpolation": "LINEAR",
                    "output": 45
                }
            ]
        },
        {
            "name": "character_bones|assassin_win_1",
            "channels": [
                {
                    "sampler": 0,
                    "target": {
                        "node": 3,
                        "path": "translation"
                    }
                },
                {
                    "sampler": 1,
                    "target": {
                        "node": 3,
                        "path": "rotation"
                    }
                },
                {
                    "sampler": 2,
                    "target": {
                        "node": 4,
                        "path": "rotation"
                    }
                },
                {
                    "sampler": 3,
                    "target": {
                        "node": 5,
                        "path": "rotation"
                    }
                },
                {
                    "sampler": 4,
                    "target": {
                        "node": 6,
                        "path": "rotation"
                    }
                },
                {
                    "sampler": 5,
                    "target": {
                        "node": 7,
                        "path": "rotation"
                    }
                },
                {
                    "sampler": 6,
                    "target": {
                        "node": 8,
                        "path": "rotation"
                    }
                },
                {
                    "sampler": 7,
                    "target": {
                        "node": 9,
                        "path": "rotation"
                    }
                },
                {
                    "sampler": 8,
                    "target": {
                        "node": 11,
                        "path": "rotation"
                    }
                },
                {
                    "sampler": 9,
                    "target": {
                        "node": 12,
                        "path": "rotation"
                    }
                },
                {
                    "sampler": 10,
                    "target": {
                        "node": 13,
                        "path": "rotation"
                    }
                },
                {
                    "sampler": 11,
                    "target": {
                        "node": 15,
                        "path": "rotation"
                    }
                },
                {
                    "sampler": 12,
                    "target": {
                        "node": 16,
                        "path": "rotation"
                    }
                },
                {
                    "sampler": 13,
                    "target": {
                        "node": 22,
                        "path": "translation"
                    }
                }
            ],
            "samplers": [
                {
                    "input": 46,
                    "interpolation": "LINEAR",
                    "output": 47
                },
                {
                    "input": 46,
                    "interpolation": "LINEAR",
                    "output": 48
                },
                {
                    "input": 46,
                    "interpolation": "LINEAR",
                    "output": 49
                },
                {
                    "input": 46,
                    "interpolation": "LINEAR",
                    "output": 50
                },
                {
                    "input": 46,
                    "interpolation": "LINEAR",
                    "output": 51
                },
                {
                    "input": 46,
                    "interpolation": "LINEAR",
                    "output": 52
                },
                {
                    "input": 46,
                    "interpolation": "LINEAR",
                    "output": 53
                },
                {
                    "input": 46,
                    "interpolation": "LINEAR",
                    "output": 54
                },
                {
                    "input": 46,
                    "interpolation": "LINEAR",
                    "output": 55
                },
                {
                    "input": 46,
                    "interpolation": "LINEAR",
                    "output": 56
                },
                {
                    "input": 46,
                    "interpolation": "LINEAR",
                    "output": 57
                },
                {
                    "input": 46,
                    "interpolation": "LINEAR",
                    "output": 58
                },
                {
                    "input": 46,
                    "interpolation": "LINEAR",
                    "output": 59
                },
                {
                    "input": 46,
                    "interpolation": "LINEAR",
                    "output": 60
                }
            ]
        },
        {
            "name": "character_bones|assassin_win_2",
            "channels": [
                {
                    "sampler": 0,
                    "target": {
                        "node": 3,
                        "path": "translation"
                    }
                },
                {
                    "sampler": 1,
                    "target": {
                        "node": 3,
                        "path": "rotation"
                    }
                },
                {
                    "sampler": 2,
                    "target": {
                        "node": 4,
                        "path": "rotation"
                    }
                },
                {
                    "sampler": 3,
                    "target": {
                        "node": 5,
                        "path": "rotation"
                    }
                },
                {
                    "sampler": 4,
                    "target": {
                        "node": 6,
                        "path": "rotation"
                    }
                },
                {
                    "sampler": 5,
                    "target": {
                        "node": 7,
                        "path": "rotation"
                    }
                },
                {
                    "sampler": 6,
                    "target": {
                        "node": 8,
                        "path": "rotation"
                    }
                },
                {
                    "sampler": 7,
                    "target": {
                        "node": 9,
                        "path": "rotation"
                    }
                },
                {
                    "sampler": 8,
                    "target": {
                        "node": 11,
                        "path": "rotation"
                    }
                },
                {
                    "sampler": 9,
                    "target": {
                        "node": 12,
                        "path": "rotation"
                    }
                },
                {
                    "sampler": 10,
                    "target": {
                        "node": 13,
                        "path": "rotation"
                    }
                },
                {
                    "sampler": 11,
                    "target": {
                        "node": 15,
                        "path": "rotation"
                    }
                },
                {
                    "sampler": 12,
                    "target": {
                        "node": 16,
                        "path": "rotation"
                    }
                }
            ],
            "samplers": [
                {
                    "input": 61,
                    "interpolation": "LINEAR",
                    "output": 62
                },
                {
                    "input": 61,
                    "interpolation": "LINEAR",
                    "output": 63
                },
                {
                    "input": 61,
                    "interpolation": "LINEAR",
                    "output": 64
                },
                {
                    "input": 61,
                    "interpolation": "LINEAR",
                    "output": 65
                },
                {
                    "input": 61,
                    "interpolation": "LINEAR",
                    "output": 66
                },
                {
                    "input": 61,
                    "interpolation": "LINEAR",
                    "output": 67
                },
                {
                    "input": 61,
                    "interpolation": "LINEAR",
                    "output": 68
                },
                {
                    "input": 61,
                    "interpolation": "LINEAR",
                    "output": 69
                },
                {
                    "input": 61,
                    "interpolation": "LINEAR",
                    "output": 70
                },
                {
                    "input": 61,
                    "interpolation": "LINEAR",
                    "output": 71
                },
                {
                    "input": 61,
                    "interpolation": "LINEAR",
                    "output": 72
                },
                {
                    "input": 61,
                    "interpolation": "LINEAR",
                    "output": 73
                },
                {
                    "input": 61,
                    "interpolation": "LINEAR",
                    "output": 74
                }
            ]
        },
        {
            "name": "character_bones|assassin_win_3",
            "channels": [
                {
                    "sampler": 0,
                    "target": {
                        "node": 3,
                        "path": "translation"
                    }
                },
                {
                    "sampler": 1,
                    "target": {
                        "node": 3,
                        "path": "rotation"
                    }
                },
                {
                    "sampler": 2,
                    "target": {
                        "node": 4,
                        "path": "rotation"
                    }
                },
                {
                    "sampler": 3,
                    "target": {
                        "node": 5,
                        "path": "rotation"
                    }
                },
                {
                    "sampler": 4,
                    "target": {
                        "node": 6,
                        "path": "rotation"
                    }
                },
                {
                    "sampler": 5,
                    "target": {
                        "node": 7,
                        "path": "rotation"
                    }
                },
                {
                    "sampler": 6,
                    "target": {
                        "node": 8,
                        "path": "rotation"
                    }
                },
                {
                    "sampler": 7,
                    "target": {
                        "node": 9,
                        "path": "rotation"
                    }
                },
                {
                    "sampler": 8,
                    "target": {
                        "node": 10,
                        "path": "rotation"
                    }
                },
                {
                    "sampler": 9,
                    "target": {
                        "node": 11,
                        "path": "rotation"
                    }
                },
                {
                    "sampler": 10,
                    "target": {
                        "node": 12,
                        "path": "rotation"
                    }
                },
                {
                    "sampler": 11,
                    "target": {
                        "node": 13,
                        "path": "rotation"
                    }
                },
                {
                    "sampler": 12,
                    "target": {
                        "node": 15,
                        "path": "rotation"
                    }
                },
                {
                    "sampler": 13,
                    "target": {
                        "node": 16,
                        "path": "rotation"
                    }
                },
                {
                    "sampler": 14,
                    "target": {
                        "node": 21,
                        "path": "translation"
                    }
                },
                {
                    "sampler": 15,
                    "target": {
                        "node": 22,
                        "path": "translation"
                    }
                },
                {
                    "sampler": 16,
                    "target": {
                        "node": 22,
                        "path": "rotation"
                    }
                },
                {
                    "sampler": 17,
                    "target": {
                        "node": 23,
                        "path": "translation"
                    }
                },
                {
                    "sampler": 18,
                    "target": {
                        "node": 24,
                        "path": "translation"
                    }
                },
                {
                    "sampler": 19,
                    "target": {
                        "node": 24,
                        "path": "rotation"
                    }
                }
            ],
            "samplers": [
                {
                    "input": 75,
                    "interpolation": "LINEAR",
                    "output": 76
                },
                {
                    "input": 75,
                    "interpolation": "LINEAR",
                    "output": 77
                },
                {
                    "input": 75,
                    "interpolation": "LINEAR",
                    "output": 78
                },
                {
                    "input": 75,
                    "interpolation": "LINEAR",
                    "output": 79
                },
                {
                    "input": 75,
                    "interpolation": "LINEAR",
                    "output": 80
                },
                {
                    "input": 75,
                    "interpolation": "LINEAR",
                    "output": 81
                },
                {
                    "input": 75,
                    "interpolation": "LINEAR",
                    "output": 82
                },
                {
                    "input": 75,
                    "interpolation": "LINEAR",
                    "output": 83
                },
                {
                    "input": 75,
                    "interpolation": "LINEAR",
                    "output": 84
                },
                {
                    "input": 75,
                    "interpolation": "LINEAR",
                    "output": 85
                },
                {
                    "input": 75,
                    "interpolation": "LINEAR",
                    "output": 86
                },
                {
                    "input": 75,
                    "interpolation": "LINEAR",
                    "output": 87
                },
                {
                    "input": 75,
                    "interpolation": "LINEAR",
                    "output": 88
                },
                {
                    "input": 75,
                    "interpolation": "LINEAR",
                    "output": 89
                },
                {
                    "input": 75,
                    "interpolation": "LINEAR",
                    "output": 90
                },
                {
                    "input": 75,
                    "interpolation": "LINEAR",
                    "output": 91
                },
                {
                    "input": 75,
                    "interpolation": "LINEAR",
                    "output": 92
                },
                {
                    "input": 75,
                    "interpolation": "LINEAR",
                    "output": 93
                },
                {
                    "input": 75,
                    "interpolation": "LINEAR",
                    "output": 94
                },
                {
                    "input": 75,
                    "interpolation": "LINEAR",
                    "output": 95
                }
            ]
        }
    ],
    "nodes": [
        {
            "name": "RootNode",
            "translation": [
                0.0,
                0.0,
                0.0
            ],
            "rotation": [
                0.0,
                0.0,
                0.0,
                1.0
            ],
            "scale": [
                1.0,
                1.0,
                1.0
            ],
            "children": [
                1,
                2
            ]
        },
        {
            "name": "Steve",
            "translation": [
                0.0,
                0.0,
                0.0
            ],
            "rotation": [
                6.12323426292584e-17,
                1.0,
                6.12323426292584e-17,
                3.74939939305299e-33
            ],
            "scale": [
                100.0,
                100.0,
                100.0
            ],
            "mesh": 0,
            "skin": 0
        },
        {
            "name": "character_bones",
            "translation": [
                0.0,
                0.0,
                0.0
            ],
            "rotation": [
                -0.707106709480286,
                3.09086161109917e-08,
                -3.09086232164191e-08,
                0.707106828689575
            ],
            "scale": [
                100.0,
                100.0,
                100.0
            ],
            "children": [
                3,
                21,
                22,
                23,
                24
            ]
        },
        {
            "name": "Bone",
            "translation": [
                8.65646961731753e-27,
                0.000808548065833747,
                0.00743388570845127
            ],
            "rotation": [
                0.705123007297516,
                -0.191786244511604,
                -0.20798622071743,
                0.650200963020325
            ],
            "scale": [
                1.0,
                0.999999940395355,
                1.0
            ],
            "children": [
                4,
                7,
                10
            ]
        },
        {
            "name": "leg_up.L",
            "translation": [
                0.00135568506084383,
                -0.000464666809421033,
                2.63083584286505e-05
            ],
            "rotation": [
                0.276223689317703,
                0.368194937705994,
                0.871483623981476,
                -0.169260755181313
            ],
            "scale": [
                0.999999821186066,
                1.00000357627869,
                1.00007891654968
            ],
            "children": [
                5
            ]
        },
        {
            "name": "leg_down.L",
            "translation": [
                -1.49011608607807e-10,
                0.00335288583301008,
                -1.14087010671948e-10
            ],
            "rotation": [
                -0.354265451431274,
                1.72354944538711e-07,
                3.66594179013191e-07,
                0.935144901275635
            ],
            "scale": [
                1.0,
                0.999976098537445,
                1.00001561641693
            ],
            "children": [
                6
            ]
        },
        {
            "name": "foot.L",
            "translation": [
                -1.86264510759759e-11,
                0.00325416517443955,
                2.44472164734333e-10
            ],
            "rotation": [
                -0.0130871292203665,
                0.930266678333282,
                0.366384834051132,
                0.0139559749513865
            ],
            "scale": [
                1.00000095367432,
                1.00001442432404,
                1.00001168251038
            ]
        },
        {
            "name": "leg_up.R",
            "translation": [
                -0.0013556849444285,
                -0.000464667216874659,
                2.63081856246572e-05
            ],
            "rotation": [
                0.253106027841568,
                0.141680166125298,
                0.956503808498383,
                0.0310563929378986
            ],
            "scale": [
                0.999999940395355,
                1.00000536441803,
                1.00007712841034
            ],
            "children": [
                8
            ]
        },
        {
            "name": "leg_down.R",
            "translation": [
                3.21306287132117e-10,
                0.00335288466885686,
                -2.9336660878343e-10
            ],
            "rotation": [
                -0.400766462087631,
                -1.40281571248124e-07,
                -3.87303288107432e-07,
                0.91618025302887
            ],
            "scale": [
                1.00000047683716,
                0.999970197677612,
                1.00002026557922
            ],
            "children": [
                9
            ]
        },
        {
            "name": "foot.R",
            "translation": [
                -2.77555749952435e-19,
                0.00325416494160891,
                -1.49011608607807e-10
            ],
            "rotation": [
                -0.0771872997283936,
                0.746834456920624,
                0.656732439994812,
                -0.0705894306302071
            ],
            "scale": [
                1.00000393390656,
                0.999978423118591,
                1.00004470348358
            ]
        },
        {
            "name": "Bone.001",
            "translation": [
                -8.44378213182839e-12,
                0.00389195303432643,
                3.06734082577975e-11
            ],
            "rotation": [
                0.00638279411941767,
                -0.144875898957253,
                0.00987824331969023,
                0.989379942417145
            ],
            "scale": [
                0.999999940395355,
                0.99999988079071,
                0.999999940395355
            ],
            "children": [
                11,
                12,
                15
            ]
        },
        {
            "name": "Bone.002",
            "translation": [
                3.72529021519519e-11,
                0.00389577238820493,
                7.45058043039037e-11
            ],
            "rotation": [
                -0.0346822291612625,
                0.271795094013214,
                0.00732141546905041,
                0.961702108383179
            ],
            "scale": [
                1.0,
                0.999999940395355,
                0.999999940395355
            ]
        },
        {
            "name": "arm_up.L",
            "translation": [
                0.0040182638913393,
                0.00333013059571385,
                5.43354435649235e-05
            ],
            "rotation": [
                -0.0865913257002831,
                0.566078722476959,
                0.786890804767609,
                -0.229912281036377
            ],
            "scale": [
                0.999999940395355,
                0.999999940395355,
                0.999999761581421
            ],
            "children": [
                13
            ]
        },
        {
            "name": "arm_down.L",
            "translation": [
                -2.23517412911711e-10,
                0.00370091246441007,
                1.0523945048746e-09
            ],
            "rotation": [
                0.102243021130562,
                0.00318206287920475,
                -0.0458832755684853,
                0.993695616722107
            ],
            "scale": [
                0.999999940395355,
                0.999999940395355,
                0.999999940395355
            ],
            "children": [
                14
            ]
        },
        {
            "name": "weapon_hand.L",
            "translation": [
                5.21540644005114e-10,
                0.00313903950154781,
                -1.19209286886246e-09
            ],
            "rotation": [
                0.707106828689575,
                -5.00493904098676e-08,
                4.74152166418662e-08,
                0.707106709480286
            ],
            "scale": [
                0.999999940395355,
                1.0,
                1.0
            ]
        },
        {
            "name": "arm_up.R",
            "translation": [
                -0.00401826296001673,
                0.00333012966439128,
                5.43355927220546e-05
            ],
            "rotation": [
                0.403351277112961,
                0.389013141393661,
                0.791726589202881,
                0.24319863319397
            ],
            "scale": [
                0.999999940395355,
                1.00000011920929,
                1.00000011920929
            ],
            "children": [
                16
            ]
        },
        {
            "name": "arm_down.R",
            "translation": [
                -5.68106783838118e-10,
                0.00370091246441007,
                0.0
            ],
            "rotation": [
                0.525341928005219,
                -0.0372229740023613,
                0.188551425933838,
                0.828902065753937
            ],
            "scale": [
                0.999999940395355,
                0.999999940395355,
                1.00000023841858
            ],
            "children": [
                17
            ]
        },
        {
            "name": "weapon_hand.R",
            "translation": [
                1.34110444971469e-09,
                0.00313903857022524,
                8.00937371980837e-10
            ],
            "rotation": [
                0.707106828689575,
                2.14026965039693e-08,
                -5.95982960760466e-08,
                0.707106709480286
            ],
            "scale": [
                0.999999940395355,
                0.99999988079071,
                0.99999988079071
            ],
            "children": [
                18,
                19,
                20
            ]
        },
        {
            "name": "knife",
            "translation": [
                -0.0105271097272635,
                -0.00706977490335703,
                -0.00176281749736518
            ],
            "rotation": [
                0.0500492639839649,
                -0.131448164582253,
                -0.304236859083176,
                0.942155182361603
            ],
            "scale": [
                0.999999821186066,
                0.99999988079071,
                0.999999761581421
            ],
            "mesh": 1
        },
        {
            "name": "luoi_liem",
            "translation": [
                -0.0105271097272635,
                -0.00706977490335703,
                -0.00176281749736518
            ],
            "rotation": [
                0.0500492639839649,
                -0.131448164582253,
                -0.304236859083176,
                0.942155182361603
            ],
            "scale": [
                0.999999821186066,
                0.99999988079071,
                0.999999761581421
            ],
            "mesh": 2
        },
        {
            "name": "kiem_ngan",
            "translation": [
                -0.0105271097272635,
                -0.00706977490335703,
                -0.00176281749736518
            ],
            "rotation": [
                0.0500492639839649,
                -0.131448164582253,
                -0.304236859083176,
                0.942155182361603
            ],
            "scale": [
                0.999999821186066,
                0.99999988079071,
                0.999999761581421
            ],
            "mesh": 3
        },
        {
            "name": "ik_legPole.L",
            "translation": [
                0.00214265333488584,
                -0.0114283785223961,
                0.00512510119006038
            ],
            "rotation": [
                1.19209289550781e-07,
                5.21080354294037e-15,
                1.0,
                -4.37113882867379e-08
            ],
            "scale": [
                1.0,
                1.0,
                1.0
            ]
        },
        {
            "name": "ik_target.L",
            "translation": [
                0.00185370107647032,
                -0.00222859042696655,
                0.00122932880185544
            ],
            "rotation": [
                -0.0777172595262527,
                0.996975421905518,
                5.86748738484744e-09,
                7.52695541450521e-08
            ],
            "scale": [
                0.999999940395355,
                0.999999701976776,
                1.0
            ]
        },
        {
            "name": "ik_legPole.R",
            "translation": [
                -0.00223009428009391,
                -0.0114283785223961,
                0.00512510119006038
            ],
            "rotation": [
                -1.19209289550781e-07,
                -5.21080354294037e-15,
                1.0,
                -4.37113882867379e-08
            ],
            "scale": [
                1.0,
                1.0,
                1.0
            ]
        },
        {
            "name": "ik_target.R",
            "translation": [
                -0.0018718441715464,
                0.0029669210780412,
                0.00118560832925141
            ],
            "rotation": [
                0.0577824637293816,
                0.995184421539307,
                -0.0165310315787792,
                0.0774330869317055
            ],
            "scale": [
                0.999999940395355,
                0.999999701976776,
                0.999999940395355
            ]
        }
    ]
}