{
  "__type__": "cc.Skeleton",
  "_name": "",
  "_objFlags": 0,
  "_native": "",
  "_model": {
    "__uuid__": "99941a08-29ea-4678-8d1e-83cdd1f1b92f"
  },
  "_jointIndices": [
    31
  ],
  "_skinIndex": 3
}