{
  "__type__": "cc.SpriteFrame",
  "content": {
    "name": "R_McdonaldEvil",
    "texture": "62e17d98-092b-4e24-83e6-db3c3901a8b3",
    "atlas": "",
    "rect": [
      0,
      0,
      128,
      128
    ],
    "offset": [
      0,
      0
    ],
    "originalSize": [
      128,
      128
    ],
    "capInsets": [
      0,
      0,
      0,
      0
    ]
  }
}