{
  "__type__": "cc.Skeleton",
  "_name": "",
  "_objFlags": 0,
  "_native": "",
  "_model": {
    "__uuid__": "7f382cb3-655c-47a9-a3d7-9e43962b33e4"
  },
  "_jointIndices": [
    5,
    6,
    7,
    8,
    9,
    34,
    45,
    46,
    47,
    49,
    50,
    51,
    10
  ],
  "_skinIndex": 0
}