{
  "__type__": "cc.Skeleton",
  "_name": "",
  "_objFlags": 0,
  "_native": "",
  "_model": {
    "__uuid__": "d8d8ae93-fb90-4893-a192-a6dd840d4517"
  },
  "_jointIndices": [
    29
  ],
  "_skinIndex": 2
}