{
  "__type__": "cc.SpriteFrame",
  "content": {
    "name": "Homecoming_suit2",
    "texture": "343211fc-74fc-47c0-8c56-d080cc1859a0",
    "atlas": "",
    "rect": [
      0,
      0,
      128,
      128
    ],
    "offset": [
      0,
      0
    ],
    "originalSize": [
      128,
      128
    ],
    "capInsets": [
      0,
      0,
      0,
      0
    ]
  }
}