{
  "__type__": "cc.SkeletonAnimationClip",
  "_name": "Katana Attack",
  "_objFlags": 0,
  "_native": ".bin",
  "_duration": 1.1666666269302368,
  "sample": 30,
  "speed": 1,
  "wrapMode": 2,
  "events": [],
  "description": {
    "All_ctrl/all_joint/hip": {
      "position": {
        "offset": 0,
        "frameCount": 14
      },
      "quat": {
        "offset": 56,
        "frameCount": 27
      },
      "scale": {
        "offset": 191,
        "frameCount": 1
      }
    },
    "All_ctrl/all_joint/hip/spine_01": {
      "quat": {
        "offset": 195,
        "frameCount": 28
      },
      "scale": {
        "offset": 335,
        "frameCount": 1
      },
      "position": {
        "offset": 339,
        "frameCount": 1
      }
    },
    "All_ctrl/all_joint/hip/spine_01/spine_02": {
      "position": {
        "offset": 343,
        "frameCount": 16
      },
      "quat": {
        "offset": 407,
        "frameCount": 29
      },
      "scale": {
        "offset": 552,
        "frameCount": 1
      }
    },
    "All_ctrl/all_joint/hip/spine_01/spine_02/back": {
      "position": {
        "offset": 556,
        "frameCount": 6
      },
      "quat": {
        "offset": 580,
        "frameCount": 22
      },
      "scale": {
        "offset": 690,
        "frameCount": 1
      }
    },
    "All_ctrl/all_joint/hip/spine_01/spine_02/jaw_up": {
      "quat": {
        "offset": 694,
        "frameCount": 24
      },
      "scale": {
        "offset": 814,
        "frameCount": 1
      },
      "position": {
        "offset": 818,
        "frameCount": 1
      }
    },
    "All_ctrl/all_joint/hip/spine_01/spine_02/Hand_L_01": {
      "position": {
        "offset": 822,
        "frameCount": 25
      },
      "quat": {
        "offset": 922,
        "frameCount": 28
      },
      "scale": {
        "offset": 1062,
        "frameCount": 1
      }
    },
    "All_ctrl/all_joint/hip/spine_01/spine_02/Hand_L_01/Thumb_L_01": {
      "position": {
        "offset": 1066,
        "frameCount": 4
      },
      "quat": {
        "offset": 1082,
        "frameCount": 15
      },
      "scale": {
        "offset": 1157,
        "frameCount": 1
      }
    },
    "All_ctrl/all_joint/hip/spine_01/spine_02/Hand_L_01/Thumb_L_01/Thumb_L_02": {
      "position": {
        "offset": 1161,
        "frameCount": 4
      },
      "quat": {
        "offset": 1177,
        "frameCount": 15
      },
      "scale": {
        "offset": 1252,
        "frameCount": 1
      }
    },
    "All_ctrl/all_joint/hip/spine_01/spine_02/Hand_L_01/idex_L_01": {
      "position": {
        "offset": 1256,
        "frameCount": 4
      },
      "quat": {
        "offset": 1272,
        "frameCount": 15
      },
      "scale": {
        "offset": 1347,
        "frameCount": 1
      }
    },
    "All_ctrl/all_joint/hip/spine_01/spine_02/Hand_L_01/idex_L_01/idex_L_02": {
      "position": {
        "offset": 1351,
        "frameCount": 4
      },
      "quat": {
        "offset": 1367,
        "frameCount": 14
      },
      "scale": {
        "offset": 1437,
        "frameCount": 1
      }
    },
    "All_ctrl/all_joint/hip/spine_01/spine_02/Hand_L_01/Ring_L_01": {
      "position": {
        "offset": 1441,
        "frameCount": 4
      },
      "quat": {
        "offset": 1457,
        "frameCount": 15
      },
      "scale": {
        "offset": 1532,
        "frameCount": 1
      }
    },
    "All_ctrl/all_joint/hip/spine_01/spine_02/Hand_L_01/Ring_L_01/Ring_L_02": {
      "position": {
        "offset": 1536,
        "frameCount": 4
      },
      "quat": {
        "offset": 1552,
        "frameCount": 15
      },
      "scale": {
        "offset": 1627,
        "frameCount": 1
      }
    },
    "All_ctrl/all_joint/hip/spine_01/spine_02/Hand_L_01/Little_L_01": {
      "position": {
        "offset": 1631,
        "frameCount": 4
      },
      "quat": {
        "offset": 1647,
        "frameCount": 15
      },
      "scale": {
        "offset": 1722,
        "frameCount": 1
      }
    },
    "All_ctrl/all_joint/hip/spine_01/spine_02/Hand_L_01/Little_L_01/Little_L_02": {
      "position": {
        "offset": 1726,
        "frameCount": 4
      },
      "quat": {
        "offset": 1742,
        "frameCount": 15
      },
      "scale": {
        "offset": 1817,
        "frameCount": 1
      }
    },
    "All_ctrl/all_joint/hip/spine_01/spine_02/Hand_R_01": {
      "position": {
        "offset": 1821,
        "frameCount": 24
      },
      "quat": {
        "offset": 1917,
        "frameCount": 28
      },
      "scale": {
        "offset": 2057,
        "frameCount": 1
      }
    },
    "All_ctrl/all_joint/hip/spine_01/spine_02/Hand_R_01/Thumb_R_01": {
      "position": {
        "offset": 2061,
        "frameCount": 4
      },
      "quat": {
        "offset": 2077,
        "frameCount": 6
      },
      "scale": {
        "offset": 2107,
        "frameCount": 1
      }
    },
    "All_ctrl/all_joint/hip/spine_01/spine_02/Hand_R_01/Thumb_R_01/Thumb_R_02": {
      "position": {
        "offset": 2111,
        "frameCount": 4
      },
      "quat": {
        "offset": 2127,
        "frameCount": 6
      },
      "scale": {
        "offset": 2157,
        "frameCount": 1
      }
    },
    "All_ctrl/all_joint/hip/spine_01/spine_02/Hand_R_01/idex_R_01": {
      "position": {
        "offset": 2161,
        "frameCount": 4
      },
      "quat": {
        "offset": 2177,
        "frameCount": 6
      },
      "scale": {
        "offset": 2207,
        "frameCount": 1
      }
    },
    "All_ctrl/all_joint/hip/spine_01/spine_02/Hand_R_01/idex_R_01/idex_R_02": {
      "position": {
        "offset": 2211,
        "frameCount": 4
      },
      "quat": {
        "offset": 2227,
        "frameCount": 4
      },
      "scale": {
        "offset": 2247,
        "frameCount": 1
      }
    },
    "All_ctrl/all_joint/hip/spine_01/spine_02/Hand_R_01/Ring_R_01": {
      "position": {
        "offset": 2251,
        "frameCount": 4
      },
      "quat": {
        "offset": 2267,
        "frameCount": 6
      },
      "scale": {
        "offset": 2297,
        "frameCount": 1
      }
    },
    "All_ctrl/all_joint/hip/spine_01/spine_02/Hand_R_01/Ring_R_01/Ring_R_02": {
      "position": {
        "offset": 2301,
        "frameCount": 4
      },
      "quat": {
        "offset": 2317,
        "frameCount": 4
      },
      "scale": {
        "offset": 2337,
        "frameCount": 1
      }
    },
    "All_ctrl/all_joint/hip/spine_01/spine_02/Hand_R_01/Little_R_01": {
      "position": {
        "offset": 2341,
        "frameCount": 4
      },
      "quat": {
        "offset": 2357,
        "frameCount": 21
      },
      "scale": {
        "offset": 2462,
        "frameCount": 1
      }
    },
    "All_ctrl/all_joint/hip/spine_01/spine_02/Hand_R_01/Little_R_01/Little_R_02": {
      "position": {
        "offset": 2466,
        "frameCount": 4
      },
      "quat": {
        "offset": 2482,
        "frameCount": 4
      },
      "scale": {
        "offset": 2502,
        "frameCount": 1
      }
    },
    "All_ctrl/all_joint/hip/spine_01/spine_02/Hand_R_01/weapon_gun_joint": {
      "position": {
        "offset": 2506,
        "frameCount": 4
      },
      "quat": {
        "offset": 2522,
        "frameCount": 4
      },
      "scale": {
        "offset": 2542,
        "frameCount": 1
      }
    },
    "All_ctrl/all_joint/hip/spine_01/spine_02/Hand_R_01/weapon_katana_joint": {
      "position": {
        "offset": 2546,
        "frameCount": 5
      },
      "quat": {
        "offset": 2566,
        "frameCount": 11
      },
      "scale": {
        "offset": 2621,
        "frameCount": 1
      }
    },
    "All_ctrl/all_joint/hip/spine_01/spine_02/Hand_R_01/weapon_knife_joint": {
      "position": {
        "offset": 2625,
        "frameCount": 4
      },
      "quat": {
        "offset": 2641,
        "frameCount": 4
      },
      "scale": {
        "offset": 2661,
        "frameCount": 1
      }
    },
    "All_ctrl/all_joint/hip/spine_01/spine_02/Hand_R_01/weapon_bazooka_joint": {
      "position": {
        "offset": 2665,
        "frameCount": 4
      },
      "quat": {
        "offset": 2681,
        "frameCount": 4
      },
      "scale": {
        "offset": 2701,
        "frameCount": 1
      }
    },
    "All_ctrl/all_joint/hip/spine_01/spine_02/Hand_R_01/weapon_bua_joint": {
      "position": {
        "offset": 2705,
        "frameCount": 4
      },
      "quat": {
        "offset": 2721,
        "frameCount": 4
      },
      "scale": {
        "offset": 2741,
        "frameCount": 1
      }
    },
    "All_ctrl/all_joint/hip/spine_01/jaw_down": {
      "position": {
        "offset": 2745,
        "frameCount": 3
      },
      "quat": {
        "offset": 2757,
        "frameCount": 20
      },
      "scale": {
        "offset": 2857,
        "frameCount": 1
      }
    },
    "All_ctrl/all_joint/hip/leg_L": {
      "quat": {
        "offset": 2861,
        "frameCount": 29
      },
      "scale": {
        "offset": 3006,
        "frameCount": 1
      },
      "position": {
        "offset": 3010,
        "frameCount": 1
      }
    },
    "All_ctrl/all_joint/hip/leg_L/knee_L": {
      "quat": {
        "offset": 3014,
        "frameCount": 26
      },
      "scale": {
        "offset": 3144,
        "frameCount": 1
      },
      "position": {
        "offset": 3148,
        "frameCount": 1
      }
    },
    "All_ctrl/all_joint/hip/leg_L/knee_L/feet_L": {
      "quat": {
        "offset": 3152,
        "frameCount": 28
      },
      "scale": {
        "offset": 3292,
        "frameCount": 1
      },
      "position": {
        "offset": 3296,
        "frameCount": 1
      }
    },
    "All_ctrl/all_joint/hip/leg_R": {
      "quat": {
        "offset": 3300,
        "frameCount": 29
      },
      "scale": {
        "offset": 3445,
        "frameCount": 1
      },
      "position": {
        "offset": 3449,
        "frameCount": 1
      }
    },
    "All_ctrl/all_joint/hip/leg_R/knee_R": {
      "quat": {
        "offset": 3453,
        "frameCount": 26
      },
      "scale": {
        "offset": 3583,
        "frameCount": 1
      },
      "position": {
        "offset": 3587,
        "frameCount": 1
      }
    },
    "All_ctrl/all_joint/hip/leg_R/knee_R/feet_R": {
      "quat": {
        "offset": 3591,
        "frameCount": 28
      },
      "scale": {
        "offset": 3731,
        "frameCount": 1
      },
      "position": {
        "offset": 3735,
        "frameCount": 1
      }
    },
    "AmongUS": {
      "quat": {
        "offset": 3739,
        "frameCount": 1
      },
      "scale": {
        "offset": 3744,
        "frameCount": 1
      },
      "position": {
        "offset": 3748,
        "frameCount": 1
      }
    },
    "AmongUS/Luoi": {
      "quat": {
        "offset": 3752,
        "frameCount": 1
      },
      "scale": {
        "offset": 3757,
        "frameCount": 1
      },
      "position": {
        "offset": 3761,
        "frameCount": 1
      }
    },
    "All_ctrl": {
      "quat": {
        "offset": 3765,
        "frameCount": 1
      },
      "scale": {
        "offset": 3770,
        "frameCount": 1
      },
      "position": {
        "offset": 3774,
        "frameCount": 1
      }
    },
    "All_ctrl/all_joint": {
      "quat": {
        "offset": 3778,
        "frameCount": 1
      },
      "scale": {
        "offset": 3783,
        "frameCount": 1
      },
      "position": {
        "offset": 3787,
        "frameCount": 1
      }
    },
    "All_ctrl/all_joint/hip/spine_01/spine_02/head": {
      "quat": {
        "offset": 3791,
        "frameCount": 1
      },
      "scale": {
        "offset": 3796,
        "frameCount": 1
      },
      "position": {
        "offset": 3800,
        "frameCount": 1
      }
    },
    "All_ctrl/all_joint/hip/spine_01/jaw_down/jaw_down1": {
      "quat": {
        "offset": 3804,
        "frameCount": 1
      },
      "scale": {
        "offset": 3809,
        "frameCount": 1
      },
      "position": {
        "offset": 3813,
        "frameCount": 1
      }
    },
    "All_ctrl/all_joint/hip/spine_01/jaw_down/Luoi1": {
      "quat": {
        "offset": 3817,
        "frameCount": 1
      },
      "scale": {
        "offset": 3822,
        "frameCount": 1
      },
      "position": {
        "offset": 3826,
        "frameCount": 1
      }
    },
    "All_ctrl/all_joint/hip/spine_01/jaw_down/Luoi1/Luoi2": {
      "quat": {
        "offset": 3830,
        "frameCount": 1
      },
      "scale": {
        "offset": 3835,
        "frameCount": 1
      },
      "position": {
        "offset": 3839,
        "frameCount": 1
      }
    },
    "All_ctrl/all_joint/hip/spine_01/jaw_down/Luoi1/Luoi2/Luoi3": {
      "quat": {
        "offset": 3843,
        "frameCount": 1
      },
      "scale": {
        "offset": 3848,
        "frameCount": 1
      },
      "position": {
        "offset": 3852,
        "frameCount": 1
      }
    },
    "All_ctrl/all_joint/hip/spine_01/jaw_down/Luoi1/Luoi2/Luoi3/Luoi4": {
      "quat": {
        "offset": 3856,
        "frameCount": 1
      },
      "scale": {
        "offset": 3861,
        "frameCount": 1
      },
      "position": {
        "offset": 3865,
        "frameCount": 1
      }
    },
    "All_ctrl/all_joint/hip/spine_01/jaw_down/Luoi1/Luoi2/Luoi3/Luoi4/Luoi5": {
      "quat": {
        "offset": 3869,
        "frameCount": 1
      },
      "scale": {
        "offset": 3874,
        "frameCount": 1
      },
      "position": {
        "offset": 3878,
        "frameCount": 1
      }
    },
    "All_ctrl/all_joint/hip/spine_01/jaw_down/Luoi1/Luoi2/Luoi3/Luoi4/Luoi5/Luoi6": {
      "quat": {
        "offset": 3882,
        "frameCount": 1
      },
      "scale": {
        "offset": 3887,
        "frameCount": 1
      },
      "position": {
        "offset": 3891,
        "frameCount": 1
      }
    },
    "All_ctrl/all_joint/hip/spine_01/jaw_down/Luoi1/Luoi2/Luoi3/Luoi4/Luoi5/Luoi6/Luoi7": {
      "quat": {
        "offset": 3895,
        "frameCount": 1
      },
      "scale": {
        "offset": 3900,
        "frameCount": 1
      },
      "position": {
        "offset": 3904,
        "frameCount": 1
      }
    },
    "All_ctrl/all_joint/hip/spine_01/jaw_down/Luoi1/Luoi2/Luoi3/Luoi4/Luoi5/Luoi6/Luoi7/Luoi8": {
      "quat": {
        "offset": 3908,
        "frameCount": 1
      },
      "scale": {
        "offset": 3913,
        "frameCount": 1
      },
      "position": {
        "offset": 3917,
        "frameCount": 1
      }
    },
    "All_ctrl/all_joint/hip/spine_01/jaw_down/Luoi1/Luoi2/Luoi3/Luoi4/Luoi5/Luoi6/Luoi7/Luoi8/Luoi9": {
      "quat": {
        "offset": 3921,
        "frameCount": 1
      },
      "scale": {
        "offset": 3926,
        "frameCount": 1
      },
      "position": {
        "offset": 3930,
        "frameCount": 1
      }
    },
    "All_ctrl/all_joint/hip/leg_L/knee_L/feet_L/feet_L_end": {
      "quat": {
        "offset": 3934,
        "frameCount": 1
      },
      "scale": {
        "offset": 3939,
        "frameCount": 1
      },
      "position": {
        "offset": 3943,
        "frameCount": 1
      }
    },
    "All_ctrl/all_joint/hip/leg_R/knee_R/feet_R/feet_R_end": {
      "quat": {
        "offset": 3947,
        "frameCount": 1
      },
      "scale": {
        "offset": 3952,
        "frameCount": 1
      },
      "position": {
        "offset": 3956,
        "frameCount": 1
      }
    },
    "weapon_katana": {
      "quat": {
        "offset": 3960,
        "frameCount": 1
      },
      "scale": {
        "offset": 3965,
        "frameCount": 1
      },
      "position": {
        "offset": 3969,
        "frameCount": 1
      }
    }
  }
}