{
  "__type__": "cc.SpriteFrame",
  "content": {
    "name": "Hulk",
    "texture": "154dff9f-f3a0-4915-91e7-e225077dc73c",
    "atlas": "",
    "rect": [
      0,
      0,
      126,
      128
    ],
    "offset": [
      -1,
      0
    ],
    "originalSize": [
      128,
      128
    ],
    "capInsets": [
      0,
      0,
      0,
      0
    ]
  }
}