{
  "__type__": "cc.Skeleton",
  "_name": "",
  "_objFlags": 0,
  "_native": "",
  "_model": {
    "__uuid__": "e98c6292-6575-4187-8d78-f36baabed778"
  },
  "_jointIndices": [
    6,
    7,
    8,
    9,
    10,
    35,
    46,
    47,
    48,
    50,
    51,
    52,
    11
  ],
  "_skinIndex": 0
}