{
  "__type__": "cc.SkeletonAnimationClip",
  "_name": "Knife Attack",
  "_objFlags": 0,
  "_native": ".bin",
  "_duration": 1,
  "sample": 30,
  "speed": 1,
  "wrapMode": 2,
  "events": [],
  "description": {
    "All_ctrl/all_joint/hip": {
      "position": {
        "offset": 0,
        "frameCount": 11
      },
      "quat": {
        "offset": 44,
        "frameCount": 22
      },
      "scale": {
        "offset": 154,
        "frameCount": 1
      }
    },
    "All_ctrl/all_joint/hip/spine_01": {
      "quat": {
        "offset": 158,
        "frameCount": 18
      },
      "scale": {
        "offset": 248,
        "frameCount": 1
      },
      "position": {
        "offset": 252,
        "frameCount": 1
      }
    },
    "All_ctrl/all_joint/hip/spine_01/spine_02": {
      "position": {
        "offset": 256,
        "frameCount": 15
      },
      "quat": {
        "offset": 316,
        "frameCount": 25
      },
      "scale": {
        "offset": 441,
        "frameCount": 1
      }
    },
    "All_ctrl/all_joint/hip/spine_01/spine_02/head": {
      "quat": {
        "offset": 445,
        "frameCount": 16
      },
      "scale": {
        "offset": 525,
        "frameCount": 1
      },
      "position": {
        "offset": 529,
        "frameCount": 1
      }
    },
    "All_ctrl/all_joint/hip/spine_01/spine_02/back": {
      "position": {
        "offset": 533,
        "frameCount": 7
      },
      "quat": {
        "offset": 561,
        "frameCount": 12
      },
      "scale": {
        "offset": 621,
        "frameCount": 1
      }
    },
    "All_ctrl/all_joint/hip/spine_01/spine_02/jaw_up": {
      "quat": {
        "offset": 625,
        "frameCount": 9
      },
      "scale": {
        "offset": 670,
        "frameCount": 1
      },
      "position": {
        "offset": 674,
        "frameCount": 1
      }
    },
    "All_ctrl/all_joint/hip/spine_01/spine_02/Hand_L_01": {
      "position": {
        "offset": 678,
        "frameCount": 16
      },
      "quat": {
        "offset": 742,
        "frameCount": 18
      },
      "scale": {
        "offset": 832,
        "frameCount": 1
      }
    },
    "All_ctrl/all_joint/hip/spine_01/spine_02/Hand_L_01/Thumb_L_01": {
      "position": {
        "offset": 836,
        "frameCount": 4
      },
      "quat": {
        "offset": 852,
        "frameCount": 16
      },
      "scale": {
        "offset": 932,
        "frameCount": 1
      }
    },
    "All_ctrl/all_joint/hip/spine_01/spine_02/Hand_L_01/Thumb_L_01/Thumb_L_02": {
      "position": {
        "offset": 936,
        "frameCount": 4
      },
      "quat": {
        "offset": 952,
        "frameCount": 16
      },
      "scale": {
        "offset": 1032,
        "frameCount": 1
      }
    },
    "All_ctrl/all_joint/hip/spine_01/spine_02/Hand_L_01/idex_L_01": {
      "position": {
        "offset": 1036,
        "frameCount": 4
      },
      "quat": {
        "offset": 1052,
        "frameCount": 16
      },
      "scale": {
        "offset": 1132,
        "frameCount": 1
      }
    },
    "All_ctrl/all_joint/hip/spine_01/spine_02/Hand_L_01/idex_L_01/idex_L_02": {
      "position": {
        "offset": 1136,
        "frameCount": 4
      },
      "quat": {
        "offset": 1152,
        "frameCount": 16
      },
      "scale": {
        "offset": 1232,
        "frameCount": 1
      }
    },
    "All_ctrl/all_joint/hip/spine_01/spine_02/Hand_L_01/Ring_L_01": {
      "position": {
        "offset": 1236,
        "frameCount": 4
      },
      "quat": {
        "offset": 1252,
        "frameCount": 16
      },
      "scale": {
        "offset": 1332,
        "frameCount": 1
      }
    },
    "All_ctrl/all_joint/hip/spine_01/spine_02/Hand_L_01/Ring_L_01/Ring_L_02": {
      "position": {
        "offset": 1336,
        "frameCount": 4
      },
      "quat": {
        "offset": 1352,
        "frameCount": 16
      },
      "scale": {
        "offset": 1432,
        "frameCount": 1
      }
    },
    "All_ctrl/all_joint/hip/spine_01/spine_02/Hand_L_01/Little_L_01": {
      "position": {
        "offset": 1436,
        "frameCount": 4
      },
      "quat": {
        "offset": 1452,
        "frameCount": 16
      },
      "scale": {
        "offset": 1532,
        "frameCount": 1
      }
    },
    "All_ctrl/all_joint/hip/spine_01/spine_02/Hand_L_01/Little_L_01/Little_L_02": {
      "position": {
        "offset": 1536,
        "frameCount": 4
      },
      "quat": {
        "offset": 1552,
        "frameCount": 16
      },
      "scale": {
        "offset": 1632,
        "frameCount": 1
      }
    },
    "All_ctrl/all_joint/hip/spine_01/spine_02/Hand_R_01": {
      "position": {
        "offset": 1636,
        "frameCount": 17
      },
      "quat": {
        "offset": 1704,
        "frameCount": 18
      },
      "scale": {
        "offset": 1794,
        "frameCount": 1
      }
    },
    "All_ctrl/all_joint/hip/spine_01/spine_02/Hand_R_01/Thumb_R_01": {
      "position": {
        "offset": 1798,
        "frameCount": 4
      },
      "quat": {
        "offset": 1814,
        "frameCount": 16
      },
      "scale": {
        "offset": 1894,
        "frameCount": 1
      }
    },
    "All_ctrl/all_joint/hip/spine_01/spine_02/Hand_R_01/Thumb_R_01/Thumb_R_02": {
      "position": {
        "offset": 1898,
        "frameCount": 4
      },
      "quat": {
        "offset": 1914,
        "frameCount": 7
      },
      "scale": {
        "offset": 1949,
        "frameCount": 1
      }
    },
    "All_ctrl/all_joint/hip/spine_01/spine_02/Hand_R_01/idex_R_01": {
      "position": {
        "offset": 1953,
        "frameCount": 4
      },
      "quat": {
        "offset": 1969,
        "frameCount": 7
      },
      "scale": {
        "offset": 2004,
        "frameCount": 1
      }
    },
    "All_ctrl/all_joint/hip/spine_01/spine_02/Hand_R_01/idex_R_01/idex_R_02": {
      "position": {
        "offset": 2008,
        "frameCount": 4
      },
      "quat": {
        "offset": 2024,
        "frameCount": 4
      },
      "scale": {
        "offset": 2044,
        "frameCount": 1
      }
    },
    "All_ctrl/all_joint/hip/spine_01/spine_02/Hand_R_01/Ring_R_01": {
      "position": {
        "offset": 2048,
        "frameCount": 4
      },
      "quat": {
        "offset": 2064,
        "frameCount": 16
      },
      "scale": {
        "offset": 2144,
        "frameCount": 1
      }
    },
    "All_ctrl/all_joint/hip/spine_01/spine_02/Hand_R_01/Ring_R_01/Ring_R_02": {
      "position": {
        "offset": 2148,
        "frameCount": 4
      },
      "quat": {
        "offset": 2164,
        "frameCount": 4
      },
      "scale": {
        "offset": 2184,
        "frameCount": 1
      }
    },
    "All_ctrl/all_joint/hip/spine_01/spine_02/Hand_R_01/Little_R_01": {
      "position": {
        "offset": 2188,
        "frameCount": 4
      },
      "quat": {
        "offset": 2204,
        "frameCount": 16
      },
      "scale": {
        "offset": 2284,
        "frameCount": 1
      }
    },
    "All_ctrl/all_joint/hip/spine_01/spine_02/Hand_R_01/Little_R_01/Little_R_02": {
      "position": {
        "offset": 2288,
        "frameCount": 4
      },
      "quat": {
        "offset": 2304,
        "frameCount": 4
      },
      "scale": {
        "offset": 2324,
        "frameCount": 1
      }
    },
    "All_ctrl/all_joint/hip/spine_01/spine_02/Hand_R_01/weapon_gun_joint": {
      "position": {
        "offset": 2328,
        "frameCount": 4
      },
      "quat": {
        "offset": 2344,
        "frameCount": 4
      },
      "scale": {
        "offset": 2364,
        "frameCount": 1
      }
    },
    "All_ctrl/all_joint/hip/spine_01/spine_02/Hand_R_01/weapon_katana_joint": {
      "position": {
        "offset": 2368,
        "frameCount": 4
      },
      "quat": {
        "offset": 2384,
        "frameCount": 4
      },
      "scale": {
        "offset": 2404,
        "frameCount": 1
      }
    },
    "All_ctrl/all_joint/hip/spine_01/spine_02/Hand_R_01/weapon_knife_joint": {
      "position": {
        "offset": 2408,
        "frameCount": 10
      },
      "quat": {
        "offset": 2448,
        "frameCount": 13
      },
      "scale": {
        "offset": 2513,
        "frameCount": 1
      }
    },
    "All_ctrl/all_joint/hip/spine_01/spine_02/Hand_R_01/weapon_bazooka_joint": {
      "position": {
        "offset": 2517,
        "frameCount": 4
      },
      "quat": {
        "offset": 2533,
        "frameCount": 4
      },
      "scale": {
        "offset": 2553,
        "frameCount": 1
      }
    },
    "All_ctrl/all_joint/hip/spine_01/spine_02/Hand_R_01/weapon_bua_joint": {
      "position": {
        "offset": 2557,
        "frameCount": 4
      },
      "quat": {
        "offset": 2573,
        "frameCount": 4
      },
      "scale": {
        "offset": 2593,
        "frameCount": 1
      }
    },
    "All_ctrl/all_joint/hip/spine_01/jaw_down": {
      "position": {
        "offset": 2597,
        "frameCount": 2
      },
      "quat": {
        "offset": 2605,
        "frameCount": 10
      },
      "scale": {
        "offset": 2655,
        "frameCount": 1
      }
    },
    "All_ctrl/all_joint/hip/leg_L": {
      "quat": {
        "offset": 2659,
        "frameCount": 22
      },
      "scale": {
        "offset": 2769,
        "frameCount": 1
      },
      "position": {
        "offset": 2773,
        "frameCount": 1
      }
    },
    "All_ctrl/all_joint/hip/leg_L/knee_L": {
      "quat": {
        "offset": 2777,
        "frameCount": 21
      },
      "scale": {
        "offset": 2882,
        "frameCount": 1
      },
      "position": {
        "offset": 2886,
        "frameCount": 1
      }
    },
    "All_ctrl/all_joint/hip/leg_L/knee_L/feet_L": {
      "quat": {
        "offset": 2890,
        "frameCount": 22
      },
      "scale": {
        "offset": 3000,
        "frameCount": 1
      },
      "position": {
        "offset": 3004,
        "frameCount": 1
      }
    },
    "All_ctrl/all_joint/hip/leg_R": {
      "quat": {
        "offset": 3008,
        "frameCount": 22
      },
      "scale": {
        "offset": 3118,
        "frameCount": 1
      },
      "position": {
        "offset": 3122,
        "frameCount": 1
      }
    },
    "All_ctrl/all_joint/hip/leg_R/knee_R": {
      "quat": {
        "offset": 3126,
        "frameCount": 22
      },
      "scale": {
        "offset": 3236,
        "frameCount": 1
      },
      "position": {
        "offset": 3240,
        "frameCount": 1
      }
    },
    "All_ctrl/all_joint/hip/leg_R/knee_R/feet_R": {
      "quat": {
        "offset": 3244,
        "frameCount": 22
      },
      "scale": {
        "offset": 3354,
        "frameCount": 1
      },
      "position": {
        "offset": 3358,
        "frameCount": 1
      }
    },
    "AmongUS": {
      "quat": {
        "offset": 3362,
        "frameCount": 1
      },
      "scale": {
        "offset": 3367,
        "frameCount": 1
      },
      "position": {
        "offset": 3371,
        "frameCount": 1
      }
    },
    "AmongUS/Luoi": {
      "quat": {
        "offset": 3375,
        "frameCount": 1
      },
      "scale": {
        "offset": 3380,
        "frameCount": 1
      },
      "position": {
        "offset": 3384,
        "frameCount": 1
      }
    },
    "AmongUS/Hand3": {
      "quat": {
        "offset": 3388,
        "frameCount": 1
      },
      "scale": {
        "offset": 3393,
        "frameCount": 1
      },
      "position": {
        "offset": 3397,
        "frameCount": 1
      }
    },
    "All_ctrl": {
      "quat": {
        "offset": 3401,
        "frameCount": 1
      },
      "scale": {
        "offset": 3406,
        "frameCount": 1
      },
      "position": {
        "offset": 3410,
        "frameCount": 1
      }
    },
    "All_ctrl/all_joint": {
      "quat": {
        "offset": 3414,
        "frameCount": 1
      },
      "scale": {
        "offset": 3419,
        "frameCount": 1
      },
      "position": {
        "offset": 3423,
        "frameCount": 1
      }
    },
    "All_ctrl/all_joint/hip/spine_01/jaw_down/jaw_down1": {
      "quat": {
        "offset": 3427,
        "frameCount": 1
      },
      "scale": {
        "offset": 3432,
        "frameCount": 1
      },
      "position": {
        "offset": 3436,
        "frameCount": 1
      }
    },
    "All_ctrl/all_joint/hip/spine_01/jaw_down/Luoi1": {
      "quat": {
        "offset": 3440,
        "frameCount": 1
      },
      "scale": {
        "offset": 3445,
        "frameCount": 1
      },
      "position": {
        "offset": 3449,
        "frameCount": 1
      }
    },
    "All_ctrl/all_joint/hip/spine_01/jaw_down/Luoi1/Luoi2": {
      "quat": {
        "offset": 3453,
        "frameCount": 1
      },
      "scale": {
        "offset": 3458,
        "frameCount": 1
      },
      "position": {
        "offset": 3462,
        "frameCount": 1
      }
    },
    "All_ctrl/all_joint/hip/spine_01/jaw_down/Luoi1/Luoi2/Luoi3": {
      "quat": {
        "offset": 3466,
        "frameCount": 1
      },
      "scale": {
        "offset": 3471,
        "frameCount": 1
      },
      "position": {
        "offset": 3475,
        "frameCount": 1
      }
    },
    "All_ctrl/all_joint/hip/spine_01/jaw_down/Luoi1/Luoi2/Luoi3/Luoi4": {
      "quat": {
        "offset": 3479,
        "frameCount": 1
      },
      "scale": {
        "offset": 3484,
        "frameCount": 1
      },
      "position": {
        "offset": 3488,
        "frameCount": 1
      }
    },
    "All_ctrl/all_joint/hip/spine_01/jaw_down/Luoi1/Luoi2/Luoi3/Luoi4/Luoi5": {
      "quat": {
        "offset": 3492,
        "frameCount": 1
      },
      "scale": {
        "offset": 3497,
        "frameCount": 1
      },
      "position": {
        "offset": 3501,
        "frameCount": 1
      }
    },
    "All_ctrl/all_joint/hip/spine_01/jaw_down/Luoi1/Luoi2/Luoi3/Luoi4/Luoi5/Luoi6": {
      "quat": {
        "offset": 3505,
        "frameCount": 1
      },
      "scale": {
        "offset": 3510,
        "frameCount": 1
      },
      "position": {
        "offset": 3514,
        "frameCount": 1
      }
    },
    "All_ctrl/all_joint/hip/spine_01/jaw_down/Luoi1/Luoi2/Luoi3/Luoi4/Luoi5/Luoi6/Luoi7": {
      "quat": {
        "offset": 3518,
        "frameCount": 1
      },
      "scale": {
        "offset": 3523,
        "frameCount": 1
      },
      "position": {
        "offset": 3527,
        "frameCount": 1
      }
    },
    "All_ctrl/all_joint/hip/spine_01/jaw_down/Luoi1/Luoi2/Luoi3/Luoi4/Luoi5/Luoi6/Luoi7/Luoi8": {
      "quat": {
        "offset": 3531,
        "frameCount": 1
      },
      "scale": {
        "offset": 3536,
        "frameCount": 1
      },
      "position": {
        "offset": 3540,
        "frameCount": 1
      }
    },
    "All_ctrl/all_joint/hip/spine_01/jaw_down/Luoi1/Luoi2/Luoi3/Luoi4/Luoi5/Luoi6/Luoi7/Luoi8/Luoi9": {
      "quat": {
        "offset": 3544,
        "frameCount": 1
      },
      "scale": {
        "offset": 3549,
        "frameCount": 1
      },
      "position": {
        "offset": 3553,
        "frameCount": 1
      }
    },
    "All_ctrl/all_joint/hip/leg_L/knee_L/feet_L/feet_L_end": {
      "quat": {
        "offset": 3557,
        "frameCount": 1
      },
      "scale": {
        "offset": 3562,
        "frameCount": 1
      },
      "position": {
        "offset": 3566,
        "frameCount": 1
      }
    },
    "All_ctrl/all_joint/hip/leg_R/knee_R/feet_R/feet_R_end": {
      "quat": {
        "offset": 3570,
        "frameCount": 1
      },
      "scale": {
        "offset": 3575,
        "frameCount": 1
      },
      "position": {
        "offset": 3579,
        "frameCount": 1
      }
    },
    "weapon_knife": {
      "quat": {
        "offset": 3583,
        "frameCount": 1
      },
      "scale": {
        "offset": 3588,
        "frameCount": 1
      },
      "position": {
        "offset": 3592,
        "frameCount": 1
      }
    }
  }
}