{
  "__type__": "cc.SpriteFrame",
  "content": {
    "name": "INSTALL_NOW_DE",
    "texture": "4dafb2dc-8700-4a3c-927d-26169e17a2c6",
    "atlas": "",
    "rect": [
      0,
      0,
      260,
      75
    ],
    "offset": [
      0,
      0
    ],
    "originalSize": [
      260,
      75
    ],
    "capInsets": [
      0,
      0,
      0,
      0
    ]
  }
}