{
  "__type__": "cc.SpriteFrame",
  "content": {
    "name": "steve",
    "texture": "7f335091-02f7-484f-bb70-7b679586d42a",
    "atlas": "",
    "rect": [
      0,
      0,
      512,
      512
    ],
    "offset": [
      0,
      0
    ],
    "originalSize": [
      512,
      512
    ],
    "capInsets": [
      0,
      0,
      0,
      0
    ]
  }
}