{
  "__type__": "cc.SpriteFrame",
  "content": {
    "name": "tex_ground_01",
    "texture": "3099a3c9-a470-4aaa-9d66-f2a45910e555",
    "atlas": "",
    "rect": [
      0,
      0,
      64,
      64
    ],
    "offset": [
      0,
      0
    ],
    "originalSize": [
      64,
      64
    ],
    "capInsets": [
      0,
      0,
      0,
      0
    ]
  }
}